################################
#
# Ancient Relics Events
#
# Written by Henrik Thyrwall
#
################################
#
#namespace = ancrel
#
## Omnicodex Activation
#country_event = {
#	id = ancrel.6000
#	title = "ancrel.6000.name"
#	desc = "ancrel.6000.desc"
#	picture = GFX_evt_genetic_modification
#	show_sound = event_laboratory_sound
#
#	is_triggered_only = yes
#	
#	immediate = {
#		if = {
#			limit = {
#				num_owned_planets = 1
#			}
#			random_owned_planet = { save_event_target_as = planet_option_1 }
#		}
#		if = {
#			limit = {
#				num_owned_planets = 2
#			}
#			random_owned_planet = { save_event_target_as = planet_option_1 }
#			random_owned_planet = {
#				limit = {
#					NOT = { is_same_value = event_target:planet_option_1 }
#				}
#				save_event_target_as = planet_option_2
#			}
#		}
#		if = {
#			limit = {
#				num_owned_planets = 3
#			}
#			random_owned_planet = { save_event_target_as = planet_option_1 }
#			random_owned_planet = {
#				limit = {
#					NOT = { is_same_value = event_target:planet_option_1 }
#				}
#				save_event_target_as = planet_option_2
#			}
#			random_owned_planet = {
#				limit = {
#					NOR = { 
#						is_same_value = event_target:planet_option_1
#						is_same_value = event_target:planet_option_2
#					}
#				}
#				save_event_target_as = planet_option_3
#			}
#		}
#		if = {
#			limit = {
#				num_owned_planets = 4
#			}
#			random_owned_planet = { save_event_target_as = planet_option_1 }
#			random_owned_planet = {
#				limit = {
#					NOT = { is_same_value = event_target:planet_option_1 }
#				}
#				save_event_target_as = planet_option_2
#			}
#			random_owned_planet = {
#				limit = {
#					NOR = { 
#						is_same_value = event_target:planet_option_1
#						is_same_value = event_target:planet_option_2
#					}
#				}
#				save_event_target_as = planet_option_3
#			}
#			random_owned_planet = {
#				limit = {
#					NOR = { 
#						is_same_value = event_target:planet_option_1
#						is_same_value = event_target:planet_option_2
#						is_same_value = event_target:planet_option_3
#					}
#				}
#				save_event_target_as = planet_option_4
#			}
#		}
#		if = {
#			limit = {
#				num_owned_planets >= 5
#			}
#			random_owned_planet = { save_event_target_as = planet_option_1 }
#			random_owned_planet = {
#				limit = {
#					NOT = { is_same_value = event_target:planet_option_1 }
#				}
#				save_event_target_as = planet_option_2
#			}
#			random_owned_planet = {
#				limit = {
#					NOR = { 
#						is_same_value = event_target:planet_option_1
#						is_same_value = event_target:planet_option_2
#					}
#				}
#				save_event_target_as = planet_option_3
#			}
#			random_owned_planet = {
#				limit = {
#					NOR = { 
#						is_same_value = event_target:planet_option_1
#						is_same_value = event_target:planet_option_2
#						is_same_value = event_target:planet_option_3
#					}
#				}
#				save_event_target_as = planet_option_4
#			}
#			random_owned_planet = {
#				limit = {
#					NOR = { 
#						is_same_value = event_target:planet_option_1
#						is_same_value = event_target:planet_option_2
#						is_same_value = event_target:planet_option_3
#						is_same_value = event_target:planet_option_4
#					}
#				}
#				save_event_target_as = planet_option_5
#			}
#		}
#	}
#	
#	option = {
#		name = ancrel.6000.a
#		hidden_effect = {
#			create_species = {
#				name = random
#				class = random_non_machine
#				portrait = random
#				traits = random
#				homeworld = event_target:planet_option_1
#				effect = {
#					save_event_target_as = omnicodex_species
#				}
#			}
#			event_target:planet_option_1 = {
#				while = {
#					count = 3
#					create_pop = {
#						species = event_target:omnicodex_species
#					}					
#				}
#			}
#		}
#		custom_tooltip = ancrel.6000.a.tooltip
#	}
#	option = {
#		name = ancrel.6000.b
#		trigger = {
#			exists = event_target:planet_option_2
#		}
#		hidden_effect = {
#			create_species = {
#				name = random
#				class = random_non_machine
#				portrait = random
#				traits = random
#				homeworld = event_target:planet_option_2
#				effect = {
#					save_event_target_as = omnicodex_species
#				}
#			}
#			event_target:planet_option_2 = {
#				while = {
#					count = 3
#					create_pop = {
#						species = event_target:omnicodex_species
#					}					
#				}
#			}
#		}
#		custom_tooltip = ancrel.6000.b.tooltip
#	}
#	option = {
#		name = ancrel.6000.c
#		trigger = {
#			exists = event_target:planet_option_3
#		}
#		hidden_effect = {
#			create_species = {
#				name = random
#				class = random_non_machine
#				portrait = random
#				traits = random
#				homeworld = event_target:planet_option_3
#				effect = {
#					save_event_target_as = omnicodex_species
#				}
#			}
#			event_target:planet_option_3 = {
#				while = {
#					count = 3
#					create_pop = {
#						species = event_target:omnicodex_species
#					}					
#				}
#			}
#		}
#		custom_tooltip = ancrel.6000.c.tooltip
#	}
#	option = {
#		name = ancrel.6000.d
#		trigger = {
#			exists = event_target:planet_option_4
#		}
#		hidden_effect = {
#			create_species = {
#				name = random
#				class = random_non_machine
#				portrait = random
#				traits = random
#				homeworld = event_target:planet_option_4
#				effect = {
#					save_event_target_as = omnicodex_species
#				}
#			}
#			event_target:planet_option_4 = {
#				while = {
#					count = 3
#					create_pop = {
#						species = event_target:omnicodex_species
#					}					
#				}
#			}
#		}
#		custom_tooltip = ancrel.6000.d.tooltip
#	}
#	option = {
#		name = ancrel.6000.e
#		trigger = {
#			exists = event_target:planet_option_5
#		}
#		hidden_effect = {
#			create_species = {
#				name = random
#				class = random_non_machine
#				portrait = random
#				traits = random
#				homeworld = event_target:planet_option_5
#				effect = {
#					save_event_target_as = omnicodex_species
#				}
#			}
#			event_target:planet_option_5 = {
#				while = {
#					count = 3
#					create_pop = {
#						species = event_target:omnicodex_species
#					}					
#				}
#			}
#		}
#		custom_tooltip = ancrel.6000.e.tooltip
#	}
#}
#
#
#### Archaeology: Command Center
#
## Stage 1 - Drilling a Hole
#fleet_event = {
#	id = ancrel.6005
#	title = "ancrel.6005.name"
#	desc = "ancrel.6005.desc"
#	picture = GFX_evt_mining_operations
#	show_sound = event_drilling
#	
#	archaeology = yes
#
#	is_triggered_only = yes
#	
#	immediate = {
#		from = { set_site_progress_locked = yes }
#	}
#
#	after = { 
#		from = { set_site_progress_locked = no } 
#	}
#	
#	option = {
#		name = CURIOUS
#		small_artifact_reward = yes
#	}
#}
#
## Stage 2 - Entrance
#fleet_event = {
#	id = ancrel.6010
#	title = "ancrel.6010.name"
#	desc = "ancrel.6010.desc"
#	picture = GFX_evt_derelict_interior
#	show_sound = event_machinery
#	
#	archaeology = yes
#
#	is_triggered_only = yes
#	
#	immediate = {
#		from = { set_site_progress_locked = yes }
#	}
#
#	after = { 
#		from = { set_site_progress_locked = no } 
#	}
#	
#	option = {
#		name = FASCINATING
#		small_artifact_reward = yes
#	}
#}
#
## Stage 3 - Command Center
#fleet_event = {
#	id = ancrel.6015
#	title = "ancrel.6015.name"
#	desc = "ancrel.6015.desc"
#	picture = GFX_evt_ancient_databank
#	show_sound = event_door_opening
#	
#	archaeology = yes
#
#	is_triggered_only = yes
#	
#	immediate = {
#		from = { set_site_progress_locked = yes }
#	}
#
#	after = { 
#		from = { set_site_progress_locked = no } 
#	}
#	
#	option = {
#		name = REMARKABLE
#		small_artifact_reward = yes
#	}
#}
#
## Stage 4 - The Final Days
#fleet_event = {
#	id = ancrel.6020
#	title = "ancrel.6020.name"
#	desc = "ancrel.6020.desc"
#	picture = GFX_evt_excavation_team
#	show_sound = event_screams
#	
#	archaeology = yes
#
#	is_triggered_only = yes
#	
#	immediate = {
#		from = { set_site_progress_locked = yes }
#	}
#
#	after = { 
#		from = { set_site_progress_locked = no } 
#	}
#	
#	option = {
#		name = INTERESTING
#		great_artifact_reward = yes
#	}
#}
#
#### Archaeology: Hunting Grounds
#
## Spawn Site
#planet_event = {
#	id = ancrel.6049
#	title = "ancrel.6049.name"
#	desc = "ancrel.6049.desc"
#	picture = GFX_evt_archaeology_camp
#	show_sound = event_dig_site
#
#	pre_triggers = {
#		has_owner = yes
#		is_homeworld = no
#		original_owner = yes
#		is_ai = no
#		has_ground_combat = no
#		is_capital = no
#		is_occupied_flag = no
#	}
#
#	trigger = {
#		has_ancrel = yes
#		num_pops > 0
#		OR = {
#			is_planet_class = pc_desert
#			is_planet_class = pc_continental
#			is_planet_class = pc_arctic
#		}
#		NOT = { exists = archaeological_site }
#		NOR = { 
#			has_global_flag = arc_hunting_grounds
#			has_planet_flag = colony_event
#		}
#	}
#
#	is_triggered_only = yes
#
#	immediate = {
#		set_global_flag = arc_hunting_grounds
#		set_planet_flag = colony_event
#	}
#	
#	option = {
#		name = CURIOUS
#		create_archaeological_site = site_hunting_ground
#	}
#}
#
## Stage 1 - More Remains
#fleet_event = {
#	id = ancrel.6050
#	title = "ancrel.6050.name"
#	desc = "ancrel.6050.desc"
#	picture = GFX_evt_habitable_dig_site
#	show_sound = event_wind_ruins
#	
#	archaeology = yes
#
#	is_triggered_only = yes
#	
#	immediate = {
#		from = { set_site_progress_locked = yes }
#	}
#
#	after = { 
#		from = { set_site_progress_locked = no } 
#	}
#	
#	option = {
#		name = CURIOUS
#		small_artifact_reward = yes
#	}
#}
#
## Stage 2 - The Lodge
#fleet_event = {
#	id = ancrel.6055
#	title = "ancrel.6055.name"
#	desc = "ancrel.6055.desc"
#	picture = GFX_evt_ancient_records
#	show_sound = event_dig_site
#	
#	archaeology = yes
#
#	is_triggered_only = yes
#	
#	immediate = {
#		from = { set_site_progress_locked = yes }
#	}
#
#	after = { 
#		from = { set_site_progress_locked = no } 
#	}
#	
#	option = {
#		name = CURIOUS
#		small_artifact_reward = yes
#	}
#}
#
## Stage 3 - The Retarax Domain
#fleet_event = {
#	id = ancrel.6060
#	title = "ancrel.6060.name"
#	desc = "ancrel.6060.desc"
#	picture = GFX_evt_alien_cavemen
#	show_sound = event_screams
#	
#	archaeology = yes
#
#	is_triggered_only = yes
#	
#	immediate = {
#		from = { set_site_progress_locked = yes }
#	}
#
#	after = { 
#		from = { set_site_progress_locked = no } 
#	}
#	
#	option = {
#		name = CURIOUS
#		small_artifact_reward = yes
#	}
#}
#
## Stage 4 - The Huntress
#fleet_event = {
#	id = ancrel.6065
#	title = "ancrel.6065.name"
#	desc = "ancrel.6065.desc"
#	picture = GFX_evt_alien_wildlife
#	show_sound = event_trap_spikes
#	
#	archaeology = yes
#
#	is_triggered_only = yes
#	
#	immediate = {
#		from = { set_site_progress_locked = yes }
#	}
#
#	after = { 
#		from = { set_site_progress_locked = no } 
#	}
#	
#	option = {
#		name = CURIOUS
#		small_artifact_reward = yes
#	}
#}
#
## Stage 5 - Blade of the Huntress
#fleet_event = {
#	id = ancrel.6070
#	title = "ancrel.6070.name"
#	desc = "ancrel.6070.desc"
#	picture = GFX_evt_analyzing_artifacts
#	show_sound = event_finding_loot
#	
#	archaeology = yes
#
#	is_triggered_only = yes
#	
#	immediate = {
#		from = { set_site_progress_locked = yes }
#	}
#
#	after = { 
#		from = { set_site_progress_locked = no } 
#	}
#	
#	option = {
#		name = CURIOUS
#		owner = { add_relic = r_ancient_sword }
#		large_artifact_reward = yes
#	}
#}
#
#### Archaeology: Zarqlan the Prophet
#
## Spawning Event (HIDDEN)
#event = {
#	id = ancrel.6098
#	hide_window = yes
#	
#	is_triggered_only = yes
#
#	trigger = {
#		mid_game_years_passed >= 20
#		has_ancrel = yes
#		NOT = { has_global_flag = zarqlan_spawned }
#		any_country = {
#			OR = {
#				is_country_type = fallen_empire
#				is_country_type = awakened_fallen_empire
#			}
#			has_country_flag = fallen_empire_2
#			any_playable_country = {
#				is_ai = no
#				has_communications = prev
#			}
#		}
#	}
#
#	immediate = {
#		random_list = {
#			100 = {}
#			5 = {
#				set_global_flag = zarqlan_spawned
#				random_country = {
#					limit = {
#						OR = {
#							is_country_type = fallen_empire
#							is_country_type = awakened_fallen_empire
#						}
#						has_country_flag = fallen_empire_2
#					}
#					save_event_target_as = spiritualist_fallen_empire
#				}
#				random_playable_country = {
#					limit = {
#						is_ai = no
#						has_communications = event_target:spiritualist_fallen_empire
#					}
#					country_event = { id = ancrel.6099 days = 1 random = 350 }
#				}
#			}
#		}
#	}
#}
#
## Spawning Event
#country_event = {
#	id = ancrel.6099
#	title = "ancrel.6099.name"
#	desc = "ancrel.6099.desc"
#	picture = GFX_evt_cargoship_caravan
#	show_sound = event_power_down
#
#	is_triggered_only = yes
#	
#	immediate = {
#		random_planet_within_border = {
#			limit = {
#				OR = {
#					is_planet_class = pc_molten
#					is_planet_class = pc_barren
#					is_planet_class = pc_barren_cold
#					is_planet_class = pc_frozen
#				}
#				NOT = { exists = archaeological_site }
#			}
#			save_event_target_as = tomb_planet
#		}
#	}
#
#	option = {
#		name = ancrel.6099.a
#		event_target:tomb_planet = {
#			create_archaeological_site = site_zarqlan
#		}
#	}
#}
#
#
## Stage 1 - The Mausoleum
#fleet_event = {
#	id = ancrel.6100
#	title = "ancrel.6100.name"
#	desc = "ancrel.6100.desc"
#	picture = GFX_evt_discovered_hidden_door
#	show_sound = event_dig_site
#	
#	archaeology = yes
#
#	is_triggered_only = yes
#	
#	immediate = {
#		from = { set_site_progress_locked = yes }
#	}
#
#	after = { 
#		from = { set_site_progress_locked = no } 
#	}
#	
#	option = {
#		name = FASCINATING
#		small_artifact_reward = yes
#	}
#}
#
## Stage 2 - The First Chamber
#fleet_event = {
#	id = ancrel.6105
#	title = "ancrel.6105.name"
#	desc = "ancrel.6105.desc"
#	picture = GFX_evt_discovered_hidden_door
#	show_sound = event_big_door_opening
#	
#	archaeology = yes
#
#	is_triggered_only = yes
#	
#	immediate = {
#		from = { set_site_progress_locked = yes }
#	}
#
#	after = { 
#		from = { set_site_progress_locked = no } 
#	}
#	
#	option = {
#		name = INTRIGUING
#		small_artifact_reward = yes
#	}
#}
#
## Stage 3 - The Second Chamber
#fleet_event = {
#	id = ancrel.6110
#	title = "ancrel.6110.name"
#	desc = "ancrel.6110.desc"
#	picture = GFX_evt_discovered_hidden_door
#	show_sound = event_big_door_opening
#	
#	archaeology = yes
#
#	is_triggered_only = yes
#	
#	immediate = {
#		from = { set_site_progress_locked = yes }
#	}
#
#	after = { 
#		from = { set_site_progress_locked = no } 
#	}
#	
#	option = {
#		name = CURIOUS
#		small_artifact_reward = yes
#	}
#}
#
## Stage 4 - The Third Chamber
#fleet_event = {
#	id = ancrel.6115
#	title = "ancrel.6115.name"
#	desc = "ancrel.6115.desc"
#	picture = GFX_evt_discovered_hidden_door
#	show_sound = event_big_door_opening
#	
#	archaeology = yes
#
#	is_triggered_only = yes
#	
#	immediate = {
#		from = { set_site_progress_locked = yes }
#	}
#
#	after = { 
#		from = { set_site_progress_locked = no } 
#	}
#	
#	option = {
#		name = REMARKABLE
#		small_artifact_reward = yes
#	}
#}
#
## Stage 5 - The Fourth Chamber
#fleet_event = {
#	id = ancrel.6120
#	title = "ancrel.6120.name"
#	desc = "ancrel.6120.desc"
#	picture = GFX_evt_discovered_hidden_door
#	show_sound = event_big_door_opening
#	
#	archaeology = yes
#
#	is_triggered_only = yes
#	
#	immediate = {
#		from = { set_site_progress_locked = yes }
#	}
#
#	after = { 
#		from = { set_site_progress_locked = no } 
#	}
#	
#	option = {
#		name = ASTOUNDING
#		small_artifact_reward = yes
#	}
#}
#
## Stage 6 - The Final Chamber
#fleet_event = {
#	id = ancrel.6125
#	title = "ancrel.6125.name"
#	desc = "ancrel.6125.desc"
#	picture = GFX_evt_excavation_team
#	show_sound = event_bad_omen
#	
#	archaeology = yes
#
#	is_triggered_only = yes
#	
#	immediate = {
#		from = { set_site_progress_locked = yes }
#	}
#
#	after = { 
#		from = { set_site_progress_locked = no } 
#	}
#	
#	option = {
#		name = INTRIGUING
#		owner = { add_relic = r_severed_head }
#		large_artifact_reward = yes
#		hidden_effect = {
#			owner = {
#				country_event = { id = ancrel.6130 }
#			}
#		}
#	}
#}
#
## Fallen Empire Transmission
#country_event = {
#	id = ancrel.6130
#	title = TRANSMISSION
#	desc = "ancrel.6130.desc"
#	
#	diplomatic = yes
#	
#	is_triggered_only = yes
#	
#	picture_event_data = {
#		portrait = event_target:spiritualist_fallen_empire
#		planet_background = event_target:spiritualist_fallen_empire
#		graphical_culture = event_target:spiritualist_fallen_empire
#		city_level = event_target:spiritualist_fallen_empire
#		room = event_target:spiritualist_fallen_empire.ruler
#	}
#
#	trigger = {
#		any_country = {
#			OR = {
#				is_country_type = fallen_empire
#				is_country_type = awakened_fallen_empire
#			}
#			has_country_flag = fallen_empire_2
#			has_communications = root
#		}
#	}
#	
#	immediate = {
#		random_country = {
#			limit = {
#				OR = {
#					is_country_type = fallen_empire
#					is_country_type = awakened_fallen_empire
#				}
#				has_country_flag = fallen_empire_2
#			}
#			save_event_target_as = spiritualist_fallen_empire
#			add_opinion_modifier = {
#				who = root
#				modifier = opinion_zarqlans_chosen
#			}
#		}
#	}
#	
#	option = {
#		name = ancrel.6130.a
#		add_modifier = {
#			modifier = chosen_of_zarqlan
#		}
#	}
#}
#
## Severed Head Relic Activation
#country_event = {
#	id = ancrel.6131
#	hide_window = yes
#
#	is_triggered_only = yes
#
#	immediate = {
#		if = {
#			limit = {
#				any_country = {
#					OR = {
#						is_country_type = fallen_empire
#						is_country_type = awakened_fallen_empire
#					}
#					has_country_flag = fallen_empire_2
#				}
#			}
#			random_country = {
#				limit = {
#					OR = {
#						is_country_type = fallen_empire
#						is_country_type = awakened_fallen_empire
#					}
#					has_country_flag = fallen_empire_2
#				}
#				save_event_target_as = spiritualist_fallen_empire
#			}
#			country_event = { id = ancrel.6132 }
#		}
#		else = {
#			country_event = { id = ancrel.6133 }
#		}
#	}
#}
#
## Pilgrim Fleet
#country_event = {
#	id = ancrel.6132
#	title = TRANSMISSION
#	desc = "ancrel.6132.a.desc"
#	desc = "ancrel.6132.b.desc"
#	desc = "ancrel.6132.c.desc"
#	desc = "ancrel.6132.d.desc"
#	
#	diplomatic = yes
#	
#	is_triggered_only = yes
#	
#	picture_event_data = {
#		portrait = event_target:spiritualist_fallen_empire
#		room = "ethic_spaceship_room"
#	}
#	
#	option = {
#		name = ancrel.6132.a
#		hidden_effect = {
#			capital_scope = {
#				create_fleet = {
#					name = "NAME_Zarqlans_Pilgrims"
#					effect = {
#						set_owner = event_target:spiritualist_fallen_empire # For ship names
#						while = {
#							count = 1
#							create_fallen_empire_large_ship = yes
#						}
#						while = {
#							count = 3
#							create_fallen_empire_small_ship = yes
#						}
#						set_location = {
#							target = prev
#							distance = 45
#							angle = random
#						}
#						set_owner = root
#					}
#				}
#			}
#		}
#	}
#}
#
## Pilgrim Fleet (Fallen Empire Gone)
#country_event = {
#	id = ancrel.6133
#	title = "ancrel.6133.name"
#	desc = "ancrel.6133.desc"
#	picture = GFX_evt_fleet_from_surface
#	show_sound = event_bad_omen
#	
#	is_triggered_only = yes
#	
#	option = {
#		name = ancrel.6132.a
#		hidden_effect = {
#			capital_scope = {
#				create_fleet = {
#					name = "NAME_Zarqlans_Pilgrims"
#					effect = {
#						set_owner = root
#						while = {
#							count = 4
#							create_ship = {
#								name = random
#								design = "NAME_Zealot"
#								graphical_culture = fallen_empire_01
#							}
#						}
#						set_location = {
#							target = prev
#							distance = 45
#							angle = random
#						}
#					}
#				}
#			}
#		}
#	}
#}
#
#### Archaeology: Barrier Moon
#
## On Survey (Planet First)
#ship_event = {
#	id = ancrel.6150
#	title = "ancrel.6150.name"
#	desc = "ancrel.6150.desc"
#	picture = GFX_evt_ship_in_orbit_2
#	show_sound = event_energy_field
#	location = from
#
#	is_triggered_only = yes
#
#	trigger = {
#		from = { has_planet_flag = minigalaxy_planet }
#		NOT = {
#			has_global_flag = minigalaxy_site_spawned
#		}
#	}
#
#	immediate = {
#		set_global_flag = minigalaxy_site_spawned
#		from = {
#			solar_system = {
#				random_system_planet = {
#					limit = { has_planet_flag = minigalaxy_moon }
#					save_event_target_as = minigalaxy_moon
#				}
#			}
#		}
#	}
#	
#	option = {
#		name = CURIOUS
#		small_artifact_reward = yes
#		event_target:minigalaxy_moon = {
#			surveyed = {
#  				set_surveyed = yes
#  				surveyor = root.owner
#  			}
#			create_archaeological_site = site_minigalaxy_1
#		}
#	}
#}
#
## On Survey (Moon First)
#ship_event = {
#	id = ancrel.6151
#	title = "ancrel.6150.name"
#	desc = "ancrel.6151.desc"
#	picture = GFX_evt_ship_in_orbit_2
#	show_sound = event_energy_field
#	location = from
#
#	is_triggered_only = yes
#
#	trigger = {
#		from = { has_planet_flag = minigalaxy_moon }
#		NOT = { has_global_flag = minigalaxy_site_spawned }
#	}
#
#	immediate = {
#		set_global_flag = minigalaxy_site_spawned
#	}
#	
#	option = {
#		name = CURIOUS
#		from = {
#			create_archaeological_site = site_minigalaxy_1
#		}
#	}
#}
#
#### Moon Site
#
## Stage 1 - The Armistice Initiative
#fleet_event = {
#	id = ancrel.6155
#	title = "ancrel.6155.name"
#	desc = "ancrel.6155.desc"
#	picture = GFX_evt_ancient_alien_temple
#	show_sound = event_drilling
#	
#	archaeology = yes
#
#	is_triggered_only = yes
#	
#	immediate = {
#		from = { set_site_progress_locked = yes }
#	}
#
#	after = { 
#		from = { set_site_progress_locked = no } 
#	}
#	
#	option = {
#		name = CURIOUS
#		small_artifact_reward = yes
#	}
#}
#
## Stage 2 - Belligerent Party C
#fleet_event = {
#	id = ancrel.6160
#	title = "ancrel.6160.name"
#	desc = "ancrel.6160.desc"
#	picture = GFX_evt_ancient_databank
#	show_sound = event_door_opening
#	
#	archaeology = yes
#
#	is_triggered_only = yes
#	
#	immediate = {
#		from = { set_site_progress_locked = yes }
#	}
#
#	after = { 
#		from = { set_site_progress_locked = no } 
#	}
#	
#	option = {
#		name = CURIOUS
#		small_artifact_reward = yes
#	}
#}
#
## Stage 3 - The Shield Generator
#fleet_event = {
#	id = ancrel.6165
#	title = "ancrel.6165.name"
#	desc = "ancrel.6165.desc"
#	picture = GFX_evt_generator_powerup
#	show_sound = event_power_down
#	
#	archaeology = yes
#
#	is_triggered_only = yes
#	
#	immediate = {
#		from = {
#			solar_system = {
#				random_system_planet = {
#					limit = { has_planet_flag = minigalaxy_planet }
#					save_event_target_as = minigalaxy_planet
#				}
#			}
#			set_site_progress_locked = yes
#		}
#	}
#
#	after = { 
#		from = { set_site_progress_locked = no } 
#	}
#	
#	option = {
#		name = CURIOUS
#		small_artifact_reward = yes
#		event_target:minigalaxy_planet = {
#			change_pc = pc_relic
#			hidden_effect = {
#				relic_world_deposits = yes
#				create_archaeological_site = site_minigalaxy_2
#				surveyed = {
#  					set_surveyed = yes
#  					surveyor = root.owner
#  				}
#  			}
#		}
#	}
#}
#
#### Planet Site
#
## Stage 1 - Mysterious Disappearance
#fleet_event = {
#	id = ancrel.6170
#	title = "ancrel.6170.name"
#	desc = "ancrel.6170.desc"
#	picture = GFX_evt_relic_world_street
#	show_sound = event_wind_ruins
#	
#	archaeology = yes
#
#	is_triggered_only = yes
#	
#	immediate = {
#		from = { set_site_progress_locked = yes }
#	}
#
#	after = { 
#		from = { set_site_progress_locked = no } 
#	}
#	
#	option = {
#		name = CURIOUS
#		small_artifact_reward = yes
#	}
#}
#
## Stage 2 - Evacuation Day
#fleet_event = {
#	id = ancrel.6175
#	title = "ancrel.6175.name"
#	desc = "ancrel.6175.desc"
#	picture = GFX_evt_relic_world_street
#	show_sound = event_wind_ruins
#	
#	archaeology = yes
#
#	is_triggered_only = yes
#	
#	immediate = {
#		from = { set_site_progress_locked = yes }
#	}
#
#	after = { 
#		from = { set_site_progress_locked = no } 
#	}
#	
#	option = {
#		name = CURIOUS
#		small_artifact_reward = yes
#	}
#}
#
## Stage 3 - The Project
#fleet_event = {
#	id = ancrel.6180
#	title = "ancrel.6180.name"
#	desc = "ancrel.6180.desc"
#	picture = GFX_evt_relic_world_building
#	show_sound = event_whispering
#	
#	archaeology = yes
#
#	is_triggered_only = yes
#	
#	immediate = {
#		from = { set_site_progress_locked = yes }
#	}
#
#	after = { 
#		from = { set_site_progress_locked = no } 
#	}
#	
#	option = {
#		name = CURIOUS
#		small_artifact_reward = yes
#	}
#}
#
## Stage 4 - Miniaturized Galaxy
#fleet_event = {
#	id = ancrel.6185
#	title = "ancrel.6185.name"
#	desc = "ancrel.6185.desc"
#	picture = GFX_evt_relic_world_building
#	show_sound = event_finding_loot
#	
#	archaeology = yes
#
#	is_triggered_only = yes
#	
#	immediate = {
#		from = { set_site_progress_locked = yes }
#	}
#
#	after = { 
#		from = { set_site_progress_locked = no } 
#	}
#	
#	option = {
#		name = CURIOUS
#		large_artifact_reward = yes
#		owner = { add_relic = "r_galaxy" }
#	}
#}
#
#### Archaeology: Star Petal
#
## Stage 1 - Pleasure Planet
#fleet_event = {
#	id = ancrel.6200
#	title = "ancrel.6200.name"
#	desc = "ancrel.6200.desc"
#	picture = GFX_evt_gas_giant_station
#	show_sound = event_metal_fatigue
#	
#	archaeology = yes
#
#	is_triggered_only = yes
#	
#	immediate = {
#		from = { set_site_progress_locked = yes }
#	}
#
#	after = { 
#		from = { set_site_progress_locked = no } 
#	}
#	
#	option = {
#		name = CURIOUS
#		small_artifact_reward = yes
#	}
#}
#
## Stage 2 - The Star Petal
#fleet_event = {
#	id = ancrel.6205
#	title = "ancrel.6205.name"
#	desc = "ancrel.6205.desc"
#	picture = GFX_evt_derelict_interior
#	show_sound = event_whispering
#	
#	archaeology = yes
#
#	is_triggered_only = yes
#	
#	immediate = {
#		from = { set_site_progress_locked = yes }
#	}
#
#	after = { 
#		from = { set_site_progress_locked = no } 
#	}
#	
#	option = {
#		name = CURIOUS
#		small_artifact_reward = yes
#	}
#}
#
## Stage 3 - The Final Days
#fleet_event = {
#	id = ancrel.6210
#	title = "ancrel.6210.name"
#	desc = "ancrel.6210.desc"
#	picture = GFX_evt_gas_giant_station
#	show_sound = event_screams
#	
#	archaeology = yes
#
#	is_triggered_only = yes
#	
#	immediate = {
#		from = { set_site_progress_locked = yes }
#	}
#
#	after = { 
#		from = { set_site_progress_locked = no } 
#	}
#	
#	option = {
#		name = CURIOUS
#		small_artifact_reward = yes
#	}
#}
#
## Stage 4 - Heart of the Pulsar
#fleet_event = {
#	id = ancrel.6215
#	title = "ancrel.6215.name"
#	desc = "ancrel.6215.desc"
#	picture = GFX_evt_analyzing_artifacts
#	show_sound = event_finding_loot
#	
#	archaeology = yes
#
#	is_triggered_only = yes
#	
#	immediate = {
#		from = { set_site_progress_locked = yes }
#	}
#
#	after = { 
#		from = { set_site_progress_locked = no } 
#	}
#	
#	option = {
#		name = CURIOUS
#		medium_artifact_reward = yes
#		owner = {
#			add_resource = { energy = 4000 }
#		}
#	}
#}
#
#### Archaeology: Robot Debris
#
## Stage 1 - Two Sides
#fleet_event = {
#	id = ancrel.6250
#	title = "ancrel.6250.name"
#	desc = "ancrel.6250.desc"
#	picture = GFX_evt_space_walk
#	show_sound = event_metal_fatigue
#	
#	archaeology = yes
#
#	is_triggered_only = yes
#	
#	immediate = {
#		from = { set_site_progress_locked = yes }
#	}
#
#	after = { 
#		from = { set_site_progress_locked = no } 
#	}
#	
#	option = {
#		name = CURIOUS
#		small_artifact_reward = yes
#	}
#}
#
## Stage 2 - The Battle
#fleet_event = {
#	id = ancrel.6255
#	title = "ancrel.6255.name"
#	desc = "ancrel.6255.desc"
#	picture = GFX_evt_ground_combat
#	show_sound = event_ground_battle
#	
#	archaeology = yes
#
#	is_triggered_only = yes
#	
#	immediate = {
#		from = { set_site_progress_locked = yes }
#	}
#
#	after = { 
#		from = { set_site_progress_locked = no } 
#	}
#	
#	option = {
#		name = CURIOUS
#		small_artifact_reward = yes
#	}
#}
#
## Stage 3 - The Treaty
#fleet_event = {
#	id = ancrel.6260
#	title = "ancrel.6260.name"
#	desc = "ancrel.6260.desc"
#	picture = GFX_evt_barren_dig_site
#	show_sound = event_finding_loot
#	
#	archaeology = yes
#
#	is_triggered_only = yes
#	
#	immediate = {
#		from = { set_site_progress_locked = yes }
#	}
#
#	after = { 
#		from = { set_site_progress_locked = no } 
#	}
#	
#	option = {
#		name = CURIOUS
#		medium_artifact_reward = yes
#		owner = {
#			add_monthly_resource_mult = {
#				resource = engineering_research
#				value = @tier5researchreward
#				min = @tier5researchmin
#				max = @tier5researchmax
#			}
#		}
#	}
#}
#
#### Archaeology: Freighter Crash
#
## Stage 1 - Captain's Chronicle
#fleet_event = {
#	id = ancrel.6300
#	title = "ancrel.6300.name"
#	desc = "ancrel.6300.desc"
#	picture = GFX_evt_crashed_station
#	show_sound = event_metal_fatigue
#	
#	archaeology = yes
#
#	is_triggered_only = yes
#	
#	immediate = {
#		from = { set_site_progress_locked = yes }
#	}
#
#	after = { 
#		from = { set_site_progress_locked = no } 
#	}
#	
#	option = {
#		name = CURIOUS
#		small_artifact_reward = yes
#	}
#}
#
## Stage 2 - First Mate's Report
#fleet_event = {
#	id = ancrel.6310
#	title = "ancrel.6310.name"
#	desc = "ancrel.6310.desc"
#	picture = GFX_evt_ancient_databank
#	show_sound = event_metal_fatigue
#	
#	archaeology = yes
#
#	is_triggered_only = yes
#	
#	immediate = {
#		from = { set_site_progress_locked = yes }
#	}
#
#	after = { 
#		from = { set_site_progress_locked = no } 
#	}
#	
#	option = {
#		name = CURIOUS
#		small_artifact_reward = yes
#	}
#}
#
## Stage 3 - Food Situation
#fleet_event = {
#	id = ancrel.6320
#	title = "ancrel.6320.name"
#	desc = "ancrel.6320.desc"
#	picture = GFX_evt_derelict_interior
#	show_sound = event_metal_fatigue
#	
#	archaeology = yes
#
#	is_triggered_only = yes
#	
#	immediate = {
#		from = { set_site_progress_locked = yes }
#	}
#
#	after = { 
#		from = { set_site_progress_locked = no } 
#	}
#	
#	option = {
#		name = CURIOUS
#		small_artifact_reward = yes
#	}
#}
#
## Stage 4 - Zarbla is a Fraud
#fleet_event = {
#	id = ancrel.6330
#	title = "ancrel.6330.name"
#	desc = "ancrel.6330.desc"
#	picture = GFX_evt_generator_powerup
#	show_sound = event_metal_fatigue
#	
#	archaeology = yes
#
#	is_triggered_only = yes
#	
#	immediate = {
#		from = { set_site_progress_locked = yes }
#	}
#
#	after = { 
#		from = { set_site_progress_locked = no } 
#	}
#	
#	option = {
#		name = CURIOUS
#		small_artifact_reward = yes
#	}
#}
#
## Stage 5 - Third Mate's Report
#fleet_event = {
#	id = ancrel.6340
#	title = "ancrel.6340.name"
#	desc = "ancrel.6340.desc"
#	picture = GFX_evt_excavation_team
#	show_sound = event_metal_fatigue
#	
#	archaeology = yes
#
#	is_triggered_only = yes
#	
#	immediate = {
#		from = { set_site_progress_locked = yes }
#	}
#
#	after = { 
#		from = { set_site_progress_locked = no } 
#	}
#	
#	option = {
#		name = CURIOUS
#		small_artifact_reward = yes
#	}
#}
#
## Stage 6 - Patrol Log
#fleet_event = {
#	id = ancrel.6350
#	title = "ancrel.6350.name"
#	desc = "ancrel.6350.desc"
#	picture = GFX_evt_unidentified_ship
#	show_sound = event_finding_loot
#	
#	archaeology = yes
#
#	is_triggered_only = yes
#	
#	immediate = {
#		from = { set_site_progress_locked = yes }
#	}
#
#	after = { 
#		from = { set_site_progress_locked = no } 
#	}
#	
#	option = {
#		name = CURIOUS
#		large_artifact_reward = yes
#	}
#}
#
#### RELIC THEFT
#
## Relic Acquired (HIDDEN)
#country_event = {
#	id = ancrel.6499
#	hide_window = yes
#
#	is_triggered_only = yes
#
#	trigger = {
#		From = {
#			is_country_type = default
#			num_owned_relics > 0 
#		}
#		FromFrom = { is_capital = yes }
#		any_war = {
#			any_attacker = { is_same_value = root }
#			any_defender = { is_same_value = prev }
#			using_war_goal = {
#                type = wg_take_galatron
#                owner = attacker
#            }
#		}
#	}
#
#	immediate = {
#		FromFrom = { save_event_target_as = planet }
#		From = { save_event_target_as = victim }
#		random_list = {
#			100 = {}
#			10 = {
#				modifier = {
#					factor = 1.5
#					has_valid_civic = civic_barbaric_despoilers
#				}
#				country_event = { id = ancrel.6500 }
#			}
#		}
#	}
#}
#
## Relic Acquired
#country_event = {
#	id = ancrel.6500
#	title = "ancrel.6500.name"
#	desc = "ancrel.6500.desc"
#	picture = GFX_evt_victorious_army
#	show_sound = event_ground_battle
#	location = event_target:planet
#
#	is_triggered_only = yes
#
#	immediate = {
#		steal_relic = {
#			target = event_target:victim
#			relic = random
#		}
#	}
#
#	option = {
#		name = ancrel.6500.a
#		custom_tooltip = stole_relic
#		hidden_effect = {
#			event_target:victim = {
#				country_event = { id = ancrel.6505 }
#			}
#		}
#	}	
#}
#
## Relic Lost
#country_event = {
#	id = ancrel.6505
#	title = "ancrel.6505.name"
#	desc = "ancrel.6505.desc"
#	picture = GFX_evt_ground_combat
#	show_sound = event_ground_battle
#	location = event_target:planet
#
#	is_triggered_only = yes
#
#	option = {
#		name = ancrel.6505.a
#		custom_tooltip = relic_lost
#	}	
#}