# ############################
# #
# # Colony Events
# #
# # Written by Gemma Thomson
# #
# ############################

# namespace = colony_fed

# planet_event = {
#     id = colony_fed.100
#     title = colony_fed.100.name
#     desc = colony_fed.100.desc
#     picture = GFX_evt_mining_operations
#     show_sound = event_construction
#     location = root

#     is_triggered_only = yes

#     trigger = {
#         has_owner = yes
#         is_homeworld = no
#         owner = { is_ai = no }
#         has_ground_combat = no
#         is_occupied_flag = no
#         NOR = {
#             has_planet_flag = colony_event
#             is_planet_class = pc_habitat
#             is_planet_class = pc_ringworld_habitable
#         }
#         NOT = { owner = { has_country_flag = bluelotus } }
#         num_pops > 0
#         any_pop = {
#             OR = {
#                 has_job = miner
#                 has_job = mining_drone
#             }
#         }
#     }

#     immediate = {
#         set_planet_flag = colony_event
#         owner = { set_country_flag = bluelotus }
#     }

#     option = {
#         name = CURIOUS
#         add_deposit = d_impossiblecorrie
#         hidden_effect = {
#             planet_event = {
#                 id = colony_fed.105
#                 days = 45
#             }
#         }
#     }
# }

# planet_event = {
#     id = colony_fed.105
#     title = colony_fed.105.name
#     desc = {
#         trigger = {
#             owner = { is_gestalt = no }
#         }
#         text = colony_fed.105.desc
#     }
#     desc = {
#         trigger = {
#             owner = { is_gestalt = yes }
#         }
#         text = colony_fed.105.gestalt.desc
#     }
#     picture = GFX_evt_strategic_resources
#     show_sound = event_construction
#     location = root

#     is_triggered_only = yes

#     option = { #Gestalt embrace option
#         name = colony_fed.105.a
#         trigger = {
#             owner = { is_gestalt = yes }
#         }
#         add_deposit = d_bluelotus 
#         hidden_effect = {
#             planet_event = {
#                 id = colony_fed.110
#                 days = 40
#             }
#         }
#     }

#     option = { #Embrace option
#         name = colony_fed.105.b
#         trigger = {
#             owner = { is_gestalt = no }
#         }
#         owner = { add_resource = { energy = -420 } }
#         add_deposit = d_bluelotus 
#         hidden_effect = {
#             planet_event = {
#                 id = colony_fed.110
#                 days = 55
#             }
#         }
#     }

#     option = { #Cease
#         name = colony_fed.105.c
#         trigger = {
#             owner = { is_gestalt = no }
#         }
#         hidden_effect = {
#             planet_event = {
#                 id = colony_fed.106
#                 days = 40
#             }
#         }
#     }

#     option = { #Gestalt purge
#         name = colony_fed.105.d
#         trigger = {
#             owner = { is_gestalt = yes }
#         }
#         random_owned_pop = {
# 			limit = { has_job = alloy_drone }
# 			unemploy_pop = yes
# 			kill_pop = yes
# 		}
#         hidden_effect = {
#             planet_event = {
#                 id = colony_fed.107
#                 days = 50
#             }
#         }
#     }
# }

# #The facility is disrupted, leaving only a small amount of alloys
# planet_event = {
#     id = colony_fed.106
#     title = colony_fed.106.name
#     desc = colony_fed.106.desc
#     picture = GFX_evt_gray_goo
#     show_sound = event_structural_collapse
#     location = root

#     is_triggered_only = yes

#     option = {
#         name = UNFORTUNATE
#         remove_deposit = d_bluelotus #Also removes job
#         owner = {   
#             # add_resource = { alloys = 150 }
#             add_monthly_resource_mult = {
# 			    resource = alloys
# 			    value = @tier1materialreward
# 			    min = @tier1materialmin
# 			    max = @tier1materialmax
# 		    }
#         }
#     }
# }

# #The rogue drone is purged, ending the project
# planet_event = {
#     id = colony_fed.107
#     title = colony_fed.107.name
#     desc = colony_fed.107.desc
#     picture = GFX_evt_gray_goo
#     show_sound = event_structural_collapse
#     location = root

#     is_triggered_only = yes

#     option = {
#         name = GOOD
#         remove_deposit = d_bluelotus #Also removes job
#         owner = {   
#             add_resource = { alloys = 150 }
#         }
#     }
# }

# #A special project is created in order to scale-up the lab's production
# planet_event = {
#     id = colony_fed.110
#     title = colony_fed.110.name
#     desc = {
#         trigger = {
#             owner = { is_gestalt = no }
#         }
#         text = colony_fed.110.desc
#     }
#     desc = {
#         trigger = {
#             owner = { is_gestalt = yes }
#         }
#         text = colony_fed.110.gestalt.desc
#     }
#     picture = GFX_evt_strategic_resources
#     show_sound = event_default
#     location = root
    
#     is_triggered_only = yes

#     option = {
#         name = OK
#         enable_special_project = {
# 			name = "BLUELOTUS_SCALE_PROJECT"
# 			location = this
# 			owner = root.owner
#         }
#     }
# } 

# #The special project fails, causing a small collapse
# planet_event = {
#     id = colony_fed.111
#     title = colony_fed.111.name
#     desc = colony_fed.111.desc
#     picture = GFX_evt_debris
#     show_sound = event_structural_collapse
#     location = root

#     is_triggered_only = yes

#     option {
#         name = colony_fed.111.a
#         add_deposit = d_ruin_bluelotus
#     }
# } 

# #The lab is reformed, and starts improving alloy production empire-wide
# planet_event = {
#     id = colony_fed.115
#     title = colony_fed.115.name
#     desc = colony_fed.115.desc
#     picture = GFX_evt_strategic_resources
#     show_sound = event_laboratory_sound
#     location = root

#     is_triggered_only = yes

#     option {
#         name = colony_fed.115.a
#         remove_deposit = d_bluelotus
#         add_deposit = d_bluelotus2
#         hidden_effect = {
#             planet_event = {
#                 id = colony_fed.120
#                 days = 220
#                 random = 60
#             }
#         }
#     }
#     option {
#         name = colony_fed.115.b
#         remove_deposit = d_bluelotus
#         add_deposit = d_bluelotus2
#         hidden_effect = {
#             planet_event = {
#                 id = colony_fed.120
#                 days = 420
#                 random = 60
#             }
#         }
#     }
# }

# #The lab converts itself and its surroundings into a vast alloy deposit
# planet_event = {
#     id = colony_fed.120
#     title = colony_fed.120.name
#     desc = colony_fed.120.desc
#     picture = GFX_evt_gray_goo
#     show_sound = event_super_explosion
#     location = root

#     is_triggered_only = yes

#     immediate = {
#         random_owned_pop = {
#             limit = { has_job = bluelotus_technician }
#             unemploy_pop = yes
#             kill_pop = yes
#         }
#     }

# 	option {
#         name = UNFORTUNATE
#         remove_deposit = d_bluelotus2
#         remove_deposit = d_impossiblecorrie
#         add_deposit = d_crater_bluelotus
#     }
# }