################################
#
# Federations Events
#
# Written by Douglas Furen
#
###############################

#################################################
#   FEDERATION JOINT OPERATION - TRADE LEAGUE   #
#################################################

#