################################
#
# Federations Events
#
# Written by Douglas Furen
#
###############################

# Federation Events
namespace = fedev

### Archaeology: Tribute to Lost Moments

# Stage 1 - Beacon in the Depth
# fleet_event = {
# 	id = fedev.9430
# 	title = "fedev.9430.name"
# 	desc = "fedev.9430.desc"
# 	picture = GFX_evt_cold_barren_planet
# 	show_sound = event_ghost_town
	
# 	archaeology = yes
# 	is_triggered_only = yes
	
# 	immediate = {
# 		from = { set_site_progress_locked = yes }
# 	}

# 	after = { 
# 		from = { set_site_progress_locked = no } 
# 	}
	
# 	option = {
# 		name = DIG
# 		small_artifact_reward = yes
# 	}
# }

# # Stage 2 - Running out of time
# fleet_event = {
# 	id = fedev.9435
# 	title = "fedev.9435.name"
# 	desc = "fedev.9435.desc"
# 	picture = GFX_evt_unspeakable_horror
# 	show_sound = event_mystic_reveal
	
# 	archaeology = yes
# 	is_triggered_only = yes
	
# 	immediate = {
# 		from = { set_site_progress_locked = yes }
# 	}

# 	after = { 
# 		from = { set_site_progress_locked = no } 
# 	}
	
# 	option = {
# 		name = DIG
# 		small_artifact_reward = yes
# 	}
# }

# # Stage 3 - So very, very brightly
# fleet_event = {
# 	id = fedev.9440
# 	title = "fedev.9440.name"
# 	desc = "fedev.9440.desc"
# 	picture = GFX_evt_ancient_records
# 	show_sound = event_collapsing_ruins
	
# 	archaeology = yes
# 	is_triggered_only = yes
	
# 	immediate = {
# 		fromfrom = { set_site_progress_locked = yes }
# 	}

# 	after = { 
# 		fromfrom = { set_site_progress_locked = no } 
# 	}
	
# 	option = {
# 		name = FASCINATING
# 		owner = {
# 			add_modifier = {
#  				modifier = lost_moment_memento
#  				days = -1
#  			}
#  		}
# 	}
# }

# ### Archaeology: The Lesser Messenger

# # Stage 1 - Since Long Gone
# fleet_event = {
# 	id = fedev.9445
# 	title = "fedev.9445.name"
# 	desc = "fedev.9445.desc"
# 	picture = GFX_evt_cold_barren_planet
# 	show_sound = event_wind_ruins
	
# 	archaeology = yes
# 	is_triggered_only = yes
	
# 	immediate = {
# 		from = { set_site_progress_locked = yes }
# 	}

# 	after = { 
# 		from = { set_site_progress_locked = no } 
# 	}
	
# 	option = {
# 		name = DIG
# 		small_artifact_reward = yes
# 	}
# }

# # Stage 2 - Beasts of Space
# fleet_event = {
# 	id = fedev.9450
# 	title = "fedev.9450.name"
# 	desc = "fedev.9450.desc"
# 	picture = GFX_evt_satellite_in_orbit
# 	show_sound = event_bad_omen
	
# 	archaeology = yes
# 	is_triggered_only = yes
	
# 	immediate = {
# 		from = { set_site_progress_locked = yes }
# 	}

# 	after = { 
# 		from = { set_site_progress_locked = no } 
# 	}
	
# 	option = {
# 		name = DIG
# 		small_artifact_reward = yes
# 	}
# }

# # Stage 3 - Garden of Prototypes
# fleet_event = {
# 	id = fedev.9455
# 	title = "fedev.9455.name"
# 	desc = "fedev.9455.desc"
# 	picture = GFX_evt_archaeological_dig
# 	show_sound = event_finding_loot
	
# 	archaeology = yes
# 	is_triggered_only = yes
	
# 	immediate = {
# 		from = { set_site_progress_locked = yes }
# 	}

# 	after = { 
# 		from = { set_site_progress_locked = no } 
# 	}
	
# 	option = {
# 		name = DIG
# 		small_artifact_reward = yes
# 	}
# }

# # Stage 4 - What are they building...
# fleet_event = {
# 	id = fedev.9460
# 	title = "fedev.9460.name"
# 	desc = "fedev.9460.desc"
# 	picture = GFX_evt_in_the_dark
# 	show_sound = event_machinery
	
# 	archaeology = yes
# 	is_triggered_only = yes
	
# 	immediate = {
# 		from = { set_site_progress_locked = yes }
# 	}

# 	after = { 
# 		from = { set_site_progress_locked = no } 
# 	}
	
# 	option = {
# 		name = DIG
# 		small_artifact_reward = yes
# 	}
# }

# # Stage 5 - Random Outcome
# fleet_event = {
# 	id = fedev.9461
# 	hide_window = yes
	
# 	archaeology = yes
# 	is_triggered_only = yes
	
# 	immediate = {
# 		random_list = { 
# 			33 = {
# 				fleet_event = { id = fedev.9465 }
# 			}
# 			33 = {
# 				fleet_event = { id = fedev.9470}
# 			}
# 			33 = {
# 				fleet_event = { id = fedev.9475 }
# 			}
# 		}
# 	}

# 	after = { 
# 		from = { expire_site_event = fedev.9461 } 
# 	}
# }

# # Stage 5 - Alt. 1 - And the winner is...
# fleet_event = {
# 	id = fedev.9465
# 	title = "fedev.9465.name"
# 	desc = "fedev.9465.desc"
# 	picture = GFX_evt_unidentified_ship
# 	show_sound = event_energy_field
	
# 	archaeology = yes
# 	is_triggered_only = yes
	
# 	immediate = {
# 		fromfrom = { set_site_progress_locked = yes }
# 	}

# 	after = { 
# 		fromfrom = { set_site_progress_locked = no } 
# 	}
	
# 	option = {
# 		name = SPLENDID
# 		small_artifact_reward = yes
# 		create_lesser_messenger = yes
# 	}
# }

# # Stage 5 - Alt. 2 - Go forth and conquer!
# fleet_event = {
# 	id = fedev.9470
# 	title = "fedev.9470.name"
# 	desc = "fedev.9470.desc"
# 	picture = GFX_evt_unidentified_ship
# 	show_sound = event_energy_field
	
# 	archaeology = yes
# 	is_triggered_only = yes
	
# 	immediate = {
# 		fromfrom = { set_site_progress_locked = yes }
# 	}

# 	after = { 
# 		fromfrom = { set_site_progress_locked = no } 
# 	}
	
# 	option = {
# 		name = SPLENDID
# 		small_artifact_reward = yes
# 		create_lesser_messenger = yes
# 	}
# }

# # Stage 5 - Alt. 3 - Don't shoot the Messenger
# fleet_event = {
# 	id = fedev.9475
# 	title = "fedev.9475.name"
# 	desc = "fedev.9475.desc"
# 	picture = GFX_evt_unidentified_ship
# 	show_sound = event_energy_field
	
# 	archaeology = yes
# 	is_triggered_only = yes
	
# 	immediate = {
# 		fromfrom = { set_site_progress_locked = yes }
# 	}

# 	after = { 
# 		fromfrom = { set_site_progress_locked = no } 
# 	}
	
# 	option = {
# 		name = SPLENDID
# 		small_artifact_reward = yes
# 		create_lesser_messenger = yes
# 	}
# }

# country_event = {
#     id = fedev.9480
#     hide_window = yes

#     is_triggered_only = yes

#     immediate = {
#        owner = { remove_lessenger_damage = yes }
#     }
# }

# ### JUGGERNAUT CONSTRUCTED - BUILDER EVENT
# ship_event = {
# 	id = fedev.9500
# 	title = "fedev.9500.name"
# 	desc = "fedev.9500.desc"
# 	picture = GFX_evt_juggernaut
# 	show_sound = event_default

# 	is_triggered_only = yes

# 	trigger = {
# 		is_ship_size = juggernaut
# 		owner = {
# 			NOT = { has_country_flag = juggernaut_constructed }
# 		}
# 	}

# 	immediate = {
# 		owner = {
# 			set_country_flag = juggernaut_constructed
# 		}
# 		every_playable_country = {
# 			limit = {
# 				has_communications = root.owner
# 				NOT = { is_same_value = root.owner }
# 			}
# 			country_event = { id = fedev.9505 }
# 		}
# 	}

# 	after = {
# 	}

# 	option = {
# 		name = fedev.9500.a
# 	}
# }

# ### JUGGERNAUT CONSTRUCTED - OTHER EMPIRES EVENT
# country_event = {
# 	id = fedev.9505
# 	title = "fedev.9505.name"
# 	desc = "fedev.9505.desc"
# 	picture = GFX_evt_juggernaut
# 	show_sound = event_default
	
# 	is_triggered_only = yes

# 	immediate = {
# 	}

# 	after = {
# 	}

# 	option = {
# 		name = fedev.9505.a
# 	}
# }

### First Federation Formed Events
country_event = {
	id = fedev.499
	hide_window = yes
	
	is_triggered_only = yes

	trigger = {
		federation = {
			any_member = { 
				is_ai = no
				NOR = {
					has_origin = origin_common_ground
					has_origin = origin_hegemon
				}
			}
			count_member = {
				count = 2
			}
		}
	}

	immediate = {
		save_event_target_as = fed_founder_1
		from = { save_event_target_as = fed_founder_2 }
		federation = {
			every_member = {
				limit = { is_ai = no }
				country_event = { id = fedev.500 }
			}
		}
	}
}

### First Federation Formed Event
country_event = {
	id = fedev.500
	title = "fedev.500.name"
	desc = {
		trigger = {
			federation = { has_federation_type = default_federation }
		}
		text = "fedev.500.a.desc"
	}
	desc = {
		trigger = {
			federation = { has_federation_type = trade_federation }
		}
		text = "fedev.500.b.desc"
	}
	desc = {
		trigger = {
			federation = { has_federation_type = research_federation }
		}
		text = "fedev.500.c.desc"
	}
	desc = {
		trigger = {
			federation = { has_federation_type = military_federation }
		}
		text = "fedev.500.d.desc"
	}
	desc = {
		trigger = {
			federation = { has_federation_type = hegemony_federation }
		}
		text = "fedev.500.e.desc"
	}
	picture = sth_GFX_evt_federationSigned
	show_sound = event_celebration
	
	is_triggered_only = yes

	trigger = {
		NOT = { has_country_flag = first_federation_event }
	}

	immediate = {
		set_country_flag = first_federation_event
	}

	option = {
		name = fedev.500.a
	}
}