#########################################
#
# Galactic Features Events
#
# Written by Henrik Eklund
# STNH - Capek 1.8.0 Compat
#########################################

#namespace = galactic_features

