# ############################
# #
# # Necroids Events
# # Written by Gemma Thomson
# #
# ############################

# namespace = necroids

# #Sacrifice: Togetherness (fired by edict)
# country_event = {
#     id = necroids.200
#     title = necroids.200.name
#     desc = necroids.200.desc
#     picture = GFX_evt_alien_propaganda
#     show_sound = event_death_cult
#     location = capital_scope
#     is_triggered_only = yes

#     trigger = {
#         is_spiritualist = yes
#         OR = {
#             has_valid_civic = civic_death_cult
#             has_valid_civic = civic_death_cult_corporate
#         }
#     }

#     immediate = {
#         random_list = {
#             1 = {
#                 modifier = {
#                     add = 5
#                     num_assigned_jobs = { job = mortal_initiate value >= 40 }
#                 }
#                 modifier = {
#                     factor = 0.1
#                     num_assigned_jobs = { job = mortal_initiate value < 28 }
#                 }
#                 sacrifice_togetherness_five = yes
#             }
#             1 = {
#                 modifier = {
#                     add = 5
#                     num_assigned_jobs = { job = mortal_initiate value >= 30 value < 40 }
#                 }
#                 modifier = {
#                     factor = 0.1
#                     num_assigned_jobs = { job = mortal_initiate value < 18 }
#                 }
#                 sacrifice_togetherness_four = yes
#             }
#             1 = {
#                 modifier = {
#                     add = 5
#                     num_assigned_jobs = { job = mortal_initiate value >= 20 value < 30 }
#                 }
#                 modifier = {
#                     factor = 0.1
#                     num_assigned_jobs = { job = mortal_initiate value < 8 }
#                 }
#                 sacrifice_togetherness_three = yes
#             }
#             1 = {
#                 modifier = {
#                     add = 5
#                     num_assigned_jobs = { job = mortal_initiate value >= 10 value < 20 }
#                 }
#                 modifier = {
#                     factor = 0.1
#                     num_assigned_jobs = { job = mortal_initiate value < 2 }
#                 }
#                 sacrifice_togetherness_two = yes
#             }
#             1 = {
#                 modifier = {
#                     add = 5
#                     num_assigned_jobs = { job = mortal_initiate value >= 2 value < 10 }
#                 }
#                 modifier = {
#                     factor = 0.1
#                     num_assigned_jobs = { job = mortal_initiate value < 1 }
#                 }
#                 sacrifice_togetherness_one = yes
#             }
#         }
#         every_owned_pop = {
#             limit = { has_job = mortal_initiate }
#             kill_pop = yes
#         }
#     }

#     option = {
#         name = PRAISE
#         trigger = { has_modifier = sacrifice_togetherness_5 }
#         custom_tooltip = "necroids.200.tooltip.5"
#     }
#     option = {
#         name = PRAISE
#         trigger = { has_modifier = sacrifice_togetherness_4 }
#         custom_tooltip = "necroids.200.tooltip.4"
#     }
#     option = {
#         name = PRAISE
#         trigger = { has_modifier = sacrifice_togetherness_3 }
#         custom_tooltip = "necroids.200.tooltip.3"
#     }
#     option = {
#         name = PRAISE
#         trigger = { has_modifier = sacrifice_togetherness_2 }
#         custom_tooltip = "necroids.200.tooltip.2"
#     }
#     option = {
#         name = PRAISE
#         trigger = { has_modifier = sacrifice_togetherness_1 }
#         custom_tooltip = "necroids.200.tooltip.1"
#     }
# }

# #Sacrifice: Harmony (fired by edict)
# country_event = {
#     id = necroids.201
#     title = necroids.201.name
#     desc = necroids.201.desc
#     picture = GFX_evt_alien_propaganda
#     show_sound = event_death_cult
#     location = capital_scope
#     is_triggered_only = yes

#     trigger = {
#         is_spiritualist = yes
#         OR = {
#             has_valid_civic = civic_death_cult
#             has_valid_civic = civic_death_cult_corporate
#         }
#     }

#     immediate = {
#         random_list = {
#             1 = {
#                 modifier = {
#                     add = 5
#                     num_assigned_jobs = { job = mortal_initiate value >= 40 }
#                 }
#                 modifier = {
#                     factor = 0.1
#                     num_assigned_jobs = { job = mortal_initiate value < 28 }
#                 }
#                 sacrifice_harmony_five = yes
#             }
#             1 = {
#                 modifier = {
#                     add = 5
#                     num_assigned_jobs = { job = mortal_initiate value >= 30 value < 40 }
#                 }
#                 modifier = {
#                     factor = 0.1
#                     num_assigned_jobs = { job = mortal_initiate value < 18 }
#                 }
#                 sacrifice_harmony_four = yes
#             }
#             1 = {
#                 modifier = {
#                     add = 5
#                     num_assigned_jobs = { job = mortal_initiate value >= 20 value < 30 }
#                 }
#                 modifier = {
#                     factor = 0.1
#                     num_assigned_jobs = { job = mortal_initiate value < 8 }
#                 }
#                 sacrifice_harmony_three = yes
#             }
#             1 = {
#                 modifier = {
#                     add = 5
#                     num_assigned_jobs = { job = mortal_initiate value >= 10 value < 20 }
#                 }
#                 modifier = {
#                     factor = 0.1
#                     num_assigned_jobs = { job = mortal_initiate value < 2 }
#                 }
#                 sacrifice_harmony_two = yes
#             }
#             1 = {
#                 modifier = {
#                     add = 5
#                     num_assigned_jobs = { job = mortal_initiate value >= 2 value < 10 }
#                 }
#                 modifier = {
#                     factor = 0.1
#                     num_assigned_jobs = { job = mortal_initiate value < 1 }
#                 }
#                 sacrifice_harmony_one = yes
#             }
#         }
#         every_owned_pop = {
#             limit = { has_job = mortal_initiate }
#             kill_pop = yes
#         }
#     }

#     option = {
#         name = PRAISE
#         trigger = { has_modifier = sacrifice_harmony_5 }
#         custom_tooltip = "necroids.201.tooltip.5"
#     }
#     option = {
#         name = PRAISE
#         trigger = { has_modifier = sacrifice_harmony_4 }
#         custom_tooltip = "necroids.201.tooltip.4"
#     }
#     option = {
#         name = PRAISE
#         trigger = { has_modifier = sacrifice_harmony_3 }
#         custom_tooltip = "necroids.201.tooltip.3"
#     }
#     option = {
#         name = PRAISE
#         trigger = { has_modifier = sacrifice_harmony_2 }
#         custom_tooltip = "necroids.201.tooltip.2"
#     }
#     option = {
#         name = PRAISE
#         trigger = { has_modifier = sacrifice_harmony_1 }
#         custom_tooltip = "necroids.201.tooltip.1"
#     }
# }

# #Sacrifice: Bounty (fired by edict)
# country_event = {
#     id = necroids.202
#     title = necroids.202.name
#     desc = necroids.202.desc
#     picture = GFX_evt_alien_propaganda
#     show_sound = event_death_cult
#     location = capital_scope
#     is_triggered_only = yes

#     trigger = {
#         is_spiritualist = yes
#         OR = {
#             has_valid_civic = civic_death_cult
#             has_valid_civic = civic_death_cult_corporate
#         }
#     }

#     immediate = {
#         random_list = {
#             1 = {
#                 modifier = {
#                     add = 5
#                     num_assigned_jobs = { job = mortal_initiate value >= 40 }
#                 }
#                 modifier = {
#                     factor = 0.1
#                     num_assigned_jobs = { job = mortal_initiate value < 28 }
#                 }
#                 sacrifice_bounty_five = yes
#             }
#             1 = {
#                 modifier = {
#                     add = 5
#                     num_assigned_jobs = { job = mortal_initiate value >= 30 value < 40 }
#                 }
#                 modifier = {
#                     factor = 0.1
#                     num_assigned_jobs = { job = mortal_initiate value < 18 }
#                 }
#                 sacrifice_bounty_four = yes
#             }
#             1 = {
#                 modifier = {
#                     add = 5
#                     num_assigned_jobs = { job = mortal_initiate value >= 20 value < 30 }
#                 }
#                 modifier = {
#                     factor = 0.1
#                     num_assigned_jobs = { job = mortal_initiate value < 8 }
#                 }
#                 sacrifice_bounty_three = yes
#             }
#             1 = {
#                 modifier = {
#                     add = 5
#                     num_assigned_jobs = { job = mortal_initiate value >= 10 value < 20 }
#                 }
#                 modifier = {
#                     factor = 0.1
#                     num_assigned_jobs = { job = mortal_initiate value < 2 }
#                 }
#                 sacrifice_bounty_two = yes
#             }
#             1 = {
#                 modifier = {
#                     add = 5
#                     num_assigned_jobs = { job = mortal_initiate value >= 2 value < 10 }
#                 }
#                 modifier = {
#                     factor = 0.1
#                     num_assigned_jobs = { job = mortal_initiate value < 1 }
#                 }
#                 sacrifice_bounty_one = yes
#             }
#         }
#         every_owned_pop = {
#             limit = { has_job = mortal_initiate }
#             kill_pop = yes
#         }
#     }

#     option = {
#         name = PRAISE
#         trigger = { has_modifier = sacrifice_bounty_5 }
#         custom_tooltip = "necroids.202.tooltip.5"
#     }
#     option = {
#         name = PRAISE
#         trigger = { has_modifier = sacrifice_bounty_4 }
#         custom_tooltip = "necroids.202.tooltip.4"
#     }
#     option = {
#         name = PRAISE
#         trigger = { has_modifier = sacrifice_bounty_3 }
#         custom_tooltip = "necroids.202.tooltip.3"
#     }
#     option = {
#         name = PRAISE
#         trigger = { has_modifier = sacrifice_bounty_2 }
#         custom_tooltip = "necroids.202.tooltip.2"
#     }
#     option = {
#         name = PRAISE
#         trigger = { has_modifier = sacrifice_bounty_1 }
#         custom_tooltip = "necroids.202.tooltip.1"
#     }
# }