#########################################
#
# Events concerning Primitive Aliens
#
# Written by Henrik Eklund
# STNH - 2.2.0 Compat WIP
#########################################

namespace = primitive

### Industrial Technology Progress Events

# Radio Signals (HIDDEN)
country_event = {
	id = primitive.10
	hide_window = yes

	trigger = {
		is_country_type = primitive
		has_country_flag = industrial_age
		NOT = { has_country_flag = recently_advanced }
	}
	mean_time_to_happen = { years = 100 } 

	immediate = {
		set_timed_country_flag = {
			flag = recently_advanced
			days = 2160 #60yrs
		}
		remove_country_flag = industrial_age
		set_country_flag = machine_age
		set_primitive_age = machine_age
		change_country_flag = {
			icon = {
				category = "special"
				file = "primitive.dds"
			}
			background= {
				category = "backgrounds"
				file = "new_dawn.dds"
			}
			colors={
				"yellow"
				"orange"
				"null"
				"null"
			}
		}
		home_planet = {
			create_army = {
				name = "NAME_Industrial_Army"
				owner = root
				species = root
				type = "industrial_army"
			}
			create_pop = { species = owner_main_species }
			create_pop = { species = owner_main_species }
			observation_outpost_owner = {
				country_event = { id = primitive.11 }
			}
		}
	}
}

# Radio Signals
country_event = {
	id = primitive.11
	title = "primitive.11.name"
	desc = "primitive.11.desc"
	picture = GFX_evt_metropolis
	location = FROM

	is_triggered_only = yes

	option = {
		name = primitive.11.a
	}
}

# Splitting the Atom (HIDDEN)
country_event = {
	id = primitive.12
	hide_window = yes

	trigger = {
		is_country_type = primitive
		has_country_flag = machine_age
		NOT = { has_country_flag = recently_advanced }
	}

	mean_time_to_happen = { years = 100 }

	immediate = {
		set_timed_country_flag = {
			flag = recently_advanced
			days = 2160 #60yrs
		}
		remove_country_flag = machine_age
		set_country_flag = atomic_age
		set_primitive_age = atomic_age
		change_country_flag = {
			icon = {
				category = "special"
				file = "primitive.dds"
			}
			background= {
				category = "backgrounds"
				file = "new_dawn.dds"
			}
			colors={
				"beige"
				"brown"
				"null"
				"null"
			}
		}
			
		home_planet = {
			remove_all_armies = yes
			while = {
				count = 4
				create_army = {
					name = "NAME_Post-Atomic_Army"
					owner = root
					species = root
					type = "postatomic_army"
				}
			}
			create_pop = { species = owner_main_species }
			create_pop = { species = owner_main_species }
			observation_outpost_owner = {
				country_event = { id = primitive.13 }
			}
		}
	}
}

# Splitting the Atom
country_event = {
	id = primitive.13
	title = "primitive.13.name"
	desc = "primitive.13.desc"
	picture = GFX_evt_metropolis
	location = FROM

	is_triggered_only = yes

	option = {
		name = primitive.13.a
	}
}

# First Satellite (HIDDEN)
country_event = {
	id = primitive.14
	hide_window = yes

	trigger = {
		is_country_type = primitive
		has_country_flag = atomic_age
		NOT = { has_country_flag = recently_advanced }
	}

	mean_time_to_happen = { years = 100 }

	immediate = {
		set_timed_country_flag = {
			flag = recently_advanced
			days = 2160 #60yrs
		}
		remove_country_flag = atomic_age
		set_country_flag = early_space_age
		set_primitive_age = early_space_age
		change_country_flag = {
			icon = {
				category = "special"
				file = "primitive.dds"
			}
			background= {
				category = "backgrounds"
				file = "new_dawn.dds"
			}
			colors={
				"grey"
				"dark_grey"
				"null"
				"null"
			}
		}
		home_planet = {
			remove_all_armies = yes
			create_army = {
				name = "NAME_Post-Atomic_Army"
				owner = root
				species = root
				type = "postatomic_army"
			}
			create_fleet = {
				name = "NAME_Space_Station"
				effect = {
					set_owner = root
					create_ship = {
						name = "NAME_Space_Station"
						design = "NAME_Space_Station"
					}
					set_location = PREV
				}
			}
			create_pop = { species = owner_main_species }
			create_pop = { species = owner_main_species }
			observation_outpost_owner = {
				country_event = { id = primitive.15 }
			}
		}
	}
}

# First Satellite
country_event = {
	id = primitive.15
	title = "primitive.15.name"
	desc = "primitive.15.desc"
	picture = GFX_evt_satellite_in_orbit
	location = FROM

	is_triggered_only = yes

	option = {
		name = primitive.15.a
	}
}

# Space Station (HIDDEN)
country_event = {
	id = primitive.18
	hide_window = yes

	trigger = {
		is_country_type = primitive
		has_country_flag = early_space_age
		exists = home_planet
		home_planet = {
			has_observation_outpost = yes
		}
		NOR = {
			any_owned_ship = {
				is_ship_size = primitive_space_station
			}
			has_country_flag = recently_advanced
		}
	}

	mean_time_to_happen = { years = 120 }

	immediate = {
		set_timed_country_flag = {
			flag = recently_advanced
			days = 2160 #60yrs
		}
		home_planet = {
			create_fleet = {
				name = "NAME_Space_Station"
				effect = {
					set_owner = ROOT
					create_ship = {
						name = "NAME_Space_Station"
						design = "NAME_Space_Station"
					}
					set_location = PREV
				}
			}
			observation_outpost_owner = {
				country_event = { id = primitive.19 }
			}
		}
	}
}

# Space Station
country_event = {
	id = primitive.19
	title = "primitive.19.name"
	desc = "primitive.19.desc"
	picture = GFX_evt_satellite_in_orbit
	location = FROM

	is_triggered_only = yes

	option = {
		name = primitive.19.a
	}
}

# Entering Space Age (HIDDEN)
country_event = {
	id = primitive.16
	hide_window = yes

	trigger = {
		is_country_type = primitive
		has_country_flag = warpcapable_age
		OR = {
			AND = {
				exists = from
				from = {
					OR = {
						is_normal_country = yes
						is_country_type = awakened_fallen_empire
					}
				}
			}
			AND = {
				NOT = { has_country_flag = recently_advanced }
				years_passed > 100
				exists = home_planet
				home_planet = { has_observation_outpost = no }			
			}
		}
	}

	mean_time_to_happen = { years = 200 }

	immediate = {
		remove_country_flag = warpcapable_age
		set_country_flag = primitives_can_into_space
		set_country_type = minorRace
		random_list = {
			10 = { set_graphical_culture = generic_01 }
			10 = { set_graphical_culture = generic_02 }
		}
		change_government = {
			authority = random
			civics = random
		}
		set_name = random
		if = {
			limit = {
				home_planet = {
					has_observation_outpost = yes
				}
			}
			home_planet = {
				observation_outpost_owner = {
					country_event = { id = primitive.17 }
				}
			}
		}
		add_resource = {
			energy = 500
			minerals = 1000 # enough for a spaceport and then some
		}
		add_resource = { influence = 300 }
		capital_scope = {
			clear_blockers = yes
			while = {
				limit = { 
					num_pops < 8
				}
				create_pop = {
					species = owner
				}
			}
			remove_building = building_primitive_farm
			remove_building = building_primitive_factory
			remove_building = building_primitive_capital
			remove_building = building_urban_dwellings
			add_district = district_city
			add_district = district_city
			add_district = district_city
			add_district = district_city
			add_district = district_farming
			add_district = district_farming
			add_district = district_farming
			add_district = district_mining
			add_district = district_mining
			add_district = district_generator
			add_district = district_generator
			add_building = building_capital_2
			add_building = building_research_lab_1
			add_building = building_foundry_1
			add_building = building_factory_1
			
			remove_all_armies = yes
			solar_system = {
				if = {
					limit = {
						NOT = { exists = starbase }
					}
					create_starbase = {
						size = starbase_outpost
						owner = root
					}
				}
				else_if = {
					limit = {
						starbase = {
							NOT = { owner = { is_same_value = root } }
						}
					}	
					starbase = {
						owner = { country_event = { id = primitive.180 days = 10 } }
					}
				}
			}				
		}
		random_owned_ship = {
			limit = { is_ship_size = primitive_space_station }
			fleet = { destroy_fleet = THIS }
		}
	}
}

# Prim Memberworld
country_event = {
	id = primitive.216
	hide_window = yes
	mean_time_to_happen = {
		years = 100
	}
	trigger = {
		is_country_type = primitive
		has_country_flag = warpcapable_age
		OR = {
			AND = {
				exists = from
				from = {
					OR = {
						is_normal_country = yes
						is_country_type = awakened_fallen_empire
					}
				}
			}
			AND = {
				NOT = { has_country_flag = recently_advanced }
				years_passed > 100
				exists = home_planet
				home_planet = { has_observation_outpost = no }			
			}
		}
	}

	immediate = {
		remove_country_flag = warpcapable_age
		set_country_flag = primitives_can_into_space
		set_country_type = minorRace
		random_list = {
			10 = { set_graphical_culture = generic_01 }
			10 = { set_graphical_culture = generic_02 }
		}
		change_government = {
			authority = random
			civics = random
		}
		set_name = random
		if = {
			limit = {
				home_planet = {
					has_observation_outpost = yes
				}
			}
			home_planet = {
				observation_outpost_owner = {
					country_event = { id = primitive.17 }
				}
			}
		}
		add_resource = {
			energy = 500
			minerals = 1000 # enough for a spaceport and then some
		}
		add_resource = { influence = 300 }
		capital_scope = {
			clear_blockers = yes
			while = {
				limit = { 
					num_pops < 8
				}
				create_pop = {
					species = owner
				}
			}
			remove_building = building_primitive_farm
			remove_building = building_primitive_factory
			remove_building = building_primitive_capital
			remove_building = building_urban_dwellings
			add_district = district_city
			add_district = district_farming
			add_district = district_mining
			add_district = district_mining
			add_district = district_generator
			add_district = district_generator
			add_building = building_capital_2
			add_building = building_research_lab_1
			add_building = building_foundry_1
			add_building = building_factory_1
			
			remove_all_armies = yes
			solar_system = {
				if = {
					limit = {
						NOT = { exists = starbase }
					}
					create_starbase = {
						size = starbase_outpost
						owner = root
					}
				}
				else_if = {
					limit = {
						starbase = {
							NOT = { owner = { is_same_value = root } }
						}
					}	
					starbase = {
						owner = { country_event = { id = primitive.180 days = 10 } }
					}
				}
			}				
		}
		random_owned_ship = {
			limit = { is_ship_size = primitive_space_station }
			fleet = { destroy_fleet = THIS }
		}
	}
}

country_event = {
	id = primitive.180
	title = primitive.180.name
	location = from.capital_scope.solar_system
	desc = primitive.180.desc

	diplomatic = yes

	is_triggered_only = yes

	picture_event_data = {
		portrait = from
		planet_background = from
		graphical_culture = from
		city_level = from
		room = from.ruler
	}

	option = {
		name = primitive.180.a # Cede
		trigger = {
			NOR = {
				has_valid_civic = civic_machine_terminator
				has_valid_civic = civic_hive_devouring_swarm
				has_valid_civic = civic_fanatic_purifiers
			}
		}

		if = {
			limit = {
				OR = {
					has_ethic = ethic_fanatic_xenophobe
					has_ethic = ethic_xenophobe
				}
			}
			add_resource = { influence = -200 }
		}

		custom_tooltip = primitive.180.a.tooltip
		hidden_effect = {
			from = {
				capital_scope.solar_system.starbase = {
					set_owner = root.from
				}

				add_opinion_modifier = {
					modifier = opinion_ceded_starbase
					who = root
				}
			}
		}
	}

	option = {
		name = primitive.180.b # Don't cede
		trigger = {
			NOR = {
				has_valid_civic = civic_machine_terminator
				has_valid_civic = civic_hive_devouring_swarm
				has_valid_civic = civic_fanatic_purifiers
			}
		}

		if = {
			limit = {
				OR = {
					has_ethic = ethic_fanatic_xenophile
					has_ethic = ethic_xenophile
				}
			}
			add_resource = { influence = -200 }
		}

		custom_tooltip = primitive.180.b.tooltip
		hidden_effect = {
			from = {
				add_opinion_modifier = {
					modifier = opinion_not_ceded_starbase
					who = root
				}
			}
		}
	}

	option = {
		name = SCUM # Xeno Scum
		trigger = {
			has_valid_civic = civic_fanatic_purifiers
		}
	}
}

# Entering Space Age
country_event = {
	id = primitive.17
	title = "primitive.17.name"
	desc = "primitive.17.desc"
	picture = GFX_evt_satellite_in_orbit
	location = FROM

	is_triggered_only = yes


	immediate = {
		FROM = {
			home_planet = {
				observation_outpost = {
					dismantle = yes
				}
			}
		}
	}

	option = {
		name = primitive.15.a
	}
}

# Early to Warp Capable ##STNH
country_event = {
	id = primitive.200
	hide_window = yes

	trigger = {
		is_country_type = primitive
		has_country_flag = early_space_age
		NOT = { has_country_flag = recently_advanced }
	}

	mean_time_to_happen = { years = 100 }

	immediate = {
		set_timed_country_flag = {
			flag = recently_advanced
			days = 2160 #60yrs
		}
		remove_country_flag = early_space_age
		set_country_flag = warpcapable_age
		set_primitive_age = warpcapable_age
		change_country_flag = {
			icon = {
				category = "special"
				file = "primitive.dds"
			}
			background= {
				category = "backgrounds"
				file = "new_dawn.dds"
			}
			colors={
				"grey"
				"dark_grey"
				"null"
				"null"
			}
		}
		home_planet = {
			remove_all_armies = yes
			create_army = {
				name = "NAME_Post-Atomic_Army"
				owner = root
				species = root
				type = "postatomic_army"
			}
			create_fleet = {
				name = "NAME_Space_Station"
				effect = {
					set_owner = root
					create_ship = {
						name = "NAME_Space_Station"
						design = "NAME_Space_Station"
					}
					set_location = PREV
				}
			}
			create_pop = { species = owner_main_species }
			create_pop = { species = owner_main_species }
			observation_outpost_owner = {
				country_event = { id = primitive.201 }
			}
		}
	}
}

# First Warp Flight
country_event = {
	id = primitive.201
	title = "primitive.201.name"
	desc = "primitive.201.desc"
	picture = sth_GFX_evt_nxAlpha
	location = FROM

	is_triggered_only = yes

	option = {
		name = primitive.201.a
	}
}

### Medieval Technology Progress Events

# Iron Age (HIDDEN)
country_event = {
	id = primitive.20
	hide_window = yes

	trigger = {
		is_country_type = primitive
		has_country_flag = bronze_age
		NOT = { has_country_flag = recently_advanced }
	}

	mean_time_to_happen = { years = 160 }

	immediate = {
		if = {
			limit = {
				any_owned_planet = {
					has_observation_outpost = yes
					observation_outpost_owner = {
						is_country_type = default
					}
					observation_outpost = {
						OR = {
							has_mission = technological_enlightenment_1
							has_mission = technological_enlightenment_2
							has_mission = technological_enlightenment_3
							has_mission = technological_enlightenment_4
							has_mission = technological_enlightenment_5
							has_mission = technological_enlightenment_6
							has_mission = technological_enlightenment_7
							has_mission = technological_enlightenment_8
							has_mission = technological_enlightenment_9
						}
					}
				}
			}
			set_country_flag = was_bronze
		}
		set_timed_country_flag = {
			flag = recently_advanced
			days = 2160 #60yrs
		}
		remove_country_flag = bronze_age
		change_government = {
			civics = {
				civic = civic_landed_nobility
				civic = civic_flat_world_theory
			}
		}
		set_country_flag = iron_age
		set_primitive_age = iron_age
		change_country_flag = {
			icon = {
				category = "special"
				file = "primitive.dds"
			}
			background= {
				category = "backgrounds"
				file = "new_dawn.dds"
			}
			colors={
				"purple"
				"dark_purple"
				"null"
				"null"
			}
		}
		home_planet = {
			create_army = {
				name = "NAME_Primitive_Army"
				owner = root
				species = root
				type = "primitive_army"
			}
			create_pop = { species = owner_main_species }
			create_pop = { species = owner_main_species }
			observation_outpost_owner = {
				country_event = { id = primitive.21 }
			}
		}
	}
}

# Iron Age
country_event = {
	id = primitive.21
	title = "primitive.21.name"
	desc = "primitive.21.desc"
	picture = GFX_evt_medieval_alien_civilization
	location = FROM

	is_triggered_only = yes

	option = {
		name = primitive.21.a
	}
}

# Printing Press (HIDDEN)
country_event = {
	id = primitive.22
	hide_window = yes

	trigger = {
		is_country_type = primitive
		has_country_flag = iron_age
		NOT = { has_country_flag = recently_advanced }
	}

	mean_time_to_happen = { years = 160 }

	immediate = {
		set_timed_country_flag = {
			flag = recently_advanced
			days = 2160 #60yrs
		}
		remove_country_flag = iron_age
		set_country_flag = late_medieval_age
		set_primitive_age = late_medieval_age
		change_country_flag = {
			icon = {
				category = "special"
				file = "primitive.dds"
			}
			background= {
				category = "backgrounds"
				file = "new_dawn.dds"
			}
			colors={
				"light_blue"
				"blue"
				"null"
				"null"
			}
		}
		home_planet = {
			create_army = {
				name = "NAME_Primitive_Army"
				owner = root
				species = root
				type = "primitive_army"
			}
			add_building = building_primitive_dwellings
			create_pop = { species = owner_main_species }
			create_pop = { species = owner_main_species }
			observation_outpost_owner = {
				country_event = { id = primitive.23 }
			}
		}
	}
}

# Printing Press
country_event = {
	id = primitive.23
	title = "primitive.23.name"
	desc = "primitive.23.desc"
	picture = GFX_evt_medieval_alien_civilization
	location = FROM

	is_triggered_only = yes

	option = {
		name = primitive.23.a
	}
}

# Gunpowder (HIDDEN)
country_event = {
	id = primitive.24
	hide_window = yes

	trigger = {
		is_country_type = primitive
		has_country_flag = late_medieval_age
		NOT = { has_country_flag = recently_advanced }
	}

	mean_time_to_happen = { years = 160 }

	immediate = {
		set_timed_country_flag = {
			flag = recently_advanced
			days = 2160 #60yrs
		}
		remove_country_flag = late_medieval_age
		set_country_flag = renaissance_age
		set_primitive_age = renaissance_age
		change_country_flag = {
			icon = {
				category = "special"
				file = "primitive.dds"
			}
			background= {
				category = "backgrounds"
				file = "new_dawn.dds"
			}
			colors={
				"pink"
				"burgundy"
				"null"
				"null"
			}
		}
		home_planet = {
			create_army = {
				name = "NAME_Primitive_Army"
				owner = root
				species = root
				type = "primitive_army"
			}
			create_pop = { species = owner_main_species }
			create_pop = { species = owner_main_species }
			observation_outpost_owner = {
				country_event = { id = primitive.25 }
			}
		}
	}
}

# Gunpowder
country_event = {
	id = primitive.25
	title = "primitive.25.name"
	desc = "primitive.25.desc"
	picture = GFX_evt_medieval_alien_civilization
	location = FROM

	is_triggered_only = yes

	option = {
		name =  primitive.25.a
	}
}

# Steam Engine (HIDDEN)
country_event = {
	id = primitive.26
	hide_window = yes

	trigger = {
		is_country_type = primitive
		has_country_flag = renaissance_age
		NOT = { has_country_flag = recently_advanced }
	}

	mean_time_to_happen = { years = 160 }

	immediate = {
		set_timed_country_flag = {
			flag = recently_advanced
			days = 2160 #60yrs
		}
		remove_country_flag = renaissance_age
		set_country_flag = steam_age
		set_primitive_age = steam_age
		change_country_flag = {
			icon = {
				category = "special"
				file = "primitive.dds"
			}
			background= {
				category = "backgrounds"
				file = "new_dawn.dds"
			}
			colors={
				"orange"
				"red"
				"null"
				"null"
			}
		}
		home_planet = {
			remove_all_armies = yes
			while = {
				count = 3
				create_army = {
					name = "NAME_Industrial_Army"
					owner = root
					species = root
					type = "industrial_army"
				}
			}
			remove_building = building_primitive_dwellings
			add_building = building_primitive_factory
			create_pop = { species = owner_main_species }
			create_pop = { species = owner_main_species }
			observation_outpost_owner = {
				country_event = { id = primitive.27 }
			}
		}
	}
}

# Steam Engine
country_event = {
	id = primitive.27
	title = "primitive.27.name"
	desc = "primitive.27.desc"
	picture = GFX_evt_medieval_alien_civilization
	location = FROM

	is_triggered_only = yes

	option = {
		name = primitive.27.a
	}
}

# Entering Industrial Age (HIDDEN)
country_event = {
	id = primitive.28
	hide_window = yes

	trigger = {
		is_country_type = primitive
		has_country_flag = steam_age
		NOT = { has_country_flag = recently_advanced }
	}

	mean_time_to_happen = { years = 100 }

	immediate = {
		set_timed_country_flag = {
			flag = recently_advanced
			days = 2160 #60yrs
		}
		remove_country_flag = steam_age
		change_government = {
			civics = {
				civic = civic_increasing_urbanization
				civic = civic_atmospheric_pollution
			}
		}
		set_country_flag = industrial_age
		set_primitive_age = industrial_age
		set_graphical_culture = industrial_01
		change_country_flag = {
			icon = {
				category = "special"
				file = "primitive.dds"
			}
			background= {
				category = "backgrounds"
				file = "new_dawn.dds"
			}
			colors={
				"beige"
				"yellow"
				"null"
				"null"
			}
		}
		home_planet = {
			create_army = {
				name = "NAME_Industrial_Army"
				owner = root
				species = root
				type = "industrial_army"
			}
			clear_blockers = yes
			add_deposit = d_decrepit_dwellings
			add_deposit = d_failing_infrastructure
			remove_building = building_stone_palace
			remove_building = building_primitive_dwellings
			add_building = building_primitive_capital
			add_building = building_urban_dwellings
			add_building = building_primitive_farm
			create_pop = { species = owner_main_species }
			create_pop = { species = owner_main_species }
			observation_outpost_owner = {
				country_event = { id = primitive.29 }
			}
		}
	}
}

# Entering Industrial Age
country_event = {
	id = primitive.29
	title = "primitive.29.name"
	desc = "primitive.29.desc"
	picture = GFX_evt_medieval_alien_civilization
	location = FROM

	is_triggered_only = yes

	option = {
		name = primitive.29.a
	}
}

# Bronze Age (HIDDEN)
country_event = {
	id = primitive.30
	hide_window = yes

	trigger = {
		is_country_type = primitive
		has_country_flag = stone_age
		NOT = { has_country_flag = recently_advanced }
	}

	mean_time_to_happen = { years = 160 }

	immediate = {
		if = {
			limit = {
				any_owned_planet = {
					has_observation_outpost = yes
					observation_outpost_owner = {
						is_country_type = default
					}
					observation_outpost = {
						OR = {
							has_mission = technological_enlightenment_1
							has_mission = technological_enlightenment_2
							has_mission = technological_enlightenment_3
							has_mission = technological_enlightenment_4
							has_mission = technological_enlightenment_5
							has_mission = technological_enlightenment_6
							has_mission = technological_enlightenment_7
							has_mission = technological_enlightenment_8
							has_mission = technological_enlightenment_9
						}
					}
				}
			}
			set_country_flag = was_stone
		}
		set_timed_country_flag = {
			flag = recently_advanced
			days = 2160 #60yrs
		}
		remove_country_flag = stone_age
		set_country_flag = bronze_age
		set_primitive_age = bronze_age
		change_country_flag = {
			icon = {
				category = "special"
				file = "primitive.dds"
			}
			background= {
				category = "backgrounds"
				file = "new_dawn.dds"
			}
			colors={
				"green"
				"dark_green"
				"null"
				"null"
			}
		}
		home_planet = {
			remove_building = building_crude_huts
			add_building = building_primitive_dwellings
			add_building = building_stone_palace
			create_pop = { species = owner_main_species }
			create_pop = { species = owner_main_species }
			observation_outpost_owner = {
				country_event = { id = primitive.31 }
			}
		}
	}
}

# Bronze Age
country_event = {
	id = primitive.31
	title = "primitive.31.name"
	desc = "primitive.31.desc"
	picture = GFX_evt_medieval_alien_civilization
	location = FROM

	is_triggered_only = yes

	option = {
		name = primitive.31.a
	}
}

### Nuclear War Scenarios

# Nuclear War Breaks Out (HIDDEN)
planet_event = {
	id = primitive.130
	hide_window = yes

	pre_triggers = {
		has_owner = yes
	}
	trigger = {
		is_artificial_planet = no
		
		owner = {
			is_country_type = primitive
			OR = {
				has_country_flag = atomic_age
				has_country_flag = early_space_age
			}
		}
		OR = {
			has_observation_outpost = no
			AND = {
				has_observation_outpost = yes
				observation_outpost = { has_mission = passive_observation }
			}
			AND = {
				has_observation_outpost = yes
				observation_outpost = { has_mission = native_indoctrination }
			}			
			AND = {
				has_observation_outpost = yes
				observation_outpost = { has_mission = specimen_collection }
			}
		}
	}

	mean_time_to_happen = { years = 100	}

	immediate = {
		owner = {
			random_owned_ship = {
				limit = { is_ship_size = primitive_space_station }
				fleet = { destroy_fleet = THIS }
			}
		}
		if = {
			limit = {
				has_observation_outpost = yes
			}
			observation_outpost_owner = {
				random_list = {
					25 = {
						country_event = { id = primitive.131 }
						modifier = {
							factor = 0 # won't turn planet uninhabitable if it's not a planet
							root = {
								is_artificial_planet = yes
							}
						}
					}
					75 = { country_event = { id = primitive.133 } }
				}
			}	
		}	
		else = {
			owner = {
				random_list = {
					25 = {
						country_event = { id = primitive.131 }
						modifier = {
							factor = 0 # won't turn planet uninhabitable if it's not a planet
							root = {
								is_artificial_planet = yes
							}
						}
					}
					75 = { country_event = { id = primitive.133 } }
				}
			}
		}
	}
}

# Nuclear War (Planet Rendered Uninhabitable)
country_event = {
	id = primitive.131
	title = "primitive.131.name"
	desc = "primitive.131.desc"
	picture = GFX_evt_nuclear_explosion
	location = FROM

	is_triggered_only = yes

	immediate = {
		FROM = {
			nuke_primitives_toxic_effect = yes
		}
	}

	option = {
		name = primitive.131.a
		if = {
			limit = {
				from = { has_observation_outpost = yes }
			}		
			from = {
				observation_outpost = {
					dismantle = yes
				}
			}
		}
	}
}

# Nuclear War (Entire Population Died)
country_event = {
	id = primitive.133
	title = "primitive.131.name"
	desc = "primitive.133.desc"
	picture = GFX_evt_nuclear_explosion
	location = FROM

	is_triggered_only = yes

	immediate = {
		FROM = {
			nuke_primitives_effect = yes
		}
	}

	option = {
		name = primitive.131.a
		if = {
			limit = {
				from = { has_observation_outpost = yes }
			}		
			from = {
				observation_outpost = {
					dismantle = yes
				}
			}
		}
	}
}

# TRIGGER - Radio Signals (HIDDEN)



### Alien Abductions

# Alien Abductions (HIDDEN)
planet_event = {
	id = primitive.170
	hide_window = yes

	trigger = {
		has_observation_outpost = yes
		observation_outpost = { has_mission = specimen_collection }
		observation_outpost_owner = {
			NOT = { has_country_flag = alien_abductions_country }
			is_ai = no
		}
		owner = {
			is_country_type = primitive
			OR = {
				has_country_flag = machine_age
				has_country_flag = atomic_age
				has_country_flag = early_space_age
			}
		}
	}

	mean_time_to_happen = { years = 100 }

	immediate = {
		observation_outpost_owner = {
			set_country_flag = alien_abductions_country
			country_event = { id = primitive.171 }
		}
	}
}

# Alien Abductions
country_event = {
	id = primitive.171
	title = "primitive.171.name"
	desc = "primitive.171.desc"
	picture = GFX_evt_landing_ship
	location = FROM
	trackable = yes

	is_triggered_only = yes

	option = {
		name = "primitive.171.a"
		from = {
			enable_special_project = {
				name = "PROBE_ALIENS"
				location = this
				owner = root
			}
		}
	}
	option = {
		name = "primitive.171.b"
	}
}

# Abductions Finished
ship_event = {
	id = primitive.172
	title = "PROJECT_COMPLETE"
	desc = "primitive.172.desc"
	picture = GFX_evt_landing_ship
	location = FROMFROM

	is_triggered_only = yes

	option = {
		name = "primitive.172.a"
		owner = {
			add_monthly_resource_mult = {
				resource = society_research
				value = @tier3researchreward
				min = @tier3researchmin
				max = @tier3researchmax
			}
		}
	}
}

## TRIGGER Radio Age
#country_event = {
#	id = primitive.1000
#	hide_window = yes
#
#	is_triggered_only = yes
#
#	trigger = {
#	is_country_type = primitive
#	has_country_flag = industrial_age
#	NOT = { has_country_flag = recently_advanced }
#	}
#
#	immediate = {
#		country_event = { id = primitive.10 yeats = 100  }
#	}


## Diplomatic Objection (HIDDEN)
#country_event = {
#	id = primitive.173
#	hide_window = yes
#
#	trigger = {
#		is_ai = yes
#		is_primitive = no
#		any_country = {
#			#reverse_has_opinion_modifier = {
#			#	who = ROOT
#			#	modifier = opinion_abducted_aliens
#			#}
#		}
#		NOT = { has_country_flag = abducted_aliens_objection }
#		#has_country_flag = BLABLA_REMOVEME
#	}
#
#	mean_time_to_happen = { months = 240 }
#
#	immediate = {
#		set_country_flag = abducted_aliens_objection
#		random_country = {
#			#limit = {
#			#	reverse_has_opinion_modifier = {
#			#		who = ROOT
#			#		modifier = opinion_abducted_aliens
#			#	}
#			#}
#			country_event = { id = primitive.174 }
#		}
#	}
#}
#
## Diplomatic Objection
#country_event = {
#	id = primitive.174
#	title = "TRANSMISSION_NAME"
#	desc = "primitive.174.desc"
#
#	diplomatic = yes
#	is_triggered_only = yes
#
#	option = {
#		name = "primitive.174.a"
#		trigger = { resource_stockpile_compare = { resource = energy value >= 100 } }
#		response_text = "primitive.174.a.response"
#		add_resource = { energy = -100 }
#	}
#	option = {
#		name = "primitive.174.b"
#		response_text = "primitive.174.b.response"
#	}
#}