########################################
#
# System Denial Mechanics
# Written & provided by Armaman
#
# Version 1.0 - created (8.08.2020)
#
########################################

namespace = STH_system_denial_mechanics

#Destroyed a star with trilithium- negating outpost construction and destroys everything
country_event = {
	id = STH_system_denial_mechanics.100
	desc = STH_system_denial_mechanics.100.desc
	title = STH_system_denial_mechanics.100.name
	picture = sth_GFX_evt_starshipExplosion
	show_sound = event_super_explosion
	is_triggered_only = yes
	location = event_target:STH_system_denial_mechanics_supernova_star
	trigger = {	}	
	option = {
		name = STH_system_denial_mechanics.100.a
		add_monthly_resource_mult = { resource = physics_research value = 120 }
		save_event_target_as = STH_system_denial_mechanics_destroyer_country
		if = {
			limit = {
				NOT = {has_country_flag = STH_system_denial_mechanics_heliocide}
			}
			set_country_flag = STH_system_denial_mechanics_heliocide
			country_event = {
				id = STH_system_denial_mechanics.106 days = 1
			}
		}
		event_target:STH_system_denial_mechanics_supernova_star = {
			solar_system = {
				save_event_target_as = STH_system_denial_mechanics_supernova_star_system
				#Neighbor check
				if = {
					limit = {
						any_neighbor_system = {
							ignore_hyperlanes = no
							exists = owner							
							owner = {
								NOT = { is_same_value = event_target:STH_system_denial_mechanics_destroyer_country  }
							}
						}						
						any_system_planet = {
							NOR = {
								has_owner = yes 
								has_planet_flag = homeworld
							}
						}													
					}					
					owner = {
						country_event = {
							id = STH_system_denial_mechanics.105 days = 3
						}
					}					
				}							
				#Former Colony Check
				if = {
					limit = {
						any_system_planet = {
							has_owner = yes
							original_owner = no
							NOT = { has_planet_flag = homeworld	}
						}												
					}
					random_system_planet = {
						limit = {
							has_owner = yes
							original_owner = no	
							NOT = { has_planet_flag = homeworld	}
						}
						save_event_target_as = STH_system_denial_mechanics_destroyed_colony						 
					}					
					every_country = {
						save_event_target_as = STH_system_denial_mechanics_potential_colony_owner	
						event_target:STH_system_denial_mechanics_destroyed_colony = {
							if = {
								limit ={
									is_original_owner = event_target:STH_system_denial_mechanics_potential_colony_owner
								}
								event_target:STH_system_denial_mechanics_potential_colony_owner = {
									save_event_target_as = STH_system_denial_mechanics_colony_owner
								}																
							}
						}						
					}
					#If colony owner exists, express displeasure
					if = {
						limit = {
							exists = event_target:STH_system_denial_mechanics_colony_owner
						}
						owner = {
							country_event = {
								id = STH_system_denial_mechanics.104 days = 7
							}
						}
					}
				}
				#homeworld checks and events
				if = {
					limit = {
						any_system_planet = {
							has_planet_flag = homeworld							
						}												
					}
					random_system_planet = {
						limit = {
							has_planet_flag = homeworld	
						}
						save_event_target_as = STH_system_denial_mechanics_destroyed_homeworld						 
					}
					event_target:STH_system_denial_mechanics_destroyer_country = {
						set_country_flag = STH_system_denial_mechanics_heliocide_home_system
					}
					every_country = {
						save_event_target_as = STH_system_denial_mechanics_potential_homeworld_owner	
						event_target:STH_system_denial_mechanics_destroyed_homeworld = 	{
							if = {
								limit ={
									is_original_owner = event_target:STH_system_denial_mechanics_potential_homeworld_owner
								}
								event_target:STH_system_denial_mechanics_potential_homeworld_owner = {
									save_event_target_as = STH_system_denial_mechanics_homeworld_owner
								}																
							}
						}						
					}
					#If homeworld owner exists, swear Vengance!
					if = {
						limit = {
							exists = event_target:STH_system_denial_mechanics_homeworld_owner
						}
						event_target:STH_system_denial_mechanics_homeworld_owner = {
							species = {
								save_event_target_as = STH_system_denial_mechanics_homeworld_owner_species
							}
						}						
						owner = {
							country_event = {
								id = STH_system_denial_mechanics.102 days = 14
							}
						}
					}
					#Individual species homeworld checks for pop militarization and depression - due to no reverse homeworld scope lookup ie.  (planet) homeworld -> species (can assign new homeworld to a species though)
					#Alpha Home systems
					if = {
						limit = {
							has_star_flag = antedian_homeworld 
							any_galaxy_species = {								
								is_species_class = ATE
							}
						}
						random_galaxy_species = {
							limit = {
								is_species_class = ATE
							}
							save_event_target_as = STH_system_denial_mechanics_devastated_species
						}
					}
					else_if = {
						limit = {
							has_star_flag = antican_homeworld 
							any_galaxy_species = {								
								is_species_class = ANT
							}
						}
						random_galaxy_species = {
							limit = {
								is_species_class = ANT
							}
							save_event_target_as = STH_system_denial_mechanics_devastated_species
						}
					}
					else_if = {
						limit = {
							has_star_flag = bajoran_homeworld 
							any_galaxy_species = {								
								is_species_class = BAJ
							}
						}
						random_galaxy_species = {
							limit = {
								is_species_class = BAJ
							}
							save_event_target_as = STH_system_denial_mechanics_devastated_species
						}
					}
					else_if = {
						limit = {
							has_star_flag = betazed_homeworld 
							any_galaxy_species = {								
								is_species_class = BET 
							}
						}
						random_galaxy_species = {
							limit = {
								is_species_class = BET 
							}
							save_event_target_as = STH_system_denial_mechanics_devastated_species
						}
					}
					else_if = {
						limit = {
							has_star_flag = breen_homeworld 
							any_galaxy_species = {								
								is_species_class = BRE 
							}
						}
						random_galaxy_species = {
							limit = {
								is_species_class = BRE 
							}
							save_event_target_as = STH_system_denial_mechanics_devastated_species
						}
					}
					else_if = {
						limit = {
							has_star_flag = bynar_homeworld 
							any_galaxy_species = {								
								is_species_class = BYN 
							}
						}
						random_galaxy_species = {
							limit = {
								is_species_class = BYN 
							}
							save_event_target_as = STH_system_denial_mechanics_devastated_species
						}
					}
					else_if = {
						limit = {
							has_star_flag = caitian_homeworld 
							any_galaxy_species = {								
								is_species_class = CAT 
							}
						}
						random_galaxy_species = {
							limit = {
								is_species_class = CAT 
							}
							save_event_target_as = STH_system_denial_mechanics_devastated_species
						}
					}
					else_if = {
						limit = {
							has_star_flag = cardassian_homeworld
							any_galaxy_species = {								
								is_species_class = CAR
							}
						}
						random_galaxy_species = {
							limit = {
								is_species_class = CAR
							}
							save_event_target_as = STH_system_denial_mechanics_devastated_species
						}
					}
					else_if = {
						limit = {
							has_star_flag = deltan_homeworld 
							any_galaxy_species = {								
								is_species_class = DEL
							}
						}
						random_galaxy_species = {
							limit = {
								is_species_class = DEL
							}
							save_event_target_as = STH_system_denial_mechanics_devastated_species
						}
					}
					else_if = {
						limit = {
							has_star_flag = denobulan_homeworld 
							any_galaxy_species = {								
								is_species_class = DEN
							}
						}
						random_galaxy_species = {
							limit = {
								is_species_class = DEN
							}
							save_event_target_as = STH_system_denial_mechanics_devastated_species
						}
					}
					else_if = {
						limit = {
							has_star_flag = ferengi_homeworld 
							any_galaxy_species = {								
								is_species_class = FER 
							}
						}
						random_galaxy_species = {
							limit = {
								is_species_class = FER 
							}
							save_event_target_as = STH_system_denial_mechanics_devastated_species
						}
					}
					else_if = {
						limit = {
							has_star_flag = first_federation_homeworld 
							any_galaxy_species = {								
								is_species_class = FES
							}
						}
						random_galaxy_species = {
							limit = {
								is_species_class = FES
							}
							save_event_target_as = STH_system_denial_mechanics_devastated_species
						}
					}
					else_if = {
						limit = {
							has_star_flag = human_homeworld 
							any_galaxy_species = {								
								is_species_class = FED 
							}
						}
						random_galaxy_species = {
							limit = {
								is_species_class = FED 
							}
							save_event_target_as = STH_system_denial_mechanics_devastated_species
						}
					}
					else_if = {
						limit = {
							has_star_flag = lissepian_homeworld 
							any_galaxy_species = {								
								is_species_class = LIS
							}
						}
						random_galaxy_species = {
							limit = {
								is_species_class = LIS
							}
							save_event_target_as = STH_system_denial_mechanics_devastated_species
						}
					}
					else_if = {
						limit = {
							has_star_flag = lurian_homeworld 
							any_galaxy_species = {								
								is_species_class = LUR
							}
						}
						random_galaxy_species = {
							limit = {
								is_species_class = LUR
							}
							save_event_target_as = STH_system_denial_mechanics_devastated_species
						}
					}
					else_if = {
						limit = {
							has_star_flag = north_star_system 
							any_galaxy_species = {								
								is_species_class = SKA
							}
						}
						random_galaxy_species = {
							limit = {
								is_species_class = SKA
							}
							save_event_target_as = STH_system_denial_mechanics_devastated_species
						}
					}
					else_if = {
						limit = {
							has_star_flag = saurian_homeworld 
							any_galaxy_species = {								
								is_species_class = SAU
							}
						}
						random_galaxy_species = {
							limit = {
								is_species_class = SAU
							}
							save_event_target_as = STH_system_denial_mechanics_devastated_species
						}
					}
					else_if = {
						limit = {
							has_star_flag = selay_homeworld 
							any_galaxy_species = {								
								is_species_class = SEL 
							}
						}
						random_galaxy_species = {
							limit = {
								is_species_class = SEL 
							}
							save_event_target_as = STH_system_denial_mechanics_devastated_species
						}
					}
					else_if = {
						limit = {
							has_star_flag = sheliak_homeworld 
							any_galaxy_species = {								
								is_species_class = SHE
							}
						}
						random_galaxy_species = {
							limit = {
								is_species_class = SHE
							}
							save_event_target_as = STH_system_denial_mechanics_devastated_species
						}
					}
					else_if = {
						limit = {
							has_star_flag = talarian_republic 
							any_galaxy_species = {								
								is_species_class = TLR
							}
						}
						random_galaxy_species = {
							limit = {
								is_species_class = TLR
							}
							save_event_target_as = STH_system_denial_mechanics_devastated_species
						}
					}
					else_if = {
						limit = {
							has_star_flag = tamarian_unity 
							any_galaxy_species = {								
								is_species_class = TAM
							}
						}
						random_galaxy_species = {
							limit = {
								is_species_class = TAM
							}
							save_event_target_as = STH_system_denial_mechanics_devastated_species
						}
					}
					else_if = {
						limit = {
							has_star_flag = tellarian_homeworld 
							any_galaxy_species = {								
								is_species_class = TEL
							}
						}
						random_galaxy_species = {
							limit = {
								is_species_class = TEL
							}
							save_event_target_as = STH_system_denial_mechanics_devastated_species
						}
					}
					else_if = {
						limit = {
							has_star_flag = tholian_homeworld 
							any_galaxy_species = {								
								is_species_class = THO
							}
						}
						random_galaxy_species = {
							limit = {
								is_species_class = THO
							}
							save_event_target_as = STH_system_denial_mechanics_devastated_species
						}
					}
					else_if = {
						limit = {
							has_star_flag = trill_homeworld 
							any_galaxy_species = {								
								is_species_class = TRI
							}
						}
						random_galaxy_species = {
							limit = {
								is_species_class = TRI
							}
							save_event_target_as = STH_system_denial_mechanics_devastated_species
						}
					}
					else_if = {
						limit = {
							has_star_flag = tzenkethi_homeworld 
							any_galaxy_species = {								
								is_species_class = TZE
							}
						}
						random_galaxy_species = {
							limit = {
								is_species_class = TZE
							}
							save_event_target_as = STH_system_denial_mechanics_devastated_species
						}
					}
					else_if = {
						limit = {
							has_star_flag = valerian_homeworld 
							any_galaxy_species = {								
								is_species_class = VLR
							}
						}
						random_galaxy_species = {
							limit = {
								is_species_class = VLR
							}
							save_event_target_as = STH_system_denial_mechanics_devastated_species
						}
					}
					else_if = {
						limit = {
							has_star_flag = xepolite_homeworld 
							any_galaxy_species = {								
								is_species_class = XEP
							}
						}
						random_galaxy_species = {
							limit = {
								is_species_class = XEP
							}
							save_event_target_as = STH_system_denial_mechanics_devastated_species
						}
					}
					else_if = {
						limit = {
							has_star_flag = xindus_system 
							any_galaxy_species = {								
								is_species_class = XINMAM 
							}
						}
						random_galaxy_species = {
							limit = {
								is_species_class = XINMAM 
							}
							save_event_target_as = STH_system_denial_mechanics_devastated_species
						}
					}
					else_if = {
						limit = {
							has_star_flag = yridian_homeworld 
							any_galaxy_species = {								
								is_species_class = YRI
							}
						}
						random_galaxy_species = {
							limit = {
								is_species_class = YRI
							}
							save_event_target_as = STH_system_denial_mechanics_devastated_species
						}
					}
					#Beta species home systems
					else_if = {
						limit = {
							has_star_flag = acamarian_sovereignty 
							any_galaxy_species = {								
								is_species_class = ACA
							}
						}
						random_galaxy_species = {
							limit = {
								is_species_class = ACA
							}
							save_event_target_as = STH_system_denial_mechanics_devastated_species
						}
					}
					else_if = {
						limit = {
							has_star_flag = andorian_homeworld 
							any_galaxy_species = {								
								is_species_class = ADR
							}
						}
						random_galaxy_species = {
							limit = {
								is_species_class = ADR
							}
							save_event_target_as = STH_system_denial_mechanics_devastated_species
						}
					}
					else_if = {
						limit = {
							has_star_flag = benzarian_homeworld 
							any_galaxy_species = {								
								is_species_class = BEN 
							}
						}
						random_galaxy_species = {
							limit = {
								is_species_class = BEN 
							}
							save_event_target_as = STH_system_denial_mechanics_devastated_species
						}
					}
					else_if = {
						limit = {
							has_star_flag = bolian_homeworld 
							any_galaxy_species = {								
								is_species_class = BOL 
							}
						}
						random_galaxy_species = {
							limit = {
								is_species_class = BOL 
							}
							save_event_target_as = STH_system_denial_mechanics_devastated_species
						}
					}
					else_if = {
						limit = {
							has_star_flag = cheronite_homeworld 
							any_galaxy_species = {								
								is_species_class = CHE 
							}
						}
						random_galaxy_species = {
							limit = {
								is_species_class = CHE 
							}
							save_event_target_as = STH_system_denial_mechanics_devastated_species
						}
					}
					else_if = {
						limit = {
							has_star_flag = flaxian_homeworld 
							any_galaxy_species = {								
								is_species_class = FLA
							}
						}
						random_galaxy_species = {
							limit = {
								is_species_class = FLA
							}
							save_event_target_as = STH_system_denial_mechanics_devastated_species
						}
					}
					else_if = {
						limit = {
							has_star_flag = garidian_homeworld 
							any_galaxy_species = {								
								is_species_class = GAR
							}
						}
						random_galaxy_species = {
							limit = {
								is_species_class = GAR
							}
							save_event_target_as = STH_system_denial_mechanics_devastated_species
						}
					}
					else_if = {
						limit = {
							has_star_flag = gorn_homeworld 
							any_galaxy_species = {								
								is_species_class = GOR
							}
						}
						random_galaxy_species = {
							limit = {
								is_species_class = GOR
							}
							save_event_target_as = STH_system_denial_mechanics_devastated_species
						}
					}
					else_if = {
						limit = {
							has_star_flag = husnock_homeworld 
							any_galaxy_species = {								
								is_species_class = HUS
							}
						}
						random_galaxy_species = {
							limit = {
								is_species_class = HUS
							}
							save_event_target_as = STH_system_denial_mechanics_devastated_species
						}
					}
					else_if = {
						limit = {
							has_star_flag = klingon_homeworld 
							any_galaxy_species = {								
								is_species_class = KDF
							}
						}
						random_galaxy_species = {
							limit = {
								is_species_class = KDF
							}
							save_event_target_as = STH_system_denial_mechanics_devastated_species
						}
					}
					else_if = {
						limit = {
							has_star_flag = krios_homeworld 
							any_galaxy_species = {								
								is_species_class = KRI
							}
						}
						random_galaxy_species = {
							limit = {
								is_species_class = KRI
							}
							save_event_target_as = STH_system_denial_mechanics_devastated_species
						}
					}
					else_if = {
						limit = {
							has_star_flag = metron_homeworld 
							any_galaxy_species = {								
								is_species_class = MET
							}
						}
						random_galaxy_species = {
							limit = {
								is_species_class = MET
							}
							save_event_target_as = STH_system_denial_mechanics_devastated_species
						}
					}
					else_if = {
						limit = {
							has_star_flag = nausicaan_homeworld 
							any_galaxy_species = {								
								is_species_class = NAU
							}
						}
						random_galaxy_species = {
							limit = {
								is_species_class = NAU
							}
							save_event_target_as = STH_system_denial_mechanics_devastated_species
						}
					}
					else_if = {
						limit = {
							has_star_flag = orion_free_states 
							any_galaxy_species = {								
								is_species_class = ORI
							}
						}
						random_galaxy_species = {
							limit = {
								is_species_class = ORI
							}
							save_event_target_as = STH_system_denial_mechanics_devastated_species
						}
					}
					else_if = {
						limit = {
							has_star_flag = rigellian_consortium 
							any_galaxy_species = {								
								is_species_class = RIG
							}
						}
						random_galaxy_species = {
							limit = {
								is_species_class = RIG
							}
							save_event_target_as = STH_system_denial_mechanics_devastated_species
						}
					}
					else_if = {
						limit = {
							has_star_flag = romulan_homeworld 
							any_galaxy_species = {								
								is_species_class = ROM 
							}
						}
						random_galaxy_species = {
							limit = {
								is_species_class = ROM 
							}
							save_event_target_as = STH_system_denial_mechanics_devastated_species
						}
					}
					else_if = {
						limit = {
							has_star_flag = sona_homeworld 
							any_galaxy_species = {								
								is_species_class = SON 
							}
						}
						random_galaxy_species = {
							limit = {
								is_species_class = SON 
							}
							save_event_target_as = STH_system_denial_mechanics_devastated_species
						}
					}
					else_if = {
						limit = {
							has_star_flag = suliban_homeworld 
							any_galaxy_species = {								
								is_species_class = SUL
							}
						}
						random_galaxy_species = {
							limit = {
								is_species_class = SUL
							}
							save_event_target_as = STH_system_denial_mechanics_devastated_species
						}
					}
					else_if = {
						limit = {
							has_star_flag = valt_homeworld 
							any_galaxy_species = {								
								is_species_class = VAL
							}
						}
						random_galaxy_species = {
							limit = {
								is_species_class = VAL
							}
							save_event_target_as = STH_system_denial_mechanics_devastated_species
						}
					}
					else_if = {
						limit = {
							has_star_flag = vulcan_homeworld 
							any_galaxy_species = {								
								is_species_class = VUL
							}
						}
						random_galaxy_species = {
							limit = {
								is_species_class = VUL
							}
							save_event_target_as = STH_system_denial_mechanics_devastated_species
						}
					}
					else_if = {
						limit = {
							has_star_flag = zakdorn_homeworld 
							any_galaxy_species = {								
								is_species_class = ZAK
							}
						}
						random_galaxy_species = {
							limit = {
								is_species_class = ZAK
							}
							save_event_target_as = STH_system_denial_mechanics_devastated_species
						}
					}
					#Delta species home systems
					else_if = {
						limit = {
							has_star_flag = banean_homeworld 
							any_galaxy_species = {								
								is_species_class = BAN
							}
						}
						random_galaxy_species = {
							limit = {
								is_species_class = BAN
							}
							save_event_target_as = STH_system_denial_mechanics_devastated_species
						}
					}					
					else_if = {
						limit = {
							has_star_flag = brunali_homeworld 
							any_galaxy_species = {								
								is_species_class = BRU
							}
						}
						random_galaxy_species = {
							limit = {
								is_species_class = BRU
							}
							save_event_target_as = STH_system_denial_mechanics_devastated_species
						}
					}					
					else_if = {
						limit = {
							has_star_flag = devorian_homeworld 
							any_galaxy_species = {								
								is_species_class = DEV 
							}
						}
						random_galaxy_species = {
							limit = {
								is_species_class = DEV 
							}
							save_event_target_as = STH_system_denial_mechanics_devastated_species
						}
					}
					else_if = {
						limit = {
							has_star_flag = fen_domar_homeworld 
							any_galaxy_species = {								
								is_species_class = FEN
							}
						}
						random_galaxy_species = {
							limit = {
								is_species_class = FEN
							}
							save_event_target_as = STH_system_denial_mechanics_devastated_species
						}
					}
					else_if = {
						limit = {
							has_star_flag = haakonian_homeworld 
							any_galaxy_species = {								
								is_species_class = HAA
							}
						}
						random_galaxy_species = {
							limit = {
								is_species_class = HAA
							}
							save_event_target_as = STH_system_denial_mechanics_devastated_species
						}
					}
					else_if = {
						limit = {
							has_star_flag = hirogen_homeworld 
							any_galaxy_species = {								
								is_species_class = HIR
							}
						}
						random_galaxy_species = {
							limit = {
								is_species_class = HIR
							}
							save_event_target_as = STH_system_denial_mechanics_devastated_species
						}
					}
					else_if = {
						limit = {
							has_star_flag = kazon_homeworld 
							any_galaxy_species = {								
								is_species_class = KAZ
							}
						}
						random_galaxy_species = {
							limit = {
								is_species_class = KAZ
							}
							save_event_target_as = STH_system_denial_mechanics_devastated_species
						}
					}
					else_if = {
						limit = {
							has_star_flag = kobali_homeworld 
							any_galaxy_species = {								
								is_species_class = KOB
							}
						}
						random_galaxy_species = {
							limit = {
								is_species_class = KOB
							}
							save_event_target_as = STH_system_denial_mechanics_devastated_species
						}
					}
					else_if = {
						limit = {
							has_star_flag = kraylor_homeworld 
							any_galaxy_species = {								
								is_species_class = KRA
							}
						}
						random_galaxy_species = {
							limit = {
								is_species_class = KRA
							}
							save_event_target_as = STH_system_denial_mechanics_devastated_species
						}
					}
					else_if = {
						limit = {
							has_star_flag = krenim_homeworld 
							any_galaxy_species = {								
								is_species_class = KRE 
							}
						}
						random_galaxy_species = {
							limit = {
								is_species_class = KRE 
							}
							save_event_target_as = STH_system_denial_mechanics_devastated_species
						}
					}
					else_if = {
						limit = {
							has_star_flag = lyridian_homeworld 
							any_galaxy_species = {								
								is_species_class = LYR
							}
						}
						random_galaxy_species = {
							limit = {
								is_species_class = LYR
							}
							save_event_target_as = STH_system_denial_mechanics_devastated_species
						}
					}
					else_if = {
						limit = {
							has_star_flag = norcadian_homeworld 
							any_galaxy_species = {								
								is_species_class = NRC
							}
						}
						random_galaxy_species = {
							limit = {
								is_species_class = NRC
							}
							save_event_target_as = STH_system_denial_mechanics_devastated_species
						}
					}					
					else_if = {
						limit = {
							has_star_flag = talaxian_homeworld  
							any_galaxy_species = {								
								is_species_class = TAL
							}
						}
						random_galaxy_species = {
							limit = {
								is_species_class = TAL
							}
							save_event_target_as = STH_system_denial_mechanics_devastated_species
						}
					}
					else_if = {
						limit = {
							has_star_flag = trabe_homeworld  
							any_galaxy_species = {								
								is_species_class = TRA
							}
						}
						random_galaxy_species = {
							limit = {
								is_species_class = TRA
							}
							save_event_target_as = STH_system_denial_mechanics_devastated_species
						}
					}
					else_if = {
						limit = {
							has_star_flag = turei_homeworld  
							any_galaxy_species = {								
								is_species_class = TUR
							}
						}
						random_galaxy_species = {
							limit = {
								is_species_class = TUR
							}
							save_event_target_as = STH_system_denial_mechanics_devastated_species
						}
					}
					else_if = {
						limit = {
							has_star_flag = vaadwaur_homeworld  
							any_galaxy_species = {								
								is_species_class = VAA 
							}
						}
						random_galaxy_species = {
							limit = {
								is_species_class = VAA 
							}
							save_event_target_as = STH_system_denial_mechanics_devastated_species
						}
					}
					else_if = {
						limit = {
							has_star_flag = Viaian_homeworld  
							any_galaxy_species = {								
								is_species_class = VID
							}
						}
						random_galaxy_species = {
							limit = {
								is_species_class = VID
							}
							save_event_target_as = STH_system_denial_mechanics_devastated_species
						}
					}
					else_if = {
						limit = {
							has_star_flag = voth_homeworld  
							any_galaxy_species = {								
								is_species_class = VOT
							}
						}
						random_galaxy_species = {
							limit = {
								is_species_class = VOT
							}
							save_event_target_as = STH_system_denial_mechanics_devastated_species
						}
					}
					else_if = {
						limit = {
							has_star_flag = zahl_homeworld  
							any_galaxy_species = {								
								is_species_class = ZAH
							}
						}
						random_galaxy_species = {
							limit = {
								is_species_class = ZAH
							}
							save_event_target_as = STH_system_denial_mechanics_devastated_species
						}
					}
					#Gamma species home systems
					else_if = {
						limit = {
							has_star_flag = argrathian_homeworld  
							any_galaxy_species = {								
								is_species_class = ARG 
							}
						}
						random_galaxy_species = {
							limit = {
								is_species_class = ARG 
							}
							save_event_target_as = STH_system_denial_mechanics_devastated_species
						}
					}
					else_if = {
						limit = {
							has_star_flag = founders_homeworld  
							any_galaxy_species = {								
								is_species_class = DOM 
							}
						}
						random_galaxy_species = {
							limit = {
								is_species_class = DOM 
							}
							save_event_target_as = STH_system_denial_mechanics_devastated_species
						}
					}
					else_if = {
						limit = {
							has_star_flag = dosi_homeworld  
							any_galaxy_species = {								
								is_species_class = DOS 
							}
						}
						random_galaxy_species = {
							limit = {
								is_species_class = DOS 
							}
							save_event_target_as = STH_system_denial_mechanics_devastated_species
						}
					}
					else_if = {
						limit = {
							has_star_flag = hurq_homeworld  
							any_galaxy_species = {								
								is_species_class = HUR
							}
						}
						random_galaxy_species = {
							limit = {
								is_species_class = HUR
							}
							save_event_target_as = STH_system_denial_mechanics_devastated_species
						}
					}
					else_if = {
						limit = {
							has_star_flag = karemma_homeworld  
							any_galaxy_species = {								
								is_species_class = KAR 
							}
						}
						random_galaxy_species = {
							limit = {
								is_species_class = KAR 
							}
							save_event_target_as = STH_system_denial_mechanics_devastated_species
						}
					}
					else_if = {
						limit = {
							has_star_flag = nyberrite_homeworld  
							any_galaxy_species = {								
								is_species_class = NYB 
							}
						}
						random_galaxy_species = {
							limit = {
								is_species_class = NYB 
							}
							save_event_target_as = STH_system_denial_mechanics_devastated_species
						}
					}
					else_if = {
						limit = {
							has_star_flag = oschean_homeworld  
							any_galaxy_species = {								
								is_species_class = OSC 
							}
						}
						random_galaxy_species = {
							limit = {
								is_species_class = OSC 
							}
							save_event_target_as = STH_system_denial_mechanics_devastated_species
						}
					}
					else_if = {
						limit = {
							has_star_flag = rakharian_homeworld  
							any_galaxy_species = {								
								is_species_class = RAK
							}
						}
						random_galaxy_species = {
							limit = {
								is_species_class = RAK
							}
							save_event_target_as = STH_system_denial_mechanics_devastated_species
						}
					}
					else_if = {
						limit = {
							has_star_flag = skrreean_homeworld  
							any_galaxy_species = {								
								is_species_class = SKR
							}
						}
						random_galaxy_species = {
							limit = {
								is_species_class = SKR
							}
							save_event_target_as = STH_system_denial_mechanics_devastated_species
						}
					}
					else_if = {
						limit = {
							has_star_flag = trogoron_homeworld  
							any_galaxy_species = {								
								is_species_class = TRO 
							}
						}
						random_galaxy_species = {
							limit = {
								is_species_class = TRO 
							}
							save_event_target_as = STH_system_denial_mechanics_devastated_species
						}
					}
					else_if = {
						limit = {
							has_star_flag = wadi_homeworld  
							any_galaxy_species = {								
								is_species_class = WAD
							}
						}
						random_galaxy_species = {
							limit = {
								is_species_class = WAD
							}
							save_event_target_as = STH_system_denial_mechanics_devastated_species
						}
					}
					else_if = {
						limit = {
							has_star_flag = yaderan_homeworld  
							any_galaxy_species = {								
								is_species_class = YAD 
							}
						}
						random_galaxy_species = {
							limit = {
								is_species_class = YAD 
							}
							save_event_target_as = STH_system_denial_mechanics_devastated_species
						}
					}					
					if = {
						limit = {
							exists = event_target:STH_system_denial_mechanics_devastated_species
						}
						owner = {
							country_event = {
								id = STH_system_denial_mechanics.103 days = 31
							}
						}
					}															
				}
				#SYTEM DESTRUCTION								
				every_fleet_in_system = {
					destroy_fleet = this
				}
				every_system_megastructure = {
					delete_megastructure = this 
				}
				every_system_ambient_object = {
					destroy_ambient_object = this
				}
				every_system_planet = {
					limit = {
						is_colony = yes
					}
					destroy_colony = yes
				}
				every_system_planet = {					
					remove_planet = yes										
				}				
				set_asteroid_belt = {
					radius = 0
				}
				#set_name = STH_system_denial_mechanics.supernova_star	
				set_star_flag = STH_system_denial_mechanics_destroyed_system		
			}
		}		
	}
	
}

#Destroyed subspace in a system with Omega - destroys hyperspace lanes
country_event = {
	id = STH_system_denial_mechanics.101
	desc = STH_system_denial_mechanics.101.desc
	title = STH_system_denial_mechanics.101.name
	picture = sth_GFX_evt_omegaUnstable
	show_sound = event_super_explosion
	is_triggered_only = yes
	location = event_target:STH_system_denial_mechanics_omega_star
	trigger = {	}	
	option = {
		name = STH_system_denial_mechanics.101.a
		add_monthly_resource_mult = { resource = physics_research value = 120 }
		save_event_target_as = STH_system_denial_mechanics_isolationist_country
		if = {
			limit = {
				NOT = {has_country_flag = STH_system_denial_mechanics_determined_isolationist}
			}
			set_country_flag = STH_system_denial_mechanics_determined_isolationist
			country_event = {
				id = STH_system_denial_mechanics.107 days = 1
			}
		}
		event_target:STH_system_denial_mechanics_omega_star = {
			solar_system = {
				save_event_target_as = STH_system_denial_mechanics_omega_system
				#Neighbor check
				if = {
					limit = {
						any_neighbor_system = {
							ignore_hyperlanes = no
							exists = owner							
							owner = {
								NOT = { is_same_value = event_target:STH_system_denial_mechanics_isolationist_country  }
							}
						}						
						any_system_planet = {
							NOR = {
								has_owner = yes 
								has_planet_flag = homeworld
							}
						}													
					}					
					owner = {
						country_event = {
							id = STH_system_denial_mechanics.108 days = 3
						}
					}					
				}							
				#Former Colony Check
				if = {
					limit = {
						any_system_planet = {
							has_owner = yes
							original_owner = no
							NOT = { has_planet_flag = homeworld	}
						}												
					}
					random_system_planet = {
						limit = {
							has_owner = yes
							original_owner = no	
							NOT = { has_planet_flag = homeworld	}
						}
						save_event_target_as = STH_system_denial_mechanics_isolated_colony						 
					}					
					every_country = {
						save_event_target_as = STH_system_denial_mechanics_potential_colony_owner	
						event_target:STH_system_denial_mechanics_isolated_colony = {
							if = {
								limit ={
									is_original_owner = event_target:STH_system_denial_mechanics_potential_colony_owner
								}
								event_target:STH_system_denial_mechanics_potential_colony_owner = {
									save_event_target_as = STH_system_denial_mechanics_colony_owner
								}																
							}
						}						
					}
					#If colony owner exists, express displeasure
					if = {
						limit = {
							exists = event_target:STH_system_denial_mechanics_colony_owner
						}
						owner = {
							country_event = {
								id = STH_system_denial_mechanics.109 days = 7
							}
						}
					}
				}
				#homeworld checks and events
				if = {
					limit = {
						any_system_planet = {
							has_planet_flag = homeworld							
						}												
					}
					random_system_planet = {
						limit = {
							has_planet_flag = homeworld	
						}
						save_event_target_as = STH_system_denial_mechanics_isolated_homeworld						 
					}
					event_target:STH_system_denial_mechanics_isolationist_country = {
						set_country_flag = STH_system_denial_mechanics_isolated_home_system
					}
					every_country = {
						save_event_target_as = STH_system_denial_mechanics_potential_homeworld_owner	
						event_target:STH_system_denial_mechanics_isolated_homeworld = 	{
							if = {
								limit ={
									is_original_owner = event_target:STH_system_denial_mechanics_potential_homeworld_owner
								}
								event_target:STH_system_denial_mechanics_potential_homeworld_owner = {
									save_event_target_as = STH_system_denial_mechanics_homeworld_owner
								}																
							}
						}						
					}
					#If homeworld owner exists, swear to Return!
					if = {
						limit = {
							exists = event_target:STH_system_denial_mechanics_homeworld_owner
						}
						event_target:STH_system_denial_mechanics_homeworld_owner = {
							species = {
								save_event_target_as = STH_system_denial_mechanics_homeworld_owner_species
							}
						}						
						owner = {
							country_event = {
								id = STH_system_denial_mechanics.110 days = 14
							}
						}
					}
					#Individual species homeworld checks for pop militarization and depression - due to no reverse homeworld scope lookup ie.  (planet) homeworld -> species (can assign new homeworld to a species though)
					#Alpha Home systems
					if = {
						limit = {
							has_star_flag = antedian_homeworld 
							any_galaxy_species = {								
								is_species_class = ATE
							}
						}
						random_galaxy_species = {
							limit = {
								is_species_class = ATE
							}
							save_event_target_as = STH_system_denial_mechanics_devastated_species
						}
					}
					else_if = {
						limit = {
							has_star_flag = antican_homeworld 
							any_galaxy_species = {								
								is_species_class = ANT
							}
						}
						random_galaxy_species = {
							limit = {
								is_species_class = ANT
							}
							save_event_target_as = STH_system_denial_mechanics_devastated_species
						}
					}
					else_if = {
						limit = {
							has_star_flag = bajoran_homeworld 
							any_galaxy_species = {								
								is_species_class = BAJ
							}
						}
						random_galaxy_species = {
							limit = {
								is_species_class = BAJ
							}
							save_event_target_as = STH_system_denial_mechanics_devastated_species
						}
					}
					else_if = {
						limit = {
							has_star_flag = betazed_homeworld 
							any_galaxy_species = {								
								is_species_class = BET 
							}
						}
						random_galaxy_species = {
							limit = {
								is_species_class = BET 
							}
							save_event_target_as = STH_system_denial_mechanics_devastated_species
						}
					}
					else_if = {
						limit = {
							has_star_flag = breen_homeworld 
							any_galaxy_species = {								
								is_species_class = BRE 
							}
						}
						random_galaxy_species = {
							limit = {
								is_species_class = BRE 
							}
							save_event_target_as = STH_system_denial_mechanics_devastated_species
						}
					}
					else_if = {
						limit = {
							has_star_flag = bynar_homeworld 
							any_galaxy_species = {								
								is_species_class = BYN 
							}
						}
						random_galaxy_species = {
							limit = {
								is_species_class = BYN 
							}
							save_event_target_as = STH_system_denial_mechanics_devastated_species
						}
					}
					else_if = {
						limit = {
							has_star_flag = caitian_homeworld 
							any_galaxy_species = {								
								is_species_class = CAT 
							}
						}
						random_galaxy_species = {
							limit = {
								is_species_class = CAT 
							}
							save_event_target_as = STH_system_denial_mechanics_devastated_species
						}
					}
					else_if = {
						limit = {
							has_star_flag = cardassian_homeworld
							any_galaxy_species = {								
								is_species_class = CAR
							}
						}
						random_galaxy_species = {
							limit = {
								is_species_class = CAR
							}
							save_event_target_as = STH_system_denial_mechanics_devastated_species
						}
					}
					else_if = {
						limit = {
							has_star_flag = deltan_homeworld 
							any_galaxy_species = {								
								is_species_class = DEL
							}
						}
						random_galaxy_species = {
							limit = {
								is_species_class = DEL
							}
							save_event_target_as = STH_system_denial_mechanics_devastated_species
						}
					}
					else_if = {
						limit = {
							has_star_flag = denobulan_homeworld 
							any_galaxy_species = {								
								is_species_class = DEN
							}
						}
						random_galaxy_species = {
							limit = {
								is_species_class = DEN
							}
							save_event_target_as = STH_system_denial_mechanics_devastated_species
						}
					}
					else_if = {
						limit = {
							has_star_flag = ferengi_homeworld 
							any_galaxy_species = {								
								is_species_class = FER 
							}
						}
						random_galaxy_species = {
							limit = {
								is_species_class = FER 
							}
							save_event_target_as = STH_system_denial_mechanics_devastated_species
						}
					}
					else_if = {
						limit = {
							has_star_flag = first_federation_homeworld 
							any_galaxy_species = {								
								is_species_class = FES
							}
						}
						random_galaxy_species = {
							limit = {
								is_species_class = FES
							}
							save_event_target_as = STH_system_denial_mechanics_devastated_species
						}
					}
					else_if = {
						limit = {
							has_star_flag = human_homeworld 
							any_galaxy_species = {								
								is_species_class = FED 
							}
						}
						random_galaxy_species = {
							limit = {
								is_species_class = FED 
							}
							save_event_target_as = STH_system_denial_mechanics_devastated_species
						}
					}
					else_if = {
						limit = {
							has_star_flag = lissepian_homeworld 
							any_galaxy_species = {								
								is_species_class = LIS
							}
						}
						random_galaxy_species = {
							limit = {
								is_species_class = LIS
							}
							save_event_target_as = STH_system_denial_mechanics_devastated_species
						}
					}
					else_if = {
						limit = {
							has_star_flag = lurian_homeworld 
							any_galaxy_species = {								
								is_species_class = LUR
							}
						}
						random_galaxy_species = {
							limit = {
								is_species_class = LUR
							}
							save_event_target_as = STH_system_denial_mechanics_devastated_species
						}
					}
					else_if = {
						limit = {
							has_star_flag = north_star_system 
							any_galaxy_species = {								
								is_species_class = SKA
							}
						}
						random_galaxy_species = {
							limit = {
								is_species_class = SKA
							}
							save_event_target_as = STH_system_denial_mechanics_devastated_species
						}
					}
					else_if = {
						limit = {
							has_star_flag = saurian_homeworld 
							any_galaxy_species = {								
								is_species_class = SAU
							}
						}
						random_galaxy_species = {
							limit = {
								is_species_class = SAU
							}
							save_event_target_as = STH_system_denial_mechanics_devastated_species
						}
					}
					else_if = {
						limit = {
							has_star_flag = selay_homeworld 
							any_galaxy_species = {								
								is_species_class = SEL 
							}
						}
						random_galaxy_species = {
							limit = {
								is_species_class = SEL 
							}
							save_event_target_as = STH_system_denial_mechanics_devastated_species
						}
					}
					else_if = {
						limit = {
							has_star_flag = sheliak_homeworld 
							any_galaxy_species = {								
								is_species_class = SHE
							}
						}
						random_galaxy_species = {
							limit = {
								is_species_class = SHE
							}
							save_event_target_as = STH_system_denial_mechanics_devastated_species
						}
					}
					else_if = {
						limit = {
							has_star_flag = talarian_republic 
							any_galaxy_species = {								
								is_species_class = TLR
							}
						}
						random_galaxy_species = {
							limit = {
								is_species_class = TLR
							}
							save_event_target_as = STH_system_denial_mechanics_devastated_species
						}
					}
					else_if = {
						limit = {
							has_star_flag = tamarian_unity 
							any_galaxy_species = {								
								is_species_class = TAM
							}
						}
						random_galaxy_species = {
							limit = {
								is_species_class = TAM
							}
							save_event_target_as = STH_system_denial_mechanics_devastated_species
						}
					}
					else_if = {
						limit = {
							has_star_flag = tellarian_homeworld 
							any_galaxy_species = {								
								is_species_class = TEL
							}
						}
						random_galaxy_species = {
							limit = {
								is_species_class = TEL
							}
							save_event_target_as = STH_system_denial_mechanics_devastated_species
						}
					}
					else_if = {
						limit = {
							has_star_flag = tholian_homeworld 
							any_galaxy_species = {								
								is_species_class = THO
							}
						}
						random_galaxy_species = {
							limit = {
								is_species_class = THO
							}
							save_event_target_as = STH_system_denial_mechanics_devastated_species
						}
					}
					else_if = {
						limit = {
							has_star_flag = trill_homeworld 
							any_galaxy_species = {								
								is_species_class = TRI
							}
						}
						random_galaxy_species = {
							limit = {
								is_species_class = TRI
							}
							save_event_target_as = STH_system_denial_mechanics_devastated_species
						}
					}
					else_if = {
						limit = {
							has_star_flag = tzenkethi_homeworld 
							any_galaxy_species = {								
								is_species_class = TZE
							}
						}
						random_galaxy_species = {
							limit = {
								is_species_class = TZE
							}
							save_event_target_as = STH_system_denial_mechanics_devastated_species
						}
					}
					else_if = {
						limit = {
							has_star_flag = valerian_homeworld 
							any_galaxy_species = {								
								is_species_class = VLR
							}
						}
						random_galaxy_species = {
							limit = {
								is_species_class = VLR
							}
							save_event_target_as = STH_system_denial_mechanics_devastated_species
						}
					}
					else_if = {
						limit = {
							has_star_flag = xepolite_homeworld 
							any_galaxy_species = {								
								is_species_class = XEP
							}
						}
						random_galaxy_species = {
							limit = {
								is_species_class = XEP
							}
							save_event_target_as = STH_system_denial_mechanics_devastated_species
						}
					}
					else_if = {
						limit = {
							has_star_flag = xindus_system 
							any_galaxy_species = {								
								is_species_class = XINMAM 
							}
						}
						random_galaxy_species = {
							limit = {
								is_species_class = XINMAM 
							}
							save_event_target_as = STH_system_denial_mechanics_devastated_species
						}
					}
					else_if = {
						limit = {
							has_star_flag = yridian_homeworld 
							any_galaxy_species = {								
								is_species_class = YRI
							}
						}
						random_galaxy_species = {
							limit = {
								is_species_class = YRI
							}
							save_event_target_as = STH_system_denial_mechanics_devastated_species
						}
					}
					#Beta species home systems
					else_if = {
						limit = {
							has_star_flag = acamarian_sovereignty 
							any_galaxy_species = {								
								is_species_class = ACA
							}
						}
						random_galaxy_species = {
							limit = {
								is_species_class = ACA
							}
							save_event_target_as = STH_system_denial_mechanics_devastated_species
						}
					}
					else_if = {
						limit = {
							has_star_flag = andorian_homeworld 
							any_galaxy_species = {								
								is_species_class = ADR
							}
						}
						random_galaxy_species = {
							limit = {
								is_species_class = ADR
							}
							save_event_target_as = STH_system_denial_mechanics_devastated_species
						}
					}
					else_if = {
						limit = {
							has_star_flag = benzarian_homeworld 
							any_galaxy_species = {								
								is_species_class = BEN 
							}
						}
						random_galaxy_species = {
							limit = {
								is_species_class = BEN 
							}
							save_event_target_as = STH_system_denial_mechanics_devastated_species
						}
					}
					else_if = {
						limit = {
							has_star_flag = bolian_homeworld 
							any_galaxy_species = {								
								is_species_class = BOL 
							}
						}
						random_galaxy_species = {
							limit = {
								is_species_class = BOL 
							}
							save_event_target_as = STH_system_denial_mechanics_devastated_species
						}
					}
					else_if = {
						limit = {
							has_star_flag = cheronite_homeworld 
							any_galaxy_species = {								
								is_species_class = CHE 
							}
						}
						random_galaxy_species = {
							limit = {
								is_species_class = CHE 
							}
							save_event_target_as = STH_system_denial_mechanics_devastated_species
						}
					}
					else_if = {
						limit = {
							has_star_flag = flaxian_homeworld 
							any_galaxy_species = {								
								is_species_class = FLA
							}
						}
						random_galaxy_species = {
							limit = {
								is_species_class = FLA
							}
							save_event_target_as = STH_system_denial_mechanics_devastated_species
						}
					}
					else_if = {
						limit = {
							has_star_flag = garidian_homeworld 
							any_galaxy_species = {								
								is_species_class = GAR
							}
						}
						random_galaxy_species = {
							limit = {
								is_species_class = GAR
							}
							save_event_target_as = STH_system_denial_mechanics_devastated_species
						}
					}
					else_if = {
						limit = {
							has_star_flag = gorn_homeworld 
							any_galaxy_species = {								
								is_species_class = GOR
							}
						}
						random_galaxy_species = {
							limit = {
								is_species_class = GOR
							}
							save_event_target_as = STH_system_denial_mechanics_devastated_species
						}
					}
					else_if = {
						limit = {
							has_star_flag = husnock_homeworld 
							any_galaxy_species = {								
								is_species_class = HUS
							}
						}
						random_galaxy_species = {
							limit = {
								is_species_class = HUS
							}
							save_event_target_as = STH_system_denial_mechanics_devastated_species
						}
					}
					else_if = {
						limit = {
							has_star_flag = klingon_homeworld 
							any_galaxy_species = {								
								is_species_class = KDF
							}
						}
						random_galaxy_species = {
							limit = {
								is_species_class = KDF
							}
							save_event_target_as = STH_system_denial_mechanics_devastated_species
						}
					}
					else_if = {
						limit = {
							has_star_flag = krios_homeworld 
							any_galaxy_species = {								
								is_species_class = KRI
							}
						}
						random_galaxy_species = {
							limit = {
								is_species_class = KRI
							}
							save_event_target_as = STH_system_denial_mechanics_devastated_species
						}
					}
					else_if = {
						limit = {
							has_star_flag = metron_homeworld 
							any_galaxy_species = {								
								is_species_class = MET
							}
						}
						random_galaxy_species = {
							limit = {
								is_species_class = MET
							}
							save_event_target_as = STH_system_denial_mechanics_devastated_species
						}
					}
					else_if = {
						limit = {
							has_star_flag = nausicaan_homeworld 
							any_galaxy_species = {								
								is_species_class = NAU
							}
						}
						random_galaxy_species = {
							limit = {
								is_species_class = NAU
							}
							save_event_target_as = STH_system_denial_mechanics_devastated_species
						}
					}
					else_if = {
						limit = {
							has_star_flag = orion_free_states 
							any_galaxy_species = {								
								is_species_class = ORI
							}
						}
						random_galaxy_species = {
							limit = {
								is_species_class = ORI
							}
							save_event_target_as = STH_system_denial_mechanics_devastated_species
						}
					}
					else_if = {
						limit = {
							has_star_flag = rigellian_consortium 
							any_galaxy_species = {								
								is_species_class = RIG
							}
						}
						random_galaxy_species = {
							limit = {
								is_species_class = RIG
							}
							save_event_target_as = STH_system_denial_mechanics_devastated_species
						}
					}
					else_if = {
						limit = {
							has_star_flag = romulan_homeworld 
							any_galaxy_species = {								
								is_species_class = ROM 
							}
						}
						random_galaxy_species = {
							limit = {
								is_species_class = ROM 
							}
							save_event_target_as = STH_system_denial_mechanics_devastated_species
						}
					}
					else_if = {
						limit = {
							has_star_flag = sona_homeworld 
							any_galaxy_species = {								
								is_species_class = SON 
							}
						}
						random_galaxy_species = {
							limit = {
								is_species_class = SON 
							}
							save_event_target_as = STH_system_denial_mechanics_devastated_species
						}
					}
					else_if = {
						limit = {
							has_star_flag = suliban_homeworld 
							any_galaxy_species = {								
								is_species_class = SUL
							}
						}
						random_galaxy_species = {
							limit = {
								is_species_class = SUL
							}
							save_event_target_as = STH_system_denial_mechanics_devastated_species
						}
					}
					else_if = {
						limit = {
							has_star_flag = valt_homeworld 
							any_galaxy_species = {								
								is_species_class = VAL
							}
						}
						random_galaxy_species = {
							limit = {
								is_species_class = VAL
							}
							save_event_target_as = STH_system_denial_mechanics_devastated_species
						}
					}
					else_if = {
						limit = {
							has_star_flag = vulcan_homeworld 
							any_galaxy_species = {								
								is_species_class = VUL
							}
						}
						random_galaxy_species = {
							limit = {
								is_species_class = VUL
							}
							save_event_target_as = STH_system_denial_mechanics_devastated_species
						}
					}
					else_if = {
						limit = {
							has_star_flag = zakdorn_homeworld 
							any_galaxy_species = {								
								is_species_class = ZAK
							}
						}
						random_galaxy_species = {
							limit = {
								is_species_class = ZAK
							}
							save_event_target_as = STH_system_denial_mechanics_devastated_species
						}
					}
					#Delta species home systems
					else_if = {
						limit = {
							has_star_flag = banean_homeworld 
							any_galaxy_species = {								
								is_species_class = BAN
							}
						}
						random_galaxy_species = {
							limit = {
								is_species_class = BAN
							}
							save_event_target_as = STH_system_denial_mechanics_devastated_species
						}
					}					
					else_if = {
						limit = {
							has_star_flag = brunali_homeworld 
							any_galaxy_species = {								
								is_species_class = BRU
							}
						}
						random_galaxy_species = {
							limit = {
								is_species_class = BRU
							}
							save_event_target_as = STH_system_denial_mechanics_devastated_species
						}
					}					
					else_if = {
						limit = {
							has_star_flag = devorian_homeworld 
							any_galaxy_species = {								
								is_species_class = DEV 
							}
						}
						random_galaxy_species = {
							limit = {
								is_species_class = DEV 
							}
							save_event_target_as = STH_system_denial_mechanics_devastated_species
						}
					}
					else_if = {
						limit = {
							has_star_flag = fen_domar_homeworld 
							any_galaxy_species = {								
								is_species_class = FEN
							}
						}
						random_galaxy_species = {
							limit = {
								is_species_class = FEN
							}
							save_event_target_as = STH_system_denial_mechanics_devastated_species
						}
					}
					else_if = {
						limit = {
							has_star_flag = haakonian_homeworld 
							any_galaxy_species = {								
								is_species_class = HAA
							}
						}
						random_galaxy_species = {
							limit = {
								is_species_class = HAA
							}
							save_event_target_as = STH_system_denial_mechanics_devastated_species
						}
					}
					else_if = {
						limit = {
							has_star_flag = hirogen_homeworld 
							any_galaxy_species = {								
								is_species_class = HIR
							}
						}
						random_galaxy_species = {
							limit = {
								is_species_class = HIR
							}
							save_event_target_as = STH_system_denial_mechanics_devastated_species
						}
					}
					else_if = {
						limit = {
							has_star_flag = kazon_homeworld 
							any_galaxy_species = {								
								is_species_class = KAZ
							}
						}
						random_galaxy_species = {
							limit = {
								is_species_class = KAZ
							}
							save_event_target_as = STH_system_denial_mechanics_devastated_species
						}
					}
					else_if = {
						limit = {
							has_star_flag = kobali_homeworld 
							any_galaxy_species = {								
								is_species_class = KOB
							}
						}
						random_galaxy_species = {
							limit = {
								is_species_class = KOB
							}
							save_event_target_as = STH_system_denial_mechanics_devastated_species
						}
					}
					else_if = {
						limit = {
							has_star_flag = kraylor_homeworld 
							any_galaxy_species = {								
								is_species_class = KRA
							}
						}
						random_galaxy_species = {
							limit = {
								is_species_class = KRA
							}
							save_event_target_as = STH_system_denial_mechanics_devastated_species
						}
					}
					else_if = {
						limit = {
							has_star_flag = krenim_homeworld 
							any_galaxy_species = {								
								is_species_class = KRE 
							}
						}
						random_galaxy_species = {
							limit = {
								is_species_class = KRE 
							}
							save_event_target_as = STH_system_denial_mechanics_devastated_species
						}
					}
					else_if = {
						limit = {
							has_star_flag = lyridian_homeworld 
							any_galaxy_species = {								
								is_species_class = LYR
							}
						}
						random_galaxy_species = {
							limit = {
								is_species_class = LYR
							}
							save_event_target_as = STH_system_denial_mechanics_devastated_species
						}
					}
					else_if = {
						limit = {
							has_star_flag = norcadian_homeworld 
							any_galaxy_species = {								
								is_species_class = NRC
							}
						}
						random_galaxy_species = {
							limit = {
								is_species_class = NRC
							}
							save_event_target_as = STH_system_denial_mechanics_devastated_species
						}
					}					
					else_if = {
						limit = {
							has_star_flag = talaxian_homeworld  
							any_galaxy_species = {								
								is_species_class = TAL
							}
						}
						random_galaxy_species = {
							limit = {
								is_species_class = TAL
							}
							save_event_target_as = STH_system_denial_mechanics_devastated_species
						}
					}
					else_if = {
						limit = {
							has_star_flag = trabe_homeworld  
							any_galaxy_species = {								
								is_species_class = TRA
							}
						}
						random_galaxy_species = {
							limit = {
								is_species_class = TRA
							}
							save_event_target_as = STH_system_denial_mechanics_devastated_species
						}
					}
					else_if = {
						limit = {
							has_star_flag = turei_homeworld  
							any_galaxy_species = {								
								is_species_class = TUR
							}
						}
						random_galaxy_species = {
							limit = {
								is_species_class = TUR
							}
							save_event_target_as = STH_system_denial_mechanics_devastated_species
						}
					}
					else_if = {
						limit = {
							has_star_flag = vaadwaur_homeworld  
							any_galaxy_species = {								
								is_species_class = VAA 
							}
						}
						random_galaxy_species = {
							limit = {
								is_species_class = VAA 
							}
							save_event_target_as = STH_system_denial_mechanics_devastated_species
						}
					}
					else_if = {
						limit = {
							has_star_flag = Viaian_homeworld  
							any_galaxy_species = {								
								is_species_class = VID
							}
						}
						random_galaxy_species = {
							limit = {
								is_species_class = VID
							}
							save_event_target_as = STH_system_denial_mechanics_devastated_species
						}
					}
					else_if = {
						limit = {
							has_star_flag = voth_homeworld  
							any_galaxy_species = {								
								is_species_class = VOT
							}
						}
						random_galaxy_species = {
							limit = {
								is_species_class = VOT
							}
							save_event_target_as = STH_system_denial_mechanics_devastated_species
						}
					}
					else_if = {
						limit = {
							has_star_flag = zahl_homeworld  
							any_galaxy_species = {								
								is_species_class = ZAH
							}
						}
						random_galaxy_species = {
							limit = {
								is_species_class = ZAH
							}
							save_event_target_as = STH_system_denial_mechanics_devastated_species
						}
					}
					#Gamma species home systems
					else_if = {
						limit = {
							has_star_flag = argrathian_homeworld  
							any_galaxy_species = {								
								is_species_class = ARG 
							}
						}
						random_galaxy_species = {
							limit = {
								is_species_class = ARG 
							}
							save_event_target_as = STH_system_denial_mechanics_devastated_species
						}
					}
					else_if = {
						limit = {
							has_star_flag = founders_homeworld  
							any_galaxy_species = {								
								is_species_class = DOM 
							}
						}
						random_galaxy_species = {
							limit = {
								is_species_class = DOM 
							}
							save_event_target_as = STH_system_denial_mechanics_devastated_species
						}
					}
					else_if = {
						limit = {
							has_star_flag = dosi_homeworld  
							any_galaxy_species = {								
								is_species_class = DOS 
							}
						}
						random_galaxy_species = {
							limit = {
								is_species_class = DOS 
							}
							save_event_target_as = STH_system_denial_mechanics_devastated_species
						}
					}
					else_if = {
						limit = {
							has_star_flag = hurq_homeworld  
							any_galaxy_species = {								
								is_species_class = HUR
							}
						}
						random_galaxy_species = {
							limit = {
								is_species_class = HUR
							}
							save_event_target_as = STH_system_denial_mechanics_devastated_species
						}
					}
					else_if = {
						limit = {
							has_star_flag = karemma_homeworld  
							any_galaxy_species = {								
								is_species_class = KAR 
							}
						}
						random_galaxy_species = {
							limit = {
								is_species_class = KAR 
							}
							save_event_target_as = STH_system_denial_mechanics_devastated_species
						}
					}
					else_if = {
						limit = {
							has_star_flag = nyberrite_homeworld  
							any_galaxy_species = {								
								is_species_class = NYB 
							}
						}
						random_galaxy_species = {
							limit = {
								is_species_class = NYB 
							}
							save_event_target_as = STH_system_denial_mechanics_devastated_species
						}
					}
					else_if = {
						limit = {
							has_star_flag = oschean_homeworld  
							any_galaxy_species = {								
								is_species_class = OSC 
							}
						}
						random_galaxy_species = {
							limit = {
								is_species_class = OSC 
							}
							save_event_target_as = STH_system_denial_mechanics_devastated_species
						}
					}
					else_if = {
						limit = {
							has_star_flag = rakharian_homeworld  
							any_galaxy_species = {								
								is_species_class = RAK
							}
						}
						random_galaxy_species = {
							limit = {
								is_species_class = RAK
							}
							save_event_target_as = STH_system_denial_mechanics_devastated_species
						}
					}
					else_if = {
						limit = {
							has_star_flag = skrreean_homeworld  
							any_galaxy_species = {								
								is_species_class = SKR
							}
						}
						random_galaxy_species = {
							limit = {
								is_species_class = SKR
							}
							save_event_target_as = STH_system_denial_mechanics_devastated_species
						}
					}
					else_if = {
						limit = {
							has_star_flag = trogoron_homeworld  
							any_galaxy_species = {								
								is_species_class = TRO 
							}
						}
						random_galaxy_species = {
							limit = {
								is_species_class = TRO 
							}
							save_event_target_as = STH_system_denial_mechanics_devastated_species
						}
					}
					else_if = {
						limit = {
							has_star_flag = wadi_homeworld  
							any_galaxy_species = {								
								is_species_class = WAD
							}
						}
						random_galaxy_species = {
							limit = {
								is_species_class = WAD
							}
							save_event_target_as = STH_system_denial_mechanics_devastated_species
						}
					}
					else_if = {
						limit = {
							has_star_flag = yaderan_homeworld  
							any_galaxy_species = {								
								is_species_class = YAD 
							}
						}
						random_galaxy_species = {
							limit = {
								is_species_class = YAD 
							}
							save_event_target_as = STH_system_denial_mechanics_devastated_species
						}
					}					
					if = {
						limit = {
							exists = event_target:STH_system_denial_mechanics_devastated_species
						}
						owner = {
							country_event = {
								id = STH_system_denial_mechanics.111 days = 31
							}
						}
					}															
				}
				#SYTEM ISOLATION								
				every_system = {
					limit = { has_hyperlane_to = prev }
					remove_hyperlane = { from = this to = prev }
				}
				#set_name = STH_system_denial_mechanics.omega_system	
				set_star_flag = STH_system_denial_mechanics_isolated_system		
			}
		}		
	}	
}

#Empires with a destroyed home system want revenge!
country_event = {
	id = STH_system_denial_mechanics.102
	desc = STH_system_denial_mechanics.102.desc
	title = STH_system_denial_mechanics.102.name
	picture = sth_GFX_evt_praxis2
	show_sound = event_planetary_riot
	is_triggered_only = yes
	location = event_target:STH_system_denial_mechanics_homeworld_owner
	trigger = {	}	
	option = {
		name = STH_system_denial_mechanics.102.a
		event_target:STH_system_denial_mechanics_homeworld_owner = {
			add_opinion_modifier = {
				modifier = opinion_heliocide_home_system
				who = event_target:STH_system_denial_mechanics_destroyer_country 
			}			
			set_country_flag = STH_system_denial_mechanics_opinion_heliocide_home_system
			add_casus_belli = {
				type = cb_system_denial_eternal_revenge
				who = event_target:STH_system_denial_mechanics_destroyer_country 
				days = -1
			}
			species = {
				save_event_target_as = STH_system_denial_mechanics_homeworld_owner_species
			}
		}
		every_country = {						
			limit = {
				is_same_species = event_target:STH_system_denial_mechanics_homeworld_owner_species
				NOT = { is_same_value = event_target:STH_system_denial_mechanics_homeworld_owner }
			}
			add_opinion_modifier = {
				modifier = opinion_heliocide_home_system
				who = event_target:STH_system_denial_mechanics_destroyer_country 
			}			
			set_country_flag = STH_system_denial_mechanics_opinion_heliocide_home_system
			add_casus_belli = {
				type = cb_system_denial_eternal_revenge
				who = event_target:STH_system_denial_mechanics_destroyer_country 
				days = -1
			}
		}		
	}	
}

#Star Destroyed- Pops at large in the galaxy are devastated, some desire revenge, while others are depressed
country_event = {
	id = STH_system_denial_mechanics.103
	desc = STH_system_denial_mechanics.103.desc
	title = STH_system_denial_mechanics.103.name
	picture = sth_GFX_evt_crewDeath
	show_sound = event_public_unrest
	is_triggered_only = yes
	trigger = {	}	
	option = {
		name = STH_system_denial_mechanics.103.a
		# every pop not in the destroyer empire
		every_galaxy_pop = {
			limit = {
				is_same_species = event_target:STH_system_denial_mechanics_devastated_species
				NOT = { owner_species = { is_same_species = event_target:STH_system_denial_mechanics_destroyer_country } }
			}
			random_list = {
				#Depressed
				10 = {
					add_modifier = {
						modifier = pop_depressed_from_homeworld_destruction
						days = 27000
					}
				}
				#Xenophobe
				44= {
					pop_change_ethic = ethic_xenophobe
					add_modifier = {
						modifier = pop_angry_from_homeworld_destruction
						days = 27000
					}
				}
				#Militarized				
				44= {
					pop_change_ethic = ethic_militarist
					add_modifier = {
						modifier = pop_enraged_from_homeworld_destruction
						days = 27000
					}
				}
				#Indifferent
				2= {

				}
			}
		}
		#every pop in the destroyer empire empire is either depressed or seething
		event_target:STH_system_denial_mechanics_destroyer_country = {
			every_owned_pop = {
				limit = {
					is_same_species = event_target:STH_system_denial_mechanics_devastated_species
				}
				#Depressed
				random_list = {
					49 = {
						add_modifier = {
							modifier = pop_depressed_from_homeworld_destruction
							days = 27000
						}
					}
					#Seething
					49= {
						pop_change_ethic = ethic_xenophobe
						add_modifier = {
							modifier = pop_seething_from_homeworld_destruction
							days = 27000
						}
					}				
					#Indifferent
					2= {

					}
				}
			}
		}
	}	
}

#Empires with a destroyed colony system express their displeasure
country_event = {
	id = STH_system_denial_mechanics.104
	desc = STH_system_denial_mechanics.104.desc
	title = STH_system_denial_mechanics.104.name
	picture = sth_GFX_evt_praxis2
	show_sound = event_planetary_riot
	is_triggered_only = yes
	location = event_target:STH_system_denial_mechanics_colony_owner
	trigger = {	}	
	option = {
		name = STH_system_denial_mechanics.104.a
		event_target:STH_system_denial_mechanics_colony_owner = {
			add_opinion_modifier = {
				modifier = opinion_heliocide_colony_system
				who = event_target:STH_system_denial_mechanics_destroyer_country 
			}
			set_timed_country_flag = {
				flag = STH_system_denial_mechanics_opinion_heliocide_colony_system
				years = 10
			}
			add_casus_belli = {
				type = cb_system_denial_disarm
				who = event_target:STH_system_denial_mechanics_destroyer_country 
				days = 3600
			}			
		}						
	}	
}

#Neighboring empires don't like destruction of navigational aids and expressions of power
country_event = {
	id = STH_system_denial_mechanics.105
	desc = STH_system_denial_mechanics.105.desc
	title = STH_system_denial_mechanics.105.name
	picture = sth_GFX_evt_exploding_ship
	show_sound = event_radio_chatter
	is_triggered_only = yes
	location = event_target:STH_system_denial_mechanics_supernova_star_system
	trigger = {	}	
	option = {
		name = STH_system_denial_mechanics.105.a
		event_target:STH_system_denial_mechanics_supernova_star_system = {
			every_neighbor_system = {
				ignore_hyperlanes = no
				limit = {
					exists = owner
					owner = {
						NOT = { is_same_value = event_target:STH_system_denial_mechanics_destroyer_country  }
					}
				}					
				owner = {
					if = {
						limit = {
							NOT = { has_country_flag = STH_system_denial_mechanics_temp_neighbor_country }
						}
						add_opinion_modifier = {
							modifier = opinion_heliocide_neighboring_system
							who = event_target:STH_system_denial_mechanics_destroyer_country 
						}
						set_timed_country_flag = {
							flag = STH_system_denial_mechanics_opinion_heliocide_neighboring_system
							years = 10
						}
						add_casus_belli = {
							type = cb_system_denial_disarm
							who = event_target:STH_system_denial_mechanics_destroyer_country 
							days = 3600
						}
					}
					set_country_flag = STH_system_denial_mechanics_temp_neighbor_country						
				}
			}
			every_neighbor_system = {
				ignore_hyperlanes = no
				limit = {
					exists = owner
					owner = {
						NOT = { is_same_value = event_target:STH_system_denial_mechanics_destroyer_country  }
					}
				}					
				owner = {
					remove_country_flag = STH_system_denial_mechanics_temp_neighbor_country						
				}
			}
		}				
	}	
}

#The destruction of a star is a momentous event for other empires- fire for first heliocide
country_event = {
	id = STH_system_denial_mechanics.106
	desc = STH_system_denial_mechanics.106.desc
	title = STH_system_denial_mechanics.106.name
	picture = sth_GFX_evt_exploding_ship
	show_sound = event_radio_chatter
	is_triggered_only = yes
	location = event_target:STH_system_denial_mechanics_supernova_star_system
	trigger = {	}	
	option = {
		name = STH_system_denial_mechanics.106.a
						
	}	
}

#The isolation of a system through detonating Omega molecules is a momentous event for other empires- fire for first isolation
country_event = {
	id = STH_system_denial_mechanics.107
	desc = STH_system_denial_mechanics.107.desc
	title = STH_system_denial_mechanics.107.name
	picture = sth_GFX_evt_exploding_ship
	show_sound = event_radio_chatter
	is_triggered_only = yes
	location = event_target:STH_system_denial_mechanics_omega_system
	trigger = {	}	
	option = {
		name = STH_system_denial_mechanics.107.a
						
	}	
}

#Neighboring empires don't like getting permanetly cut off of systems and expressions of power
country_event = {
	id = STH_system_denial_mechanics.108
	desc = STH_system_denial_mechanics.108.desc
	title = STH_system_denial_mechanics.108.name
	picture = sth_GFX_evt_exploding_ship
	show_sound = event_radio_chatter
	is_triggered_only = yes
	location = event_target:STH_system_denial_mechanics_omega_system
	trigger = {	}	
	option = {
		name = STH_system_denial_mechanics.108.a
		event_target:STH_system_denial_mechanics_omega_system = {
			every_neighbor_system = {
				ignore_hyperlanes = yes
				limit = {
					exists = owner
					owner = {
						NOT = { is_same_value = event_target:STH_system_denial_mechanics_isolationist_country  }
					}
				}					
				owner = {
					if = {
						limit = {
							NOT = { has_country_flag = STH_system_denial_mechanics_temp_neighbor_country }
						}
						add_opinion_modifier = {
							modifier = opinion_determined_isolationist_neighboring_system
							who = event_target:STH_system_denial_mechanics_isolationist_country 
						}
					}
					set_country_flag = STH_system_denial_mechanics_temp_neighbor_country						
				}
			}
			every_neighbor_system = {
				ignore_hyperlanes = yes
				limit = {
					exists = owner
					owner = {
						NOT = { is_same_value = event_target:STH_system_denial_mechanics_isolationist_country  }
					}
				}					
				owner = {
					remove_country_flag = STH_system_denial_mechanics_temp_neighbor_country						
				}
			}
		}				
	}	
}

#Empires with an isolated colony system express their displeasure - gain a claim and a return cb
country_event = {
	id = STH_system_denial_mechanics.109
	desc = STH_system_denial_mechanics.109.desc
	title = STH_system_denial_mechanics.109.name
	picture = sth_GFX_evt_praxis2
	show_sound = event_planetary_riot
	is_triggered_only = yes
	location = event_target:STH_system_denial_mechanics_colony_owner
	trigger = {	}	
	option = {
		name = STH_system_denial_mechanics.109.a
		event_target:STH_system_denial_mechanics_colony_owner = {
			add_opinion_modifier = {
				modifier = opinion_determined_isolationist_colony_system
				who = event_target:STH_system_denial_mechanics_isolationist_country 
			}
			set_timed_country_flag = {
				flag = STH_system_denial_mechanics_opinion_determined_isolationist_colony_system
				years = 10
			}
			event_target:STH_system_denial_mechanics_omega_system = {
				add_claims = {
					who = event_target:STH_system_denial_mechanics_colony_owner
					num_of_claims = 10 show_notification = yes
				}
			}						
			add_casus_belli = {
				type = cb_system_denial_reconnect
				who = event_target:STH_system_denial_mechanics_isolationist_country 
				days = 3600
			}			
		}						
	}	
}

#Empires with an isolated home system want to return!
country_event = {
	id = STH_system_denial_mechanics.110
	desc = STH_system_denial_mechanics.110.desc
	title = STH_system_denial_mechanics.110.name
	picture = sth_GFX_evt_praxis2
	show_sound = event_planetary_riot
	is_triggered_only = yes
	location = event_target:STH_system_denial_mechanics_homeworld_owner
	trigger = {	}	
	option = {
		name = STH_system_denial_mechanics.110.a
		event_target:STH_system_denial_mechanics_homeworld_owner = {
			add_opinion_modifier = {
				modifier = opinion_determined_isolationist_home_system
				who = event_target:STH_system_denial_mechanics_isolationist_country 
			}			
			set_country_flag = STH_system_denial_mechanics_opinion_determined_isolationist_home_system
			event_target:STH_system_denial_mechanics_omega_system = {
				add_claims = {
					who = event_target:STH_system_denial_mechanics_homeworld_owner
					num_of_claims = 10 show_notification = yes
				}
			}	
			add_casus_belli = {
				type = cb_system_denial_reconnect
				who = event_target:STH_system_denial_mechanics_isolationist_country 
				days = -1
			}
			species = {
				save_event_target_as = STH_system_denial_mechanics_homeworld_owner_species
			}
		}
		every_country = {						
			limit = {
				is_same_species = event_target:STH_system_denial_mechanics_homeworld_owner_species
				NOT = { is_same_value = event_target:STH_system_denial_mechanics_homeworld_owner }
			}
			save_event_target_as = STH_system_denial_mechanics_related_owner
			add_opinion_modifier = {
				modifier = opinion_determined_isolationist_home_system
				who = event_target:STH_system_denial_mechanics_isolationist_country 
			}			
			set_country_flag = STH_system_denial_mechanics_opinion_determined_isolationist_home_system
			event_target:STH_system_denial_mechanics_omega_system = {
				add_claims = {
					who = event_target:STH_system_denial_mechanics_related_owner
					num_of_claims = 10 show_notification = yes
				}
			}
			add_casus_belli = {
				type = cb_system_denial_reconnect
				who = event_target:STH_system_denial_mechanics_isolationist_country 
				days = -1
			}
		}		
	}	
}

#Home System Isolated- Pops at large in the galaxy are devastated, some desire to reclaim the homeworld, while others are depressed
country_event = {
	id = STH_system_denial_mechanics.111
	desc = STH_system_denial_mechanics.111.desc
	title = STH_system_denial_mechanics.111.name
	picture = sth_GFX_evt_crewDeath
	show_sound = event_public_unrest
	is_triggered_only = yes
	trigger = {	}	
	option = {
		name = STH_system_denial_mechanics.111.a
		# every pop not in the isolationist empire
		every_galaxy_pop = {
			limit = {
				is_same_species = event_target:STH_system_denial_mechanics_devastated_species
				NOT = { owner_species = { is_same_species = event_target:STH_system_denial_mechanics_isolationist_country } }
			}
			random_list = {
				#Depressed
				10 = {
					add_modifier = {
						modifier = pop_depressed_from_homeworld_isolation
						days = 27000
					}
				}
				#Xenophile
				44= {
					pop_change_ethic = ethic_xenophile
					add_modifier = {
						modifier = pop_adventurous_from_homeworld_isolation
						days = 27000
					}
				}
				#Militarized				
				44= {
					pop_change_ethic = ethic_militarist
					add_modifier = {
						modifier = pop_enraged_from_homeworld_isolation
						days = 27000
					}
				}
				#Indifferent
				2= {

				}
			}
		}
		#every pop in the isolationist empire empire is either depressed or wants to repatriate
		event_target:STH_system_denial_mechanics_isolationist_country = {
			every_owned_pop = {
				limit = {
					is_same_species = event_target:STH_system_denial_mechanics_devastated_species
				}
				#Depressed
				random_list = {
					49 = {
						add_modifier = {
							modifier = pop_depressed_from_homeworld_isolation
							days = 27000
						}
					}
					#Xenophile
					49= {
						pop_change_ethic = ethic_xenophile
						add_modifier = {
							modifier = pop_adventurous_from_homeworld_isolation
							days = 27000
						}
					}				
					#Indifferent
					2= {

					}
				}
			}
		}
	}	
}