
#############################
### Fallen Machine Empire ###
#############################

# Planet Destroyer
ship_design = {
	name = "NAME_Omega"
	ship_size = colossus
	section = {
		template = "SHIP_COLOSSUS_SECTION"
		slot = "ship"
		
		component = {
			slot = "PLANET_KILLER_GUN_01"
			template = "PLANET_KILLER_NEUTRON"
		}
		component = {
			slot = "LARGE_UTILITY_1"
			template = "LARGE_DARK_MATTER_DEFLECTOR"
		}
		component = {
			slot = "LARGE_UTILITY_2"
			template = "LARGE_DARK_MATTER_DEFLECTOR"
		}
		component = {
			slot = "LARGE_UTILITY_3"
			template = "LARGE_DARK_MATTER_DEFLECTOR"
		}
		component = {
			slot = "LARGE_UTILITY_4"
			template = "LARGE_ARMOR_5"
		}
		component = {
			slot = "LARGE_UTILITY_5"
			template = "LARGE_ARMOR_5"
		}
		component = {
			slot = "LARGE_UTILITY_6"
			template = "LARGE_ARMOR_5"
		}		
	}
	required_component="SENSOR_4"
	required_component="JUMP_DRIVE_1"
	required_component="COLOSSUS_DARK_MATTER_REACTOR"
	
	# For special buildable
	is_special_buildable = yes
	allow_buildable_trigger = is_fallen_empire_machine
}

# Massive Ship
ship_design = {
	name = "NAME_Alpha"
	ship_size = massive_ship_fallen_empire
	section = {
		template = "fallen_empire_massive_warship_key"
		slot = "mid"
		
		component = {
			slot = "TITANIC_01"
			template = "TITAN_LASER"
		}
		component = {
			slot = "STRIKE_CRAFT_01"
			template = "STRIKE_CRAFT_HANGAR_3"	
		}
		component = {
			slot = "STRIKE_CRAFT_02"
			template = "STRIKE_CRAFT_HANGAR_3"	
		}	
		component = {
			slot = "STRIKE_CRAFT_03"
			template = "STRIKE_CRAFT_HANGAR_3"	
		}	
		component = {
			slot = "STRIKE_CRAFT_04"
			template = "STRIKE_CRAFT_HANGAR_3"	
		}			
		component = {
			slot = "LARGE_GUN_01"
			template = "LARGE_GAMMA_LASER"
		}		
		component = {
			slot = "LARGE_GUN_02"
			template = "LARGE_GAMMA_LASER"
		}		
		component = {
			slot = "LARGE_GUN_03"
			template = "LARGE_GAMMA_LASER"
		}		
		component = {
			slot = "LARGE_GUN_04"
			template = "LARGE_GAMMA_LASER"
		}	
		component = {
			slot = "LARGE_GUN_05"
			template = "LARGE_GAMMA_LASER"
		}		
		component = {
			slot = "LARGE_GUN_06"
			template = "LARGE_GAMMA_LASER"
		}	
		component = {
			slot = "LARGE_GUN_07"
			template = "LARGE_GAMMA_LASER"
		}	
		component = {
			slot = "LARGE_GUN_08"
			template = "LARGE_GAMMA_LASER"
		}			
		component = {
			slot = "MEDIUM_GUN_01"
			template = "MEDIUM_DISRUPTOR_3"
		}		
		component = {
			slot = "MEDIUM_GUN_02"
			template = "MEDIUM_DISRUPTOR_3"
		}		
		component = {
			slot = "MEDIUM_GUN_03"
			template = "MEDIUM_DISRUPTOR_3"
		}		
		component = {
			slot = "MEDIUM_GUN_04"
			template = "MEDIUM_DISRUPTOR_3"
		}
		component = {
			slot = "LARGE_UTILITY_1"
			template = "LARGE_DARK_MATTER_DEFLECTOR"
		}
		component = {
			slot = "LARGE_UTILITY_2"
			template = "LARGE_DARK_MATTER_DEFLECTOR"
		}
		component = {
			slot = "LARGE_UTILITY_3"
			template = "LARGE_DARK_MATTER_DEFLECTOR"
		}
		component = {
			slot = "LARGE_UTILITY_4"
			template = "LARGE_DARK_MATTER_DEFLECTOR"
		}
		component = {
			slot = "LARGE_UTILITY_5"
			template = "LARGE_DARK_MATTER_DEFLECTOR"
		}
		component = {
			slot = "LARGE_UTILITY_6"
			template = "LARGE_DARK_MATTER_DEFLECTOR"
		}
		component = {
			slot = "LARGE_UTILITY_7"
			template = "LARGE_DARK_MATTER_DEFLECTOR"
		}
		component = {
			slot = "LARGE_UTILITY_8"
			template = "LARGE_DARK_MATTER_DEFLECTOR"
		}		
		component = {
			slot = "LARGE_UTILITY_9"
			template = "LARGE_DARK_MATTER_DEFLECTOR"
		}
		component = {
			slot = "LARGE_UTILITY_10"
			template = "LARGE_DARK_MATTER_DEFLECTOR"
		}
		component = {
			slot = "LARGE_UTILITY_11"
			template = "LARGE_ARMOR_5"
		}
		component = {
			slot = "LARGE_UTILITY_12"
			template = "LARGE_ARMOR_5"
		}
		component = {
			slot = "LARGE_UTILITY_13"
			template = "LARGE_ARMOR_5"
		}
		component = {
			slot = "LARGE_UTILITY_14"
			template = "LARGE_ARMOR_5"
		}
		component = {
			slot = "LARGE_UTILITY_15"
			template = "LARGE_ARMOR_5"
		}		
		component = {
			slot = "LARGE_UTILITY_16"
			template = "LARGE_ARMOR_5"
		}
		component = {
			slot = "LARGE_UTILITY_17"
			template = "LARGE_ARMOR_5"
		}		
		component = {
			slot = "LARGE_UTILITY_18"
			template = "LARGE_ARMOR_5"
		}		
		component = {
			slot = "LARGE_UTILITY_19"
			template = "LARGE_ARMOR_5"
		}
		component = {
			slot = "LARGE_UTILITY_20"
			template = "LARGE_ARMOR_5"
		}
		component = {
			slot = "AUX_UTILITY_1"
			template = "SHIELD_BOOSTER"
		}
		component = {
			slot = "AUX_UTILITY_2"
			template = "SHIELD_BOOSTER"
		}	
		component = {
			slot = "AUX_UTILITY_3"
			template = "SHIELD_BOOSTER"
		}		
	}
	required_component="SENSOR_4"
	required_component= "REQUIRED_WARP_COMBAT_8_K"
	required_component="COMBAT_COMPUTER_ARTILLERY_SAPIENT"
	required_component="TITAN_DARK_MATTER_REACTOR"
	required_component="REQUIRED_THRUSTER_A_7_K"
	
	# For special buildable
	is_special_buildable = yes
	allow_buildable_trigger = is_fallen_empire_machine
}

# Large Ship
ship_design = {
	name = "NAME_Beta"
	ship_size = large_ship_fallen_empire
	section = {
		template = "fallen_empire_large_warship_key"
		slot = "mid"
	
		component = {
			slot = "STRIKE_CRAFT_01"
			template = "STRIKE_CRAFT_HANGAR_3"	
		}		
		component = {
			slot = "STRIKE_CRAFT_02"
			template = "STRIKE_CRAFT_HANGAR_3"	
		}	
		component = {
			slot = "EXTRA_LARGE_01"
			template = "ENERGY_LANCE_2"
		}		
		component = {
			slot = "LARGE_GUN_01"
			template = "LARGE_GAMMA_LASER"
		}		
		component = {
			slot = "LARGE_GUN_02"
			template = "LARGE_GAMMA_LASER"
		}		
		component = {
			slot = "MEDIUM_GUN_01"
			template = "MEDIUM_DISRUPTOR_3"
		}		
		component = {
			slot = "MEDIUM_GUN_02"
			template = "MEDIUM_DISRUPTOR_3"
		}
		component = {
			slot = "MEDIUM_GUN_03"
			template = "MEDIUM_DISRUPTOR_3"
		}
		component = {
			slot = "MEDIUM_GUN_04"
			template = "MEDIUM_DISRUPTOR_3"
		}
		component = {
			slot = "LARGE_UTILITY_1"
			template = "LARGE_DARK_MATTER_DEFLECTOR"
		}
		component = {
			slot = "LARGE_UTILITY_2"
			template = "LARGE_DARK_MATTER_DEFLECTOR"
		}
		component = {
			slot = "LARGE_UTILITY_3"
			template = "LARGE_DARK_MATTER_DEFLECTOR"
		}
		component = {
			slot = "LARGE_UTILITY_4"
			template = "LARGE_DARK_MATTER_DEFLECTOR"
		}
		component = {
			slot = "LARGE_UTILITY_5"
			template = "LARGE_ARMOR_5"
		}
		component = {
			slot = "LARGE_UTILITY_6"
			template = "LARGE_ARMOR_5"
		}
		component = {
			slot = "LARGE_UTILITY_7"
			template = "LARGE_ARMOR_5"
		}
		component = {
			slot = "LARGE_UTILITY_8"
			template = "LARGE_ARMOR_5"
		}		
		component = {
			slot = "AUX_UTILITY_1"
			template = "SHIELD_BOOSTER"
		}
		component = {
			slot = "AUX_UTILITY_2"
			template = "SHIELD_BOOSTER"
		}		
	}
	required_component="SENSOR_4"
	required_component="JUMP_DRIVE_1"
	required_component="COMBAT_COMPUTER_LINE_SAPIENT"
	required_component="BATTLESHIP_DARK_MATTER_REACTOR"
	required_component="REQUIRED_THRUSTER_A_7_K"
	
	# For special buildable
	is_special_buildable = yes
	allow_buildable_trigger = is_fallen_empire_machine
}

# Small Ship
ship_design = {
	name = "NAME_Gamma"
	ship_size = small_ship_fallen_empire
	section = {
		template = "fallen_empire_warship_small_key"
		slot = "mid"
		
		component = {
			slot = "LARGE_GUN_01"
			template = "ENERGY_TORPEDO_2"
		}	
		component = {
			slot = "SMALL_GUN_01"
			template = "SMALL_PLASMA_3"
		}		
		component = {
			slot = "SMALL_GUN_02"
			template = "SMALL_PLASMA_3"
		}
		component = {
			slot = "SMALL_GUN_03"
			template = "SMALL_PLASMA_3"
		}	
		component = {
			slot = "SMALL_GUN_04"
			template = "SMALL_PLASMA_3"
		}			
		component = {
			slot = "PD_01"
			template = "POINT_DEFENCE_3"
		}	
		component = {
			slot = "PD_02"
			template = "POINT_DEFENCE_3"
		}	
		component = {
			slot = "PD_03"
			template = "POINT_DEFENCE_3"
		}	
		component = {
			slot = "PD_04"
			template = "POINT_DEFENCE_3"
		}			
		component = {
			slot = "MEDIUM_UTILITY_1"
			template = "MEDIUM_DARK_MATTER_DEFLECTOR"
		}
		component = {
			slot = "MEDIUM_UTILITY_2"
			template = "MEDIUM_DARK_MATTER_DEFLECTOR"
		}
		component = {
			slot = "MEDIUM_UTILITY_3"
			template = "MEDIUM_DARK_MATTER_DEFLECTOR"
		}	
		component = {
			slot = "MEDIUM_UTILITY_4"
			template = "MEDIUM_ARMOR_5"
		}
		component = {
			slot = "MEDIUM_UTILITY_5"
			template = "MEDIUM_ARMOR_5"
		}
		component = {
			slot = "MEDIUM_UTILITY_6"
			template = "MEDIUM_ARMOR_5"
		}
		component = {
			slot = "AUX_UTILITY_1"
			template = "SHIELD_BOOSTER"
		}		
	}
	required_component="SENSOR_4"
	required_component="JUMP_DRIVE_1"
	required_component="COMBAT_COMPUTER_PICKET_SAPIENT"
	required_component="DESTROYER_DARK_MATTER_REACTOR"
	required_component="REQUIRED_THRUSTER_A_7_K"
	
	# For special buildable
	is_special_buildable = yes
	allow_buildable_trigger = is_fallen_empire_machine
}

# Defense Platform
ship_design = {
	name = "NAME_Sigma"
	ship_size = military_station_small_fallen_empire
	section = {
		template = "fallen_empire_station_small_key"
		slot = "mid"
		
		component = {
			slot = "LARGE_GUN_01"
			template = "LARGE_GAMMA_LASER"
		}
		component = {
			slot = "LARGE_GUN_02"
			template = "LARGE_GAMMA_LASER"
		}	
		component = {
			slot = "MEDIUM_GUN_01"
			template = "MEDIUM_DISRUPTOR_3"
		}
		component = {
			slot = "MEDIUM_GUN_02"
			template = "MEDIUM_DISRUPTOR_3"
		}
		component = {
			slot = "MEDIUM_GUN_03"
			template = "MEDIUM_DISRUPTOR_3"
		}
		component = {
			slot = "MEDIUM_GUN_04"
			template = "MEDIUM_DISRUPTOR_3"
		}
		component = {
			slot = "MEDIUM_GUN_05"
			template = "MEDIUM_DISRUPTOR_3"
		}		
		component = {
			slot = "PD_01"
			template = "POINT_DEFENCE_3"
		}
		component = {
			slot = "PD_02"
			template = "POINT_DEFENCE_3"
		}	
		component = {
			slot = "LARGE_UTILITY_1"
			template = "LARGE_DARK_MATTER_DEFLECTOR"
		}
		component = {
			slot = "LARGE_UTILITY_2"
			template = "LARGE_DARK_MATTER_DEFLECTOR"
		}
		component = {
			slot = "LARGE_UTILITY_3"
			template = "LARGE_DARK_MATTER_DEFLECTOR"
		}	
		component = {
			slot = "LARGE_UTILITY_4"
			template = "LARGE_ARMOR_5"
		}	
		component = {
			slot = "LARGE_UTILITY_5"
			template = "LARGE_ARMOR_5"
		}
		component = {
			slot = "LARGE_UTILITY_6"
			template = "LARGE_ARMOR_5"
		}
		component = {
			slot = "AUX_UTILITY_1"
			template = "SHIELD_BOOSTER"
		}
		component = {
			slot = "AUX_UTILITY_2"
			template = "SHIELD_BOOSTER"
		}			
	}
	required_component="SENSOR_4"
	required_component="COMBAT_COMPUTER_PLATFORM_SAPIENT"	
	required_component="PLATFORM_DARK_MATTER_REACTOR"
	
	# For special buildable
	is_special_buildable = yes
	allow_buildable_trigger = is_fallen_empire_machine
}