########## borg

soundgroup = 
{
	name = l_vo_borg
	# soundoverride ={
	# name = "advisor_generic_phrase_01"
	# file = "vo/ethics/vo_borg/advisor_generic_phrase_01.wav"
	# }
	# soundoverride ={
	# name = "advisor_generic_phrase_02"
	# file = "vo/ethics/vo_borg/advisor_generic_phrase_02.wav"
	# }
	# soundoverride ={
	# name = "advisor_generic_phrase_03"
	# file = "vo/ethics/vo_borg/advisor_generic_phrase_03.wav"
	# }
	soundoverride ={
	name = "advisor_notification_alien_empire_communication_01"
	file = "vo/ethics/vo_borg/advisor_notification_alien_empire_communication_01.wav"
	}
	soundoverride ={
	name = "advisor_notification_alien_federation_formed_01"
	file = "vo/ethics/vo_borg/advisor_notification_alien_federation_formed_01.wav"
	}
	soundoverride ={
	name = "advisor_notification_alien_spaceport_engaged_01"
	file = "vo/ethics/vo_borg/advisor_notification_alien_spaceport_engaged_01.wav"
	}
	# soundoverride ={
	# name = "advisor_notification_alien_vessel_detected_01"
	# file = "vo/ethics/vo_borg/advisor_notification_alien_vessel_detected_01.wav"
	# }			
	soundoverride ={
	name = "advisor_notification_alien_vessel_encountered_01"
	file = "vo/ethics/vo_borg/advisor_notification_alien_vessel_encountered_01.wav"
	}
	# soundoverride ={
	# name = "advisor_notification_army_recruited_01"
	# file = "vo/ethics/vo_borg/advisor_notification_army_recruited_01.wav"
	# }
	soundoverride ={
	name = "advisor_notification_building_ruined_01"
	file = "vo/ethics/vo_borg/advisor_notification_building_ruined_01.wav"
	}
	soundoverride ={
	name = "advisor_notification_colonization_progress_01"
	file = "vo/ethics/vo_borg/advisor_notification_colonization_progress_01.wav"
	}
	soundoverride ={
	name = "advisor_notification_colony_established_01"
	file = "vo/ethics/vo_borg/advisor_notification_colony_established_01.wav"
	}
	soundoverride ={
	name = "advisor_notification_colony_ship_destroyed_01"
	file = "vo/ethics/vo_borg/advisor_notification_colony_ship_destroyed_01.wav"
	}
	soundoverride ={
	name = "advisor_notification_colony_ship_under_attack_01"
	file = "vo/ethics/vo_borg/advisor_notification_colony_ship_under_attack_01.wav"
	}
	soundoverride ={
	name = "advisor_notification_construction_complete_01"
	file = "vo/ethics/vo_borg/advisor_notification_construction_complete_01.wav"
	}
	soundoverride ={
	name = "advisor_notification_construction_ship_destroyed_01"
	file = "vo/ethics/vo_borg/advisor_notification_construction_ship_destroyed_01.wav"
	}
	soundoverride ={
	name = "advisor_notification_construction_ship_under_attack_01"
	file = "vo/ethics/vo_borg/advisor_notification_construction_ship_under_attack_01.wav"
	}
	# soundoverride ={
	# name = "advisor_notification_debri_analysed_01"
	# file = "vo/ethics/vo_borg/advisor_notification_debri_analysed_01.wav"
	# }
	soundoverride ={
	name = "advisor_notification_debris_analysed_01"
	file = "vo/ethics/vo_borg/advisor_notification_debris_analysed_01.wav"
	}
	soundoverride ={
	name = "advisor_notification_discovery_detected_01"
	file = "vo/ethics/vo_borg/advisor_notification_discovery_detected_01.wav"
	}
	# soundoverride ={
	# name = "advisor_notification_enemey_declared_war_01"
	# file = "vo/ethics/vo_borg/advisor_notification_enemey_declared_war_01.wav"
	# }
	soundoverride ={
	name = "advisor_notification_enemy_declared_war_01"
	file = "vo/ethics/vo_borg/advisor_notification_enemy_declared_war_01.wav"
	}
	soundoverride ={
	name = "advisor_notification_enemy_invasion_defeated_01"
	file = "vo/ethics/vo_borg/advisor_notification_enemy_invasion_defeated_01.wav"
	}
	# soundoverride ={
	# name = "advisor_notification_enemy_invasion_progress_01"
	# file = "vo/ethics/vo_borg/advisor_notification_enemy_invasion_progress_01.wav"
	# }
	soundoverride ={
	name = "advisor_notification_enemy_troops_landing_01"
	file = "vo/ethics/vo_borg/advisor_notification_enemy_troops_landing_01.wav"
	}
	soundoverride ={
	name = "advisor_notification_evade_hostile_fleet_01"
	file = "vo/ethics/vo_borg/advisor_notification_evade_hostile_fleet_01.wav"
	}
	soundoverride ={
	name = "advisor_notification_federation_formed_01"
	file = "vo/ethics/vo_borg/advisor_notification_federation_formed_01.wav"
	}
	soundoverride ={
	name = "advisor_notification_fleet_destroyed_01"
	file = "vo/ethics/vo_borg/advisor_notification_fleet_destroyed_01.wav"
	}
	# soundoverride ={
	# name = "advisor_notification_fleet_detected_01"
	# file = "vo/ethics/vo_borg/advisor_notification_fleet_detected_01.wav"
	# }
	soundoverride ={
	name = "advisor_notification_frontier_outpost_lost_01"
	file = "vo/ethics/vo_borg/advisor_notification_frontier_outpost_lost_01.wav"
	}
	soundoverride ={
	name = "advisor_notification_generic_war_declare_01"
	file = "vo/ethics/vo_borg/advisor_notification_generic_war_declare_01.wav"
	}
	soundoverride ={
	name = "advisor_notification_hostile_fleet_detected_01"
	file = "vo/ethics/vo_borg/advisor_notification_hostile_fleet_detected_01.wav"
	}
	soundoverride ={
	name = "advisor_notification_hostile_fleet_engaged_01"
	file = "vo/ethics/vo_borg/advisor_notification_hostile_fleet_engaged_01.wav"
	}
	soundoverride ={
	name = "advisor_notification_hostile_station_engaged_01"
	file = "vo/ethics/vo_borg/advisor_notification_hostile_station_engaged_01.wav"
	}
	soundoverride ={
	name = "advisor_notification_incoming_transmission_01"
	file = "vo/ethics/vo_borg/advisor_notification_incoming_transmission_01.wav"
	}
	soundoverride ={
	name = "advisor_notification_invasion_enemy_won_01"
	file = "vo/ethics/vo_borg/advisor_notification_invasion_enemy_won_01.wav"
	}
	soundoverride ={
	name = "advisor_notification_invasion_failed_01"
	file = "vo/ethics/vo_borg/advisor_notification_invasion_failed_01.wav"
	}
	soundoverride ={
	name = "advisor_notification_invasion_progress_01"
	file = "vo/ethics/vo_borg/advisor_notification_invasion_progress_01.wav"
	}
	soundoverride ={
	name = "advisor_notification_invasion_success_01"
	file = "vo/ethics/vo_borg/advisor_notification_invasion_success_01.wav"
	}
	soundoverride ={
	name = "advisor_notification_military_station_lost_01"
	file = "vo/ethics/vo_borg/advisor_notification_military_station_lost_01.wav"
	}
	soundoverride ={
	name = "advisor_notification_mining_station_lost_01"
	file = "vo/ethics/vo_borg/advisor_notification_mining_station_lost_01.wav"
	}
	soundoverride ={
	name = "advisor_notification_observation_post_lost_01"
	file = "vo/ethics/vo_borg/advisor_notification_observation_post_lost_01.wav"
	}
	soundoverride ={
	name = "advisor_notification_planet_in_revolt_01"
	file = "vo/ethics/vo_borg/advisor_notification_planet_in_revolt_01.wav"
	}
	# soundoverride ={
	# name = "advisor_notification_planet_lost_01"
	# file = "vo/ethics/vo_borg/advisor_notification_planet_lost_01.wav"
	# }
	# soundoverride ={
	# name = "advisor_notification_planet_secured_01"
	# file = "vo/ethics/vo_borg/advisor_notification_planet_secured_01.wav"
	# }
	soundoverride ={
	name = "advisor_notification_player_declare_war_01"
	file = "vo/ethics/vo_borg/advisor_notification_player_declare_war_01.wav"
	}
	# soundoverride ={
	# name = "advisor_notification_pre_sentient_uplifted_01"
	# file = "vo/ethics/vo_borg/advisor_notification_pre_sentient_uplifted_01.wav"
	# }
	soundoverride ={
	name = "advisor_notification_primitive_enlighted_01"
	file = "vo/ethics/vo_borg/advisor_notification_primitive_enlighted_01.wav"
	}
	soundoverride ={
	name = "advisor_notification_research_complete_01"
	file = "vo/ethics/vo_borg/advisor_notification_research_complete_01.wav"
	}
	soundoverride ={
	name = "advisor_notification_research_station_lost_01"
	file = "vo/ethics/vo_borg/advisor_notification_research_station_lost_01.wav"
	}
	soundoverride ={
	name = "advisor_notification_science_ship_destroyed_01"
	file = "vo/ethics/vo_borg/advisor_notification_science_ship_destroyed_01.wav"
	}
	soundoverride ={
	name = "advisor_notification_science_ship_under_attack_01"
	file = "vo/ethics/vo_borg/advisor_notification_science_ship_under_attack_01.wav"
	}
	# soundoverride ={
	# name = "advisor_notification_ship_under_attack_01"
	# file = "vo/ethics/vo_borg/advisor_notification_ship_under_attack_01.wav"
	# }
	soundoverride ={
	name = "advisor_notification_ships_upgraded_01"
	file = "vo/ethics/vo_borg/advisor_notification_ships_upgraded_01.wav"
	}
	soundoverride ={
	name = "advisor_notification_situation_log_01"
	file = "vo/ethics/vo_borg/advisor_notification_situation_log_01.wav"
	}
	soundoverride ={
	name = "advisor_notification_spacebourne_encounter_01"
	file = "vo/ethics/vo_borg/advisor_notification_spacebourne_encounter_01.wav"
	}
	soundoverride ={
	name = "advisor_notification_spaceport_lost_01"
	file = "vo/ethics/vo_borg/advisor_notification_spaceport_lost_01.wav"
	}
	soundoverride ={
	name = "advisor_notification_spaceport_under_attack_01"
	file = "vo/ethics/vo_borg/advisor_notification_spaceport_under_attack_01.wav"
	}
	# soundoverride ={
	# name = "advisor_notification_spaceport_upgraded_01"
	# file = "vo/ethics/vo_borg/advisor_notification_spaceport_upgraded_01.wav"
	# }
	# soundoverride ={
	# name = "advisor_notification_special_project_available_01"
	# file = "vo/ethics/vo_borg/advisor_notification_special_project_available_01.wav"
	# }
	soundoverride ={
	name = "advisor_notification_special_project_complete_01"
	file = "vo/ethics/vo_borg/advisor_notification_special_project_complete_01.wav"
	}
	soundoverride ={
	name = "advisor_notification_species_modified_01"
	file = "vo/ethics/vo_borg/advisor_notification_species_modified_01.wav"
	}
	soundoverride ={
	name = "advisor_notification_station_under_attack_01"
	file = "vo/ethics/vo_borg/advisor_notification_station_under_attack_01.wav"
	}
	# soundoverride ={
	# name = "advisor_notification_survey_complete_01"
	# file = "vo/ethics/vo_borg/advisor_notification_survey_complete_01.wav"
	# }
	soundoverride ={
	name = "advisor_notification_system_survey_complete_01"
	file = "vo/ethics/vo_borg/advisor_notification_system_survey_complete_01.wav"
	}
	# soundoverride ={
	# name = "advisor_notification_terraform_station_lost_01"
	# file = "vo/ethics/vo_borg/advisor_notification_terraform_station_lost_01.wav"
	# }
	soundoverride ={
	name = "advisor_notification_tile_blocker_clear_01"
	file = "vo/ethics/vo_borg/advisor_notification_tile_blocker_clear_01.wav"
	}
	soundoverride ={
	name = "advisor_notification_unidentified_object_01"
	file = "vo/ethics/vo_borg/advisor_notification_unidentified_object_01.wav"
	}
	# soundoverride ={
	# name = "advisor_notification_upgrade_completed"
	# file = "vo/ethics/vo_borg/advisor_notification_upgrade_completed.wav"
	# }
	soundoverride ={
	name = "advisor_notification_wormhole_station_lost_01"
	file = "vo/ethics/vo_borg/advisor_notification_wormhole_station_lost_01.wav"
	}


	
}

########## vo_romulan

soundgroup = {
	name = l_vo_rom

	soundoverride = {
		name = "advisor_notification_system_survey_complete_01"
		file = "vo/ethics/vo_rom/advisor_notification_system_survey_complete_01.wav"
	}	
	soundoverride =	{
		name = "advisor_notification_science_ship_destroyed_01"
		file = "vo/ethics/vo_rom/advisor_notification_science_ship_destroyed_01.wav"
	}
	soundoverride = {
		name = "advisor_notification_science_ship_under_attack_01"
		file = "vo/ethics/vo_rom/advisor_notification_science_ship_under_attack_01.wav"
	}	
	soundoverride = {
		name = "advisor_notification_construction_complete_01"
		file = "vo/ethics/vo_rom/advisor_notification_construction_complete_01.wav"
	}	
	soundoverride = {
		name = "advisor_notification_construction_ship_destroyed_01"
		file = "vo/ethics/vo_rom/advisor_notification_construction_ship_destroyed_01.wav"
	}	
	soundoverride = {
		name = "advisor_notification_construction_ship_under_attack_01"
		file = "vo/ethics/vo_rom/advisor_notification_construction_ship_under_attack_01.wav"
	}	
	soundoverride = {
		name = "advisor_notification_colony_established_01"
		file = "vo/ethics/vo_rom/advisor_notification_colony_established_01.wav"
	}	
	soundoverride = {
		name = "advisor_notification_colony_ship_under_attack_01"
		file = "vo/ethics/vo_rom/advisor_notification_colony_ship_under_attack_01.wav"
	}	
	soundoverride = {
		name = "advisor_notification_colony_ship_destroyed_01"
		file = "vo/ethics/vo_rom/advisor_notification_colony_ship_destroyed_01.wav"
	}	
	soundoverride = {
		name = "advisor_notification_spaceport_lost_01"
		file = "vo/ethics/vo_rom/advisor_notification_spaceport_lost_01.wav"
	}	
	soundoverride = {
		name = "advisor_notification_enemy_invasion_defeated_01"
		file = "vo/ethics/vo_rom/advisor_notification_enemy_invasion_defeated_01.wav"
	}	
	soundoverride = {
		name = "advisor_notification_invasion_enemy_won_01"
		file = "vo/ethics/vo_rom/advisor_notification_invasion_enemy_won_01.wav"
	}	
	soundoverride = {
		name = "advisor_notification_invasion_failed_01"
		file = "vo/ethics/vo_rom/advisor_notification_invasion_failed_01.wav"
	}	
	soundoverride = {
		name = "advisor_notification_invasion_success_01"
		file = "vo/ethics/vo_rom/advisor_notification_invasion_success_01.wav"
	}	
	soundoverride = {
		name = "advisor_notification_military_station_lost_01"
		file = "vo/ethics/vo_rom/advisor_notification_military_station_lost_01.wav"
	}	
	soundoverride = {
		name = "advisor_notification_mining_station_lost_01"
		file = "vo/ethics/vo_rom/advisor_notification_mining_station_lost_01.wav"
	}	
	soundoverride = {
		name = "advisor_notification_research_station_lost_01"
		file = "vo/ethics/vo_rom/advisor_notification_research_station_lost_01.wav"
	}	
	soundoverride = {
		name = "advisor_notification_observation_post_lost_01"
		file = "vo/ethics/vo_rom/advisor_notification_observation_post_lost_01.wav"
	}
	soundoverride = {
		name = "advisor_notification_outpost_station_lost_01"
		file = "vo/ethics/vo_rom/advisor_notification_frontier_outpost_lost_01.wav"
	}	
	soundoverride = {
		name = "advisor_notification_wormhole_station_lost_01"
		file = "vo/ethics/vo_rom/advisor_notification_wormhole_station_lost_01.wav"
	}	
	soundoverride = {
		name = "advisor_notification_hostile_fleet_detected_01"
		file = "vo/ethics/vo_rom/advisor_notification_hostile_fleet_detected_01.wav"
	}	
	soundoverride = {
		name = "advisor_notification_hostile_fleet_engaged_01"
		file = "vo/ethics/vo_rom/advisor_notification_hostile_fleet_engaged_01.wav"
	}	
	soundoverride = {
		name = "advisor_notification_fleet_destroyed_01"
		file = "vo/ethics/vo_rom/advisor_notification_fleet_destroyed_01.wav"
	}	
	soundoverride = {
		name = "advisor_notification_station_under_attack_01"
		file = "vo/ethics/vo_rom/advisor_notification_station_under_attack_01.wav"
	}	
	soundoverride = {
		name = "advisor_notification_special_project_complete_01"
		file = "vo/ethics/vo_rom/advisor_notification_special_project_complete_01.wav"
	}	
	soundoverride = {
		name = "advisor_notification_situation_log_01"
		file = "vo/ethics/vo_rom/advisor_notification_situation_log_01.wav"
	}	
	soundoverride = {
		name = "advisor_notification_enemy_troops_landing_01"
		file = "vo/ethics/vo_rom/advisor_notification_enemy_troops_landing_01.wav"
	}	
	soundoverride = {
		name = "advisor_notification_incoming_transmission_01"
		file = "vo/ethics/vo_rom/advisor_notification_incoming_transmission_01.wav"
	}	
	soundoverride = {
		name = "advisor_notification_research_complete_01"
		file = "vo/ethics/vo_rom/advisor_notification_research_complete_01.wav"
	}	
	soundoverride = {
		name = "advisor_notification_discovery_detected_01"
		file = "vo/ethics/vo_rom/advisor_notification_discovery_detected_01.wav"
	}	
	soundoverride = {
		name = "advisor_notification_ships_upgraded_01"
		file = "vo/ethics/vo_rom/advisor_notification_ships_upgraded_01.wav"
	}	
	soundoverride = {
		name = "advisor_notification_evade_hostile_fleet_01"
		file = "vo/ethics/vo_rom/advisor_notification_evade_hostile_fleet_01.wav"
	}	
	soundoverride = {
		name = "advisor_notification_alien_spaceport_engaged_01"
		file = "vo/ethics/vo_rom/advisor_notification_alien_spaceport_engaged_01.wav"
	}	
	soundoverride = {
		name = "advisor_notification_building_ruined_01"
		file = "vo/ethics/vo_rom/advisor_notification_building_ruined_01.wav"
	}	
	soundoverride = {
		name = "advisor_notification_colonization_progress_01"
		file = "vo/ethics/vo_rom/advisor_notification_colonization_progress_01.wav"
	}	
	soundoverride = {
		name = "advisor_notification_debris_analysed_01"
		file = "vo/ethics/vo_rom/advisor_notification_debris_analysed_01.wav"
	}	
	soundoverride = {
		name = "advisor_notification_enemy_declared_war_01"
		file = "vo/ethics/vo_rom/advisor_notification_enemy_declared_war_01.wav"
	}	
	soundoverride = {
		name = "advisor_notification_federation_formed_01"
		file = "vo/ethics/vo_rom/advisor_notification_federation_formed_01.wav"
	}	
	soundoverride = {
		name = "advisor_notification_frontier_outpost_lost_01"
		file = "vo/ethics/vo_rom/advisor_notification_frontier_outpost_lost_01.wav"
	}	
	soundoverride = {
		name = "advisor_notification_hostile_station_engaged_01"
		file = "vo/ethics/vo_rom/advisor_notification_hostile_station_engaged_01.wav"
	}	
	soundoverride = {
		name = "advisor_notification_player_declare_war_01"
		file = "vo/ethics/vo_rom/advisor_notification_player_declare_war_01.wav"
	}	
	soundoverride = {
		name = "advisor_notification_primitive_enlighted_01"
		file = "vo/ethics/vo_rom/advisor_notification_primitive_enlighted_01.wav"
	}	
	soundoverride = {
		name = "advisor_notification_species_modified_01"
		file = "vo/ethics/vo_rom/advisor_notification_species_modified_01.wav"
	}	
	soundoverride = {
		name = "advisor_notification_tile_blocker_clear_01"
		file = "vo/ethics/vo_rom/advisor_notification_tile_blocker_clear_01.wav"
	}	
	soundoverride = {
		name = "advisor_notification_unidentified_object_01"
		file = "vo/ethics/vo_rom/advisor_notification_unidentified_object_01.wav"
	}	
	soundoverride = {
		name = "advisor_sample_vo_01"
		file = "vo/ethics/vo_rom/advisor_notification_building_ruined_01.wav"
	}	
	soundoverride = {
		name = "advisor_sample_vo_02"
		file = "vo/ethics/vo_rom/advisor_notification_unidentified_object_01.wav"
	}	
	soundoverride = {
		name = "advisor_sample_vo_03"
		file = "vo/ethics/vo_rom/advisor_notification_tile_blocker_clear_01.wav"
	}	
	soundoverride = {
		name = "advisor_sample_vo_04"
		file = "vo/ethics/vo_rom/advisor_notification_player_declare_war_01.wav"
	}	
}