UPLIFT_SNAKEOID_CAT = {
	desc = "UPLIFT_SNAKEOID_CAT_DESC"
	picture = "GFX_evt_landing_ship"
	level = 1
	
	spawn_chance = {
		modifier = {
			add = 5
			is_planet_class = pc_desert
			FROM = {
				owner = {
					NOT = {
						has_country_flag = upl_snakeoid
					}
				}
			}
			from = { owner = { has_normal_anomalies = yes } }
		}

		modifier = {
			factor = 0
			from.owner = {
				OR = {
					has_valid_civic = civic_fanatic_purifiers
					has_valid_civic = civic_hive_devouring_swarm
					has_valid_civic = civic_machine_terminator
				}
			}
		}
	}
	
	on_success = uplift.6000
	# TODO [MO] this used to be in on_success:
	#owner = { set_country_flag = upl_snakeoid }
}

UPLIFT_DESERT_CAT = {
	desc = "UPLIFT_DESERT_CAT_DESC"
	picture = "GFX_evt_underground_civilization"
	level = 1
	
	spawn_chance = {
		modifier = {
			add = 10
			is_planet_class = pc_desert
			from = { owner = { has_normal_anomalies = yes } }
		}
		modifier = {
			factor = 0
			from = {
				owner = {
					OR = {
						has_valid_civic = civic_fanatic_purifiers
						has_valid_civic = civic_hive_devouring_swarm
						has_valid_civic = civic_machine_terminator
					}
				}
			}
		}
	}
	
	on_success = {
		1 = uplift.6070
		1 = uplift.6075
	}
}

UPLIFT_OCEAN_CAT = {
	desc = "UPLIFT_GENERIC_CAT_DESC"
	picture = "GFX_evt_ship_in_orbit"
	level = 1
	
	spawn_chance = {
		modifier = {
			add = 10
			is_planet_class = pc_ocean
			from = { owner = { has_normal_anomalies = yes } }
		}
		modifier = {
			factor = 0
			from = {
				owner = {
					OR = {
						has_valid_civic = civic_fanatic_purifiers
						has_valid_civic = civic_hive_devouring_swarm
						has_valid_civic = civic_machine_terminator
					}
				}
			}
		}
	}
	
	on_success = {
		1 = uplift.6010
		1 = uplift.6015
	}
}

UPLIFT_ARID_CAT = {
	desc = "UPLIFT_GENERIC_CAT_DESC"
	picture = "GFX_evt_landing_ship"
	level = 1
	
	spawn_chance = {
		modifier = {
			add = 10
			is_planet_class = pc_arid
			from = { owner = { has_normal_anomalies = yes } }
		}
		modifier = {
			factor = 0
			from = {
				owner = {
					OR = {
						has_valid_civic = civic_fanatic_purifiers
						has_valid_civic = civic_hive_devouring_swarm
						has_valid_civic = civic_machine_terminator
					}
				}
			}
		}
	}
	
	on_success = {
		1 = uplift.6020
		1 = uplift.6025
	}
}

UPLIFT_CONTINENTAL_CAT = {
	desc = "UPLIFT_CONTINENTAL_CAT_DESC"
	picture = "GFX_evt_big_landing_ship"
	level = 1
	
	spawn_chance = {
		modifier = {
			add = 10
			is_planet_class = pc_continental
			from = { owner = { has_normal_anomalies = yes } }
		}
		modifier = {
			factor = 0
			from = {
				owner = {
					OR = {
						has_valid_civic = civic_fanatic_purifiers
						has_valid_civic = civic_hive_devouring_swarm
						has_valid_civic = civic_machine_terminator
					}
				}
			}
		}
	}
	
	on_success = {
		1 = uplift.6030
		1 = uplift.6035
	}
}

UPLIFT_TROPICAL_CAT = {
	desc = "UPLIFT_TROPICAL_CAT_DESC"
	picture = "GFX_evt_alien_nature"
	level = 1
	
	spawn_chance = {
		modifier = {
			add = 10
			is_planet_class = pc_tropical
			from = { owner = { has_normal_anomalies = yes } }
		}
		modifier = {
			factor = 0
			from = {
				owner = {
					OR = {
						has_valid_civic = civic_fanatic_purifiers
						has_valid_civic = civic_hive_devouring_swarm
						has_valid_civic = civic_machine_terminator
					}
				}
			}
		}
	}
	
	on_success = {
		1 = uplift.6040
		1 = uplift.6045
	}
}

UPLIFT_TUNDRA_CAT = {
	desc = "UPLIFT_TUNDRA_CAT_DESC"
	picture = "GFX_evt_atmospheric_entry"
	level = 1
	
	spawn_chance = {
		modifier = {
			add = 10
			is_planet_class = pc_tundra
			from = { owner = { has_normal_anomalies = yes } }
		}
		modifier = {
			factor = 0
			from = {
				owner = {
					OR = {
						has_valid_civic = civic_fanatic_purifiers
						has_valid_civic = civic_hive_devouring_swarm
						has_valid_civic = civic_machine_terminator
					}
				}
			}
		}
	}
	
	on_success = {
		1 = uplift.6050
		1 = uplift.6055
	}
}

UPLIFT_ARCTIC_CAT = {
	desc = "UPLIFT_ARCTIC_CAT_DESC"
	picture = "GFX_evt_atmospheric_entry"
	level = 1
	
	spawn_chance = {
		modifier = {
			add = 10
			is_planet_class = pc_arctic
			from = { owner = { has_normal_anomalies = yes } }
		}
		modifier = {
			factor = 0
			from = {
				owner = {
					OR = {
						has_valid_civic = civic_fanatic_purifiers
						has_valid_civic = civic_hive_devouring_swarm
						has_valid_civic = civic_machine_terminator
					}
				}
			}
		}
	}
	
	on_success = {
		1 = uplift.6060
		1 = uplift.6065
	}
}

UPLIFT_GENERIC_CAT = {
	desc = "UPLIFT_GENERIC_CAT_DESC"
	picture = "GFX_evt_landing_ship"
	level = 1
	
	spawn_chance = {
		modifier = {
			add = 5
			is_colonizeable_planet = yes
		}
		modifier = {
			factor = 0
			from = {
				owner = {
					OR = {
						has_valid_civic = civic_fanatic_purifiers
						has_valid_civic = civic_hive_devouring_swarm
						has_valid_civic = civic_machine_terminator
					}
				}
			}
		}
	}
	
	on_success = uplift.6080
	# TODO [MO] this used to be in on_success:
	#owner = { set_country_flag = upl_ongoing_generic }
}

UPLIFT_ROACHOID_CAT = {
	desc = "UPLIFT_ROACHOID_CAT_DESC"
	picture = "GFX_evt_atmospheric_entry"
	level = 1
	
	spawn_chance = {
		modifier = {
			add = 5
			is_planet_class = pc_nuked
			from = { owner = { has_normal_anomalies = yes } }
		}
		modifier = {
			factor = 0
			from = {
				owner = {
					OR = {
						has_valid_civic = civic_fanatic_purifiers
						has_valid_civic = civic_hive_devouring_swarm
						has_valid_civic = civic_machine_terminator
					}
				}
			}
		}
	}
	
	on_success = uplift.6090
}
