# This is a template which multiple species can use. 

lyridian_male_clothes_01 = {
	default = "gfx/models/portraits/lyridian/lyridian_male_clothes_04.dds"
	
	game_setup = {#will run with a limited country scope. species and government is set but the country does not actually exist
		default = "gfx/models/portraits/lyridian/lyridian_male_clothes_01.dds"
	}
	
	#species scope
	species = { #generic portrait for a species
		default = "gfx/models/portraits/lyridian/lyridian_male_clothes_01.dds"
		random = { 
	        trigger = { uses_borg_full_prosthetics = yes } 
	        list = {
		        "gfx/models/portraits/borg/borg_male_clothes_01.dds"
	        } 
        } 
	}
	
	#pop scope
	pop = { #for a specific pop
		#default = "gfx/models/portraits/lyridian/lyridian_male_clothes_01.dds"
		random = {
			trigger = { uses_borg_full_prosthetics = no } 
			list = {
				"gfx/models/portraits/lyridian/lyridian_male_clothes_05.dds"
				"gfx/models/portraits/lyridian/lyridian_male_clothes_06.dds"
			}
		}

        random = { 
	        trigger = { uses_borg_full_prosthetics = yes } 
	        list = {
		        "gfx/models/portraits/borg/borg_male_clothes_01.dds"
	        } 
        } 
	}
	#leader scope
	leader = { #scientists, generals, admirals, governor
		random = { 
	        trigger = { uses_borg_full_prosthetics = no leader_class = admiral }
	        list = {
		        "gfx/models/portraits/lyridian/lyridian_male_clothes_01.dds"
	        }
        }
		random = { 
	        trigger = { uses_borg_full_prosthetics = no leader_class = scientist } 
	        list = {
		        "gfx/models/portraits/lyridian/lyridian_male_clothes_02.dds"
	        }
        }
		random = { 
	        trigger = { uses_borg_full_prosthetics = no leader_class = general } 
	        list = {
		        "gfx/models/portraits/lyridian/lyridian_male_clothes_03.dds"
	        }
        }
		random = { 
	        trigger = { uses_borg_full_prosthetics = no leader_class = governor } 
	        list = {
		        "gfx/models/portraits/lyridian/lyridian_male_clothes_04.dds"
	        }
        }
		random = { 
	        trigger = { uses_borg_full_prosthetics = yes } 
	        list = {
		        "gfx/models/portraits/borg/borg_male_clothes_01.dds"
	        }
        }
	}

	#leader scope 
	ruler = { #for rulers
		#default = "gfx/models/portraits/lyridian/lyridian_male_clothes_04.dds"
		random = { 
	        trigger = { uses_borg_full_prosthetics = no } 
	        list = {
		        "gfx/models/portraits/lyridian/lyridian_male_clothes_04.dds"
	        } 
        }
		random = { 
	        trigger = { uses_borg_full_prosthetics = yes } 
	        list = {
		        "gfx/models/portraits/borg/borg_male_clothes_01.dds"
	        } 
        }
	}
}
