# This is a template which multiple species can use. 

dosi_female_clothes_01 = {
	default = "gfx/models/portraits/dosi/dosi_female_clothes_01.dds"
	
	game_setup = {#will run with a limited country scope. species and government is set but the country does not actually exist
		default = "gfx/models/portraits/dosi/dosi_female_clothes_01.dds"
	}
	
	#species scope
	species = { #generic portrait for a species
		default = "gfx/models/portraits/dosi/dosi_female_clothes_01.dds"
		random = { 
	        trigger = { uses_borg_full_prosthetics = yes } 
	        list = {
		        "gfx/models/portraits/borg/borg_female_clothes_01.dds"
	        } 
        }
	}
	
	#pop scope
	pop = { #for a specific pop
		default = "gfx/models/portraits/dosi/dosi_female_clothes_01.dds"
		random = {
			trigger = { uses_borg_full_prosthetics = no } 
			list = {
				"gfx/models/portraits/dosi/dosi_female_clothes_01.dds"
			}
		}
        random = { 
	        trigger = { uses_borg_full_prosthetics = yes } 
	        list = {
		        "gfx/models/portraits/borg/borg_female_clothes_01.dds"
	        } 
        } 
	}
	#leader scope
	leader = { #scientists, generals, admirals, governor
		default = "gfx/models/portraits/dosi/dosi_female_clothes_01.dds"
		random = {
			trigger = { uses_borg_full_prosthetics = no } 
			list = {
				"gfx/models/portraits/dosi/dosi_female_clothes_01.dds"
			}
		}
		random = { 
	        trigger = { uses_borg_full_prosthetics = yes } 
	        list = {
		        "gfx/models/portraits/borg/borg_female_clothes_01.dds"
	        } 
        }
	}

	#leader scope 
	ruler = { #for rulers
		default = "gfx/models/portraits/dosi/dosi_female_clothes_01.dds"
		random = {
			trigger = { uses_borg_full_prosthetics = no } 
			list = {
				"gfx/models/portraits/dosi/dosi_female_clothes_01.dds"
			}
		}
		random = { 
	        trigger = { uses_borg_full_prosthetics = yes } 
	        list = {
		        "gfx/models/portraits/borg/borg_female_clothes_01.dds"
	        } 
        }
	}
}
