# This is a template which multiple species can use. 
  
pacifican_bald_male_01 = {
	default = "gfx/models/portraits/all/bald.dds"
	
	game_setup = {#will run with a limited country scope. species and government is set but the country does not actually exist
		default = "gfx/models/portraits/all/bald.dds"
	}
	
	#species scope
	species = { #generic portrait for a species
		default = "gfx/models/portraits/all/bald.dds"
		random = { 
	        trigger = { uses_borg_prosthetics = yes } 
	        list = {
		        "gfx/models/portraits/borg/borg_male_prosthetic_01.dds"
				"gfx/models/portraits/borg/borg_male_prosthetic_02.dds"
				"gfx/models/portraits/borg/borg_male_prosthetic_03.dds"
	        } 
        } 
	}
	
	#pop scope
	pop = { #for a specific pop
		default = "gfx/models/portraits/all/bald.dds"
		random = {
			trigger = { uses_borg_prosthetics = no } 
			list = {
				"gfx/models/portraits/all/bald.dds"
			}
		}
		random = { 
	        trigger = { uses_borg_prosthetics = yes } 
	        list = {
		        "gfx/models/portraits/borg/borg_male_prosthetic_01.dds"
				"gfx/models/portraits/borg/borg_male_prosthetic_02.dds"
				"gfx/models/portraits/borg/borg_male_prosthetic_03.dds"
	        } 
        } 
	}
	
	#leader scope
	leader = { #scientists, generals, admirals, governor
		default = "gfx/models/portraits/all/bald.dds"
		random = {
			trigger = { uses_borg_prosthetics = no }
			list = {
				"gfx/models/portraits/all/bald.dds"
			}
		}
		random = { 
	        trigger = { uses_borg_prosthetics = yes } 
	        list = {
		        "gfx/models/portraits/borg/borg_male_prosthetic_01.dds"
				"gfx/models/portraits/borg/borg_male_prosthetic_02.dds"
				"gfx/models/portraits/borg/borg_male_prosthetic_03.dds"
	        } 
        }		
	}
  
	#leader scope 
	ruler = { #for rulers
		default = "gfx/models/portraits/all/bald.dds"	
		random = {
			trigger = { uses_borg_prosthetics = no }
			list = {
				"gfx/models/portraits/all/bald.dds"
			}
		}
		random = { 
	        trigger = { uses_borg_prosthetics = yes } 
	        list = {
		        "gfx/models/portraits/borg/borg_male_prosthetic_01.dds"
				"gfx/models/portraits/borg/borg_male_prosthetic_02.dds"
				"gfx/models/portraits/borg/borg_male_prosthetic_03.dds"
	        } 
        }
	}
}

pacifican_bald_female_01 = {
	default = "gfx/models/portraits/all/bald.dds"
	
	game_setup = {#will run with a limited country scope. species and government is set but the country does not actually exist
		default = "gfx/models/portraits/all/bald.dds"
	}
	
	#species scope
	species = { #generic portrait for a species
		default = "gfx/models/portraits/all/bald.dds"
		random = { 
	        trigger = { uses_borg_prosthetics = yes } 
	        list = {
		        "gfx/models/portraits/borg/borg_female_prosthetic_01.dds"
	        } 
        } 
	}
	
	#pop scope
	pop = { #for a specific pop
		default = "gfx/models/portraits/all/bald.dds"
		random = {
			trigger = { uses_borg_prosthetics = no } 
			list = {
				"gfx/models/portraits/all/bald.dds"
			}
		}
		random = { 
	        trigger = { uses_borg_prosthetics = yes } 
	        list = {
		        "gfx/models/portraits/borg/borg_female_prosthetic_01.dds"
	        } 
        } 
	}
	
	#leader scope
	leader = { #scientists, generals, admirals, governor
		default = "gfx/models/portraits/all/bald.dds"
		random = {
			trigger = { uses_borg_prosthetics = no } 
			list = {
				"gfx/models/portraits/all/bald.dds"
			}
		}
		random = { 
	        trigger = { uses_borg_prosthetics = yes } 
	        list = {
		        "gfx/models/portraits/borg/borg_female_prosthetic_01.dds"
	        } 
        }		
	}
  
	#leader scope 
	ruler = { #for rulers
		default = "gfx/models/portraits/all/bald.dds"	
		random = {
			trigger = { uses_borg_prosthetics = no } 
			list = {
				"gfx/models/portraits/all/bald.dds"
			}
		}
		random = { 
	        trigger = { uses_borg_prosthetics = yes } 
	        list = {
		        "gfx/models/portraits/borg/borg_female_prosthetic_01.dds"
	        } 
        }
	}
}
  
