
# automate_habitat_refinery_planet = {
	# available = {
		# has_designation = col_habitat_refinery
		# owner = {
			# NOR = {
				# has_authority = auth_machine_intelligence
				# has_authority = auth_hive_mind
			# }
		# }
		# free_jobs < 3
	# }

	# prio_districts = {
		# district_hab_housing
		# district_hab_mining
		# district_hab_commercial
	# }

	# buildings = {
		# 1 = {
			# building = building_hab_capital
			# available = {
				# always = yes
			# }
		# }

		# 2 = {
			# building = building_robot_assembly_plant
			# available = {
				# owner = {
					# robot_assembly_plant_upkeep_affordable = yes
				# }
			# }
		# }

		# 3 = {
			# building = building_clinic
			# available = {
				# owner = {
					# clinic_upkeep_affordable = yes
				# }
			# }
		# }

		# 4 = {
			# building = building_chemical_plant
			# available = {
				# owner = {
					# chemical_plant_upkeep_affordable = yes
				# }
			# }
		# }

		# 5 = {
			# building = building_crystal_plant
			# available = {
				# owner = {
					# crystal_plant_upkeep_affordable = yes
				# }
			# }
		# }

		# 6 = {
			# building = building_refinery
			# available = {
				# owner = {
					# refinery_upkeep_affordable = yes
				# }
			# }
		# }

		# 7 = {
			# building = building_chemical_plant
			# available = {
				# owner = {
					# chemical_plant_upkeep_affordable = yes
				# }
			# }
		# }

		# 8 = {
			# building = building_crystal_plant
			# available = {
				# owner = {
					# crystal_plant_upkeep_affordable = yes
				# }
			# }
		# }

		# 9 = {
			# building = building_refinery
			# available = {
				# owner = {
					# refinery_upkeep_affordable = yes
				# }
			# }
		# }

		# 10 = {
			# building = building_stronghold
			# available = {
				# owner = {
					# stronghold_upkeep_affordable = yes
				# }
			# }
		# }

		# 11 = {
			# building = building_stronghold
			# available = {
				# owner = {
					# stronghold_upkeep_affordable = yes
				# }
			# }
		# }

		# 12 = {
			# building = building_chemical_plant
			# available = {
				# owner = {
					# chemical_plant_upkeep_affordable = yes
				# }
			# }
		# }

		# 13 = {
			# building = building_crystal_plant
			# available = {
				# owner = {
					# crystal_plant_upkeep_affordable = yes
				# }
			# }
		# }

		# 14 = {
			# building = building_refinery
			# available = {
				# owner = {
					# refinery_upkeep_affordable = yes
				# }
			# }
		# }

		# 15 = {
			# building = building_stronghold
			# available = {
				# owner = {
					# stronghold_upkeep_affordable = yes
				# }
			# }
		# }

		# 16 = {
			# building = building_stronghold
			# available = {
				# owner = {
					# stronghold_upkeep_affordable = yes
				# }
			# }
		# }
	# }
# }