
# automate_machineworld_factory_planet = {
	# available = {
		# has_designation = col_mac_factory
		# free_jobs < 3
	# }

	# prio_districts = {
		# district_city
		# district_mining
		# district_generator

	# }

	# buildings = {
		# 1 = {
			# building = building_capital
			# available = {
				# always = yes
			# }
		# }

		# 2 = {
			# building = building_machine_assembly_plant
			# available = {
				# owner = {
					# machine_assembly_plant_upkeep_affordable = yes
				# }
			# }
		# }

		# 3 = {
			# building = building_maintenance_depot
			# available = {
				# owner = {
					# maintenance_depot_upkeep_affordable = yes
				# }
			# }
		# }

		# 4 = {
			# building = building_energy_grid
			# available = {
				# owner = {
					# energy_grid_upkeep_affordable = yes
				# }
			# }
		# }

		# 5 = {
			# building = building_hive_node
			# available = {
				# owner = {
					# hive_node_upkeep_affordable = yes
				# }
			# }
		# }

		# 6 = {
			# building = building_mineral_purification_plant
			# available = {
				# owner = {
					# mineral_purification_plant_upkeep_affordable = yes
				# }
			# }
		# }

		# 7 = {
			# building = building_sentinel_posts
			# available = {
				# owner = {
					# sentinel_posts_upkeep_affordable = yes
				# }
			# }
		# }

		# 8 = {
			# building = building_factory_1
			# available = {
				# owner = {
					# factory_1_upkeep_affordable = yes
				# }
			# }
		# }

		# 9 = {
			# building = building_factory_1
			# available = {
				# owner = {
					# factory_1_upkeep_affordable = yes
				# }
			# }
		# }

		# 10 = {
			# building = building_maintenance_depot
			# available = {
				# owner = {
					# maintenance_depot_upkeep_affordable = yes
				# }
			# }
		# }

		# 11 = {
			# building = building_factory_1
			# available = {
				# owner = {
					# factory_1_upkeep_affordable = yes
				# }
			# }
		# }

		# 12 = {
			# building = building_factory_1
			# available = {
				# owner = {
					# factory_1_upkeep_affordable = yes
				# }
			# }
		# }

		# 13 = {
			# building = building_production_center
			# available = {
				# owner = {
					# production_center_upkeep_affordable = yes
				# }
			# }
		# }

		# 14 = {
			# building = building_factory_1
			# available = {
				# owner = {
					# factory_1_upkeep_affordable = yes
				# }
			# }
		# }

		# 15 = {
			# building = building_factory_1
			# available = {
				# owner = {
					# factory_1_upkeep_affordable = yes
				# }
			# }
		# }

		# 16 = {
			# building = building_factory_1
			# available = {
				# owner = {
					# factory_1_upkeep_affordable = yes
				# }
			# }
		# }
	# }
# }