
# automate_ringworld_reseach_planet = {
	# available = {
		# has_designation = col_ring_research
		# owner = { 
			# NOR = { 
				# has_authority = auth_machine_intelligence
				# has_authority = auth_hive_mind 
			# }
		# }
		# free_jobs < 3
	# }

	# prio_districts = {
		# district_rw_science
	# }

	# buildings = {
		# 1 = {
			# building = building_capital
			# available = {
				# always = yes
			# }
		# }

		# 2 = {
			# building = building_robot_assembly_plant
			# available = {
				# owner = {
					# robot_assembly_plant_upkeep_affordable = yes
				# }
			# }
		# }

		# 3 = {
			# building = building_clinic
			# available = {
				# owner = {
					# clinic_upkeep_affordable = yes
				# }
			# }
		# }

		# 4 = {
			# building = building_research_lab_1
			# available = {
				# owner = {
					# research_lab_1_upkeep_affordable = yes
				# }
			# }
		# }

		# 5 = {
			# building = building_research_lab_1
			# available = {
				# owner = {
					# research_lab_1_upkeep_affordable = yes
				# }
			# }
		# }

		# 6 = {
			# building = building_precinct_house
			# available = {
				# owner = {
					# precinct_house_upkeep_affordable = yes
				# }
			# }
		# }

		# 7 = {
			# building = building_research_lab_1
			# available = {
				# owner = {
					# research_lab_1_upkeep_affordable = yes
				# }
			# }
		# }

		# 8 = {
			# building = building_institute
			# available = {
				# owner = {
					# institute_upkeep_affordable = yes
				# }
			# }
		# }

		# 9 = {
			# building = building_research_lab_1
			# available = {
				# owner = {
					# research_lab_1_upkeep_affordable = yes
				# }
			# }
		# }

		# 10 = {
			# building = building_research_lab_1
			# available = {
				# owner = {
					# research_lab_1_upkeep_affordable = yes
				# }
			# }
		# }

		# 11 = {
			# building = building_research_lab_1
			# available = {
				# owner = {
					# research_lab_1_upkeep_affordable = yes
				# }
			# }
		# }

		# 12 = {
			# building = building_research_lab_1
			# available = {
				# owner = {
					# research_lab_1_upkeep_affordable = yes
				# }
			# }
		# }

		# 13 = {
			# building = building_autochthon_monument
			# available = {
				# owner = {
					# autochthon_monument_upkeep_affordable = yes
				# }
			# }
		# }

		# 14 = {
			# building = building_research_lab_1
			# available = {
				# owner = {
					# research_lab_1_upkeep_affordable = yes
				# }
			# }
		# }

		# 15 = {
			# building = building_research_lab_1
			# available = {
				# owner = {
					# research_lab_1_upkeep_affordable = yes
				# }
			# }
		# }

		# 16 = {
			# building = building_galactic_stock_exchange
			# available = {
				# owner = {
					# galactic_stock_exchange_upkeep_affordable = yes
				# }
			# }
		# }
	# }
# }