
# automate_ringworld_hive_planet = {
	# available = {
		# has_designation = col_ring_mix
		# owner = {  
			# has_authority = auth_hive_mind
		# }
		# free_jobs < 3
	# }

	# prio_districts = {
		# district_rw_city
		# district_rw_farming
		# district_rw_generator
	# }

	# buildings = {
		# 1 = {
			# building = building_hive_capital
			# available = {
				# always = yes
			# }
		# }

		# 2 = {
			# building = building_spawning_pool
			# available = {
				# owner = {
					# spawning_pool_upkeep_affordable = yes
				# }
			# }
		# }

		# 3 = {
			# building = building_maintenance_depot
			# available = {
				# owner = {
					# maintenance_depot_upkeep_affordable = yes
				# }
			# }
		# }

		# 4 = {
			# building = building_food_processing_facility
			# available = {
				# owner = {
					# food_processing_facility_upkeep_affordable = yes
				# }
			# }
		# }

		# 5 = {
			# building = building_energy_grid
			# available = {
				# owner = {
					# energy_grid_upkeep_affordable = yes
				# }
			# }
		# }

		# 6 = {
			# building = building_foundry_1
			# available = {
				# owner = {
					# foundry_1_upkeep_affordable = yes
				# }
			# }
		# }

		# 7 = {
			# building = building_foundry_1
			# available = {
				# owner = {
					# foundry_1_upkeep_affordable = yes
				# }
			# }
		# }

		# 8 = {
			# building = building_foundry_1
			# available = {
				# owner = {
					# foundry_1_upkeep_affordable = yes
				# }
			# }
		# }

		# 9 = {
			# building = building_sentinel_posts
			# available = {
				# owner = {
					# sentinel_posts_upkeep_affordable = yes
				# }
			# }
		# }

		# 10 = {
			# building = building_maintenance_depot
			# available = {
				# owner = {
					# maintenance_depot_upkeep_affordable = yes
				# }
			# }
		# }

		# 11 = {
			# building = building_stronghold
			# available = {
				# owner = {
					# stronghold_upkeep_affordable = yes
				# }
			# }
		# }

		# 12 = {
			# building = building_maintenance_depot
			# available = {
				# owner = {
					# maintenance_depot_upkeep_affordable = yes
				# }
			# }
		# }

		# 13 = {
			# building = building_stronghold
			# available = {
				# owner = {
					# stronghold_upkeep_affordable = yes
				# }
			# }
		# }

		# 14 = {
			# building = building_stronghold
			# available = {
				# owner = {
					# stronghold_upkeep_affordable = yes
				# }
			# }
		# }

		# 15 = {
			# building = building_hive_node
			# available = {
				# owner = {
					# hive_node_upkeep_affordable = yes
				# }
			# }
		# }

		# 16 = {
			# building = building_stronghold
			# available = {
				# owner = {
					# stronghold_upkeep_affordable = yes
				# }
			# }
		# }
	# }
# }