portraits = {
	# antican
	antican_female_04 = {	
		entity = "portrait_human_female_04_entity" clothes_selector = "antican_female_clothes_01" hair_selector = "antican_female_hair_01" greeting_sound = "antican_female_greetings_01"
		character_textures = {
			"gfx/models/portraits/antican/antican_female_body_04.dds"
			"gfx/models/portraits/antican/antican_female_body_04b.dds"
		}
	}
	antican_male_04 = {	
		entity = "portrait_human_male_04_entity" clothes_selector = "antican_male_clothes_01" hair_selector = "antican_male_hair_01" greeting_sound = "antican_male_greetings_01" 
		character_textures = {
			"gfx/models/portraits/antican/antican_male_body_04.dds"
			"gfx/models/portraits/antican/antican_male_body_04b.dds"
		}
	}
}

portrait_groups = {
	antican = {
		default = antican_male_04
		game_setup = { #will run with a limited country scope. species and government is set but the country does not actually exist
			add = {
				trigger = {
					ruler = { gender = male }
				}
				portraits = {
					antican_male_04
				}
			}
			add = {
				trigger = {
					ruler = { gender = female }
				}
				portraits = {
					antican_female_04
				}
			}
		}		
		
		#species scope
		species = { #generic portrait for a species
			add = {
				portraits = {
					antican_female_04
					antican_male_04
				}
			}
		}		
		
		#pop scope
		pop = { #for a specific pop
			add = {
				portraits = {
					antican_female_04
					antican_male_04
				}
			}
		}
		
		#leader scope
		leader = { #scientists, generals, admirals, governor
			add = {
				trigger = {
					gender = female
				}
				portraits = {
					antican_female_04
				}
			}
			add = {
				trigger = {
					gender = male
				}
				portraits = {
					antican_male_04
				}
			}
		}

			
		#leader scope 
		ruler = {
			add = {
				trigger = {
					gender = female
				}
				portraits = {
					antican_female_04
				}
			}
			add = {
				trigger = {
					gender = male
				}
				portraits = {
					antican_male_04
				}
			}
		}
	}	
}