portraits = {
	# changeling
	changeling_female_01 = {	
		entity = "portrait_changeling_female_01_entity"	clothes_selector = "changeling_female_clothes_01" 	hair_selector = "changeling_female_hair_01"	greeting_sound = "changeling_wave_greetings"
		character_textures = {
			"gfx/models/portraits/changeling/changeling_female_body_01.dds"
		}
	}
	changeling_male_04 = {	
		entity = "portrait_changeling_male_04_entity"	clothes_selector = "changeling_male_clothes_01" 	hair_selector = "changeling_male_hair_01" greeting_sound = "changeling_wave_greetings" 
		character_textures = {
			"gfx/models/portraits/changeling/changeling_male_body_04.dds"
		}
	}
}

portrait_groups = {
	changeling = {
		default = changeling_female_01
		game_setup = { #will run with a limited country scope. species and government is set but the country does not actually exist
			add = {
				trigger = {
					ruler = { gender = male }
				}
				portraits = {
					changeling_male_04
				}
			}
			add = {
				trigger = {
					ruler = { gender = female }
				}
				portraits = {
					changeling_female_01
				}
			}
		}		
		
		#species scope
		species = { #generic portrait for a species
			add = {
				portraits = {
					changeling_female_01
					changeling_male_04
				}
			}
		}		
		
		#pop scope
		pop = { #for a specific pop
			add = {
				portraits = {
					changeling_female_01
					changeling_male_04
				}
			}
		}
		
		#leader scope
		leader = { #scientists, generals, admirals, governor
			add = {
				trigger = {
					gender = female
				}
				portraits = {
					changeling_female_01
				}
			}
			add = {
				trigger = {
					gender = male
				}
				portraits = {
					changeling_male_04
				}
			}
		}

			
		#leader scope 
		ruler = {
			add = {
				trigger = {
					gender = female
				}
				portraits = {
					changeling_female_01
				}
			}
			add = {
				trigger = {
					gender = male
				}
				portraits = {
					changeling_male_04
				}
			}
		}
	}	
}
