portraits = {
	# devore
	devore_female_01 = {	
		entity = "portrait_devore_female_01_entity"	clothes_selector = "devore_female_clothes_01" 	hair_selector = "human_female_hair_01"	greeting_sound = "human_female_greetings_03"
		character_textures = {
			"gfx/models/portraits/devore/devore_female_body_01.dds"
		}
	}
	devore_female_02 = {	
		entity = "portrait_devore_female_02_entity"	clothes_selector = "devore_female_clothes_01" 	hair_selector = "human_female_hair_02"	greeting_sound = "human_female_greetings_04"
		character_textures = {
			"gfx/models/portraits/devore/devore_female_body_02.dds"
		}
	}
	devore_female_03 = {	
		entity = "portrait_devore_female_03_entity"	clothes_selector = "devore_female_clothes_01" 	hair_selector = "human_female_hair_03"	greeting_sound = "human_female_greetings_05"
		character_textures = {
			"gfx/models/portraits/devore/devore_female_body_03.dds"
		}
	}	
	devore_female_04 = {	
		entity = "portrait_devore_female_04_entity"	clothes_selector = "devore_female_clothes_01" 	hair_selector = "human_female_hair_04"	greeting_sound = "human_female_greetings_01"
		character_textures = {
			"gfx/models/portraits/devore/devore_female_body_04.dds"
		}
	}
	devore_female_05 = {	
		entity = "portrait_devore_female_05_entity"	clothes_selector = "devore_female_clothes_01" 	hair_selector = "human_female_hair_05"	greeting_sound = "human_female_greetings_02"
		character_textures = {
			"gfx/models/portraits/devore/devore_female_body_05.dds"
		}
	}
	devore_male_01 = {	
		entity = "portrait_devore_male_01_entity"	clothes_selector = "devore_male_clothes_01" 	hair_selector = "human_male_hair_01"		greeting_sound = "devore_male_greetings_01" 
		character_textures = {
			"gfx/models/portraits/devore/devore_male_body_01.dds"
		}
	}	
	devore_male_02 = {	
		entity = "portrait_devore_male_02_entity"	clothes_selector = "devore_male_clothes_01" 	hair_selector = "human_male_hair_02"		greeting_sound = "devore_male_greetings_01" 
		character_textures = {
			"gfx/models/portraits/devore/devore_male_body_02.dds"
		}
	}
	devore_male_03 = {	
		entity = "portrait_devore_male_03_entity"	clothes_selector = "devore_male_clothes_01" 	hair_selector = "human_male_hair_03"		greeting_sound = "devore_male_greetings_01" 
		character_textures = {
			"gfx/models/portraits/devore/devore_male_body_03.dds"
		}
	}
	devore_male_04 = {	
		entity = "portrait_devore_male_04_entity"	clothes_selector = "devore_male_clothes_01" 	hair_selector = "human_male_hair_04"		greeting_sound = "devore_male_greetings_01" 
		character_textures = {
			"gfx/models/portraits/devore/devore_male_body_04.dds"
		}
	}
	devore_male_05 = {	
		entity = "portrait_devore_male_05_entity"	clothes_selector = "devore_male_clothes_01" 	hair_selector = "human_male_hair_05"	greeting_sound = "devore_male_greetings_01"
		character_textures = {
			"gfx/models/portraits/devore/devore_male_body_05.dds"
		}
	}
}

portrait_groups = {
	devore = {
		default = devore_female_01
		game_setup = { #will run with a limited country scope. species and government is set but the country does not actually exist
			add = {
				trigger = {
					ruler = { gender = male }
				}
				portraits = {
					devore_male_01
					devore_male_02
					devore_male_03
					devore_male_04
					devore_male_05
				}
			}
			add = {
				trigger = {
					ruler = { gender = female }
				}
				portraits = {
					devore_female_01
					devore_female_02
					devore_female_03
					devore_female_04
					devore_female_05
				}
			}
			#set = {
			#	trigger = { ... }
			#	portraits = { ... }
			#	#using "set =" instead of "add" will first clear any portraits already added
			#}
		}		
		
		#species scope
		species = { #generic portrait for a species
			add = {
				portraits = {
					devore_female_01
					devore_female_02
					devore_female_03					
					devore_female_04
					devore_female_05
					devore_male_01
					devore_male_02
					devore_male_03
					devore_male_04
					devore_male_05
				}
			}
		}		
		
		#pop scope
		pop = { #for a specific pop
			add = {
				portraits = {
					devore_female_01
					devore_female_02
					devore_female_03				
					devore_female_04
					devore_female_05
					devore_male_01
					devore_male_02
					devore_male_03					
					devore_male_04
					devore_male_05
				}
			}
		}
		
		#leader scope
		leader = { #scientists, generals, admirals, governor
			add = {
				trigger = {
					gender = female
				}
				portraits = {
					devore_female_01
					devore_female_02
					devore_female_03					
					devore_female_04
					devore_female_05
				}
			}
			add = {
				trigger = {
					gender = male
				}
				portraits = {
					devore_male_01
					devore_male_02			
					devore_male_03
					devore_male_04
					devore_male_05
				}
			}
		}

			
		#leader scope 
		ruler = {
			add = {
				trigger = {
					gender = female
				}
				portraits = {
					devore_female_01
					devore_female_02
					devore_female_03					
					devore_female_04
					devore_female_05
				}
			}
			add = {
				trigger = {
					gender = male
				}
				portraits = {
					devore_male_01
					devore_male_02				
					devore_male_03
					devore_male_04
					devore_male_05
				}
			}
		}
	}	
}