portraits = {
	# kazon
	kazon_female_04 = {	
		entity = "portrait_kazon_female_04_entity"	clothes_selector = "kazon_female_clothes_01" 	hair_selector = "kazon_female_hair_01"	greeting_sound = "grumpy_female_greetings_01"
		character_textures = { "gfx/models/portraits/kazon/kazon_female_body_04.dds" }
	}
	kazon_female_04b = {	
		entity = "portrait_kazon_female_04_entity"	clothes_selector = "kazon_female_clothes_01" 	hair_selector = "kazon_female_hair_01"	greeting_sound = "grumpy_female_greetings_01"
		character_textures = { "gfx/models/portraits/kazon/kazon_female_body_04b.dds" }
	}
	kazon_female_04c = {	
		entity = "portrait_kazon_female_04_entity"	clothes_selector = "kazon_female_clothes_01" 	hair_selector = "kazon_female_hair_01"	greeting_sound = "grumpy_female_greetings_01"
		character_textures = { "gfx/models/portraits/kazon/kazon_female_body_04c.dds" }
	}
	kazon_male_04 = {	
		entity = "portrait_kazon_male_04_entity"	clothes_selector = "kazon_male_clothes_01" 	hair_selector = "kazon_male_hair_01"		greeting_sound = "grumpy_male_greetings_01" 
		character_textures = { "gfx/models/portraits/kazon/kazon_male_body_04.dds" }
	}
	kazon_male_04b = {	
		entity = "portrait_kazon_male_04_entity"	clothes_selector = "kazon_male_clothes_01" 	hair_selector = "kazon_male_hair_01"		greeting_sound = "grumpy_male_greetings_01" 
		character_textures = { "gfx/models/portraits/kazon/kazon_male_body_04b.dds" }
	}
	kazon_male_04c = {	
		entity = "portrait_kazon_male_04_entity"	clothes_selector = "kazon_male_clothes_01" 	hair_selector = "kazon_male_hair_01"		greeting_sound = "grumpy_male_greetings_01" 
		character_textures = { "gfx/models/portraits/kazon/kazon_male_body_04c.dds" }
	}
}

portrait_groups = {
	kazon = {
		default = kazon_male_04
		game_setup = { #will run with a limited country scope. species and government is set but the country does not actually exist
			add = {
				trigger = {
					ruler = { gender = male }
				}
				portraits = {
					kazon_male_04
					kazon_male_04b
					kazon_male_04c
				}
			}
			add = {
				trigger = {
					ruler = { gender = female }
				}
				portraits = {
					kazon_female_04
					kazon_female_04b
					kazon_female_04c
				}
			}
		}		
		
		#species scope
		species = { #generic portrait for a species
			add = {
				portraits = {			
					kazon_female_04
					kazon_female_04b
					kazon_female_04c
					kazon_male_04
					kazon_male_04b
					kazon_male_04c
				}
			}
		}		
		
		#pop scope
		pop = { #for a specific pop
			add = {
				portraits = {			
					kazon_female_04
					kazon_female_04b
					kazon_female_04c
					kazon_male_04
					kazon_male_04b
					kazon_male_04c
				}
			}
		}
		
		#leader scope
		leader = { #scientists, generals, admirals, governor
			add = {
				trigger = {
					gender = female
				}
				portraits = {			
					kazon_female_04
					kazon_female_04b
					kazon_female_04c
				}
			}
			add = {
				trigger = {
					gender = male
				}
				portraits = {
					kazon_male_04
					kazon_male_04b
					kazon_male_04c
				}
			}
		}

			
		#leader scope 
		ruler = {
			add = {
				trigger = {
					gender = female
				}
				portraits = {			
					kazon_female_04
					kazon_female_04b
					kazon_female_04c
				}
			}
			add = {
				trigger = {
					gender = male
				}
				portraits = {
					kazon_male_04
					kazon_male_04b
					kazon_male_04c
				}
			}
		}
	}	
}