portraits = {
	# pralor
	pralor_male_01 = {	
		entity = "portrait_pralor_male_01_entity"	clothes_selector = "pralor_male_clothes_01" 	hair_selector = "pralor_male_hair_01"		greeting_sound = "pralor_male_greetings_01" 
		character_textures = { "gfx/models/portraits/pralor/pralor_male_body_01.dds" }
	}
}

portrait_groups = {
	pralor = {
		default = pralor_male_01
		game_setup = { #will run with a limited country scope. species and government is set but the country does not actually exist
			add = {
				portraits = { 
					pralor_male_01
				}
			}
		}		
		
		#species scope
		species = { #generic portrait for a species
			add = {
				portraits = { 
					pralor_male_01
				}
			}
		}		
		
		#pop scope
		pop = { #for a specific pop
			add = {
				portraits = { pralor_male_01 }
			}
		}
		
		#leader scope
		leader = { #scientists, generals, admirals, governor
			add = {
				portraits = { 
					pralor_male_01
				 }
			}
		}

			
		#leader scope 
		ruler = {
			add = {
				portraits = { 
					pralor_male_01
				}
			}
		}
	}	
}