portraits = {
	# selay
	selay_01 = {	
		entity = "portrait_selay_male_01_entity" clothes_selector = "selay_clothes_01" hair_selector = "selay_head_01" greeting_sound = "selay_greetings_01" 
		character_textures = { "gfx/models/portraits/selay/selay_male_body_01.dds" }
	}
	selay_02 = {	
		entity = "portrait_selay_male_01_entity" clothes_selector = "selay_clothes_01" hair_selector = "selay_head_02" greeting_sound = "selay_greetings_01" 
		character_textures = { "gfx/models/portraits/selay/selay_male_body_02.dds" }
	}
	selay_03 = {	
		entity = "portrait_selay_male_01_entity" clothes_selector = "selay_clothes_01" hair_selector = "selay_head_03" greeting_sound = "selay_greetings_01" 
		character_textures = { "gfx/models/portraits/selay/selay_male_body_03.dds" }
	}
}

portrait_groups = {
	selay = {
		default = selay_01
		game_setup = { #will run with a limited country scope. species and government is set but the country does not actually exist
			add = {
				portraits = {
					selay_01
					selay_02
					selay_03
				}
			}
		}
		#species scope
		species = { #generic portrait for a species
			add = {
				portraits = {
					selay_01
					selay_02
					selay_03
				}
			}
		}
		#pop scope
		pop = { #for a specific pop
			add = {
				portraits = {
					selay_01
					selay_02
					selay_03
				}
			}
		}
		#leader scope
		leader = { #scientists, generals, admirals, governor
			add = {
				portraits = {
					selay_01
					selay_02
					selay_03
				}
			}
		}
		#leader scope 
		ruler = {
			add = {
				portraits = {
					selay_01
					selay_02
					selay_03
				}
			}
		}
	}	
}