portraits = {
	# vorta
	vorta_female_01 = {	
		entity = "portrait_vorta_female_01_entity"	clothes_selector = "mammalian_vorta_female_clothes_01" 	hair_selector = "vorta_female_hair_01"	greeting_sound = "human_female_greetings_01"
		character_textures = {
			"gfx/models/portraits/vorta/vorta_female_body_01.dds"
		}
	}
	vorta_female_02 = {	
		entity = "portrait_vorta_female_02_entity"	clothes_selector = "mammalian_vorta_female_clothes_01" 	hair_selector = "vorta_female_hair_01"	greeting_sound = "human_female_greetings_02"
		character_textures = {
			"gfx/models/portraits/vorta/vorta_female_body_02.dds"
		}
	}
	vorta_female_03 = {	
		entity = "portrait_vorta_female_03_entity"	clothes_selector = "mammalian_vorta_female_clothes_01" 	hair_selector = "vorta_female_hair_01"	greeting_sound = "human_female_greetings_03"
		character_textures = {
			"gfx/models/portraits/vorta/vorta_female_body_03.dds"
		}
	}
	vorta_female_04 = {	
		entity = "portrait_vorta_female_04_entity"	clothes_selector = "mammalian_vorta_female_clothes_01" 	hair_selector = "vorta_female_hair_01"	greeting_sound = "human_female_greetings_04"
		character_textures = {
			"gfx/models/portraits/vorta/vorta_female_body_04.dds"
		}
	}
	vorta_male_01 = {	
		entity = "portrait_vorta_male_04_entity"	clothes_selector = "mammalian_vorta_male_clothes_01" 	hair_selector = "vorta_male_hair_01"		greeting_sound = "human_male_greetings_05" 
		character_textures = {
			"gfx/models/portraits/vorta/vorta_male_body_01.dds"
		}
	}
	vorta_male_02 = {	
		entity = "portrait_vorta_male_01_entity"	clothes_selector = "mammalian_vorta_male_clothes_01" 	hair_selector = "vorta_male_hair_01"		greeting_sound = "human_male_greetings_01" 
		character_textures = {
			"gfx/models/portraits/vorta/vorta_male_body_02.dds"
		}
	}
	proto_vorta = { 
		entity = "portrait_mammalian_06_presapient_entity" clothes_selector = "no_texture" hair_selector = "no_texture" greeting_sound = "mammalian_01_greetings" 
		character_textures = {
			"gfx/models/portraits/vorta/proto_vorta_01.dds"
			"gfx/models/portraits/vorta/proto_vorta_02.dds"
			"gfx/models/portraits/vorta/proto_vorta_03.dds"
		}
	}
}

portrait_groups = {
	vorta = {
		default = vorta_female_01
		game_setup = { #will run with a limited country scope. species and government is set but the country does not actually exist
			add = {
				trigger = {
					ruler = { gender = male }
				}
				portraits = {
					vorta_male_01
					vorta_male_02
				}
			}
			add = {
				trigger = {
					ruler = { gender = female }
				}
				portraits = {
					vorta_female_01
					vorta_female_02
					vorta_female_03
					vorta_female_04
				}
			}
		}		
		
		#species scope
		species = { #generic portrait for a species
			add = {
				portraits = {
					vorta_female_01
					vorta_female_02
					vorta_female_03
					vorta_female_04
					vorta_male_01
					vorta_male_02
				}
			}
		}		
		
		#pop scope
		pop = { #for a specific pop
			add = {
				portraits = {
					vorta_female_01
					vorta_female_02
					vorta_female_03
					vorta_female_04
					vorta_male_01
					vorta_male_02
				}
			}
		}
		
		#leader scope
		leader = { #scientists, generals, admirals, governor
			add = {
				trigger = {
					gender = female
				}
				portraits = {
					vorta_female_01
					vorta_female_02
					vorta_female_03
					vorta_female_04
				}
			}
			add = {
				trigger = {
					gender = male
				}
				portraits = {
					vorta_male_01
					vorta_male_02
				}
			}
		}

			
		#leader scope 
		ruler = {
			add = {
				trigger = {
					gender = female
				}
				portraits = {
					vorta_female_01
					vorta_female_02
					vorta_female_03
					vorta_female_04
				}
			}
			add = {
				trigger = {
					gender = male
				}
				portraits = {
					vorta_male_01
					vorta_male_02
				}
			}
		}
	}	
}