# Icons set here are the ones show in the actual slot. The reason is so that we can support different icons for different sizes. 

#############
#	COST	#
#############

@cost_6S = 30
@cost_6M = 60
@cost_6L = 120

#############
#	 FTL	#
#############

@ftl1 = 5
@ftl2 = 10
@ftl3 = 15
@ftl4 = 30

@power1 = -5
@power2 = -7.5
@power3 = -10
@power4 = -10

########################
# Enigmatic Fortress
########################

utility_component_template = {
	key = "ENIGMATIC_DECODER"
	size = aux
	icon = "GFX_ship_part_enigmatic_decoder"
	icon_frame = 1
	power = -20
		resources = { category = ship_components cost = { minerals = 10 } } # 20
	hidden = yes
	#prerequisites = { tech_enigmatic_decoder }
	component_set = "ENIGMATIC_DECODER"

	ship_modifier = {
		ship_tracking_add = 5
		ship_accuracy_add = 5
	}
	
	ai_weight = {
		weight = 10
		modifier = {
			factor = 2
			OR = {
				is_preferred_weapons = weapon_type_energy
				is_preferred_weapons = weapon_type_kinetic
			}		
		}
	}
}

utility_component_template = {
	key = "ENIGMATIC_ENCODER"
	size = aux
	icon = "GFX_ship_part_enigmatic_encoder"
	icon_frame = 1
	power = -20
		resources = { category = ship_components cost = { minerals = 10 } } # 20
	hidden = yes
	#prerequisites = { tech_enigmatic_encoder }
	component_set = "ENIGMATIC_ENCODER"

	modifier = {
		ship_evasion_mult = 0.20
	}
	
	ai_weight = {
		weight = 10
		modifier = {
			factor = 2
			OR = {
				is_preferred_weapons = weapon_type_explosive
				is_preferred_weapons = weapon_type_strike_craft
			}		
		}
	}
}

utility_component_template = {
	key = "ENIGMATIC_DISRUPTION_FIELD"
	size = medium
	icon = "GFX_ship_part_enigmatic_disruption_field"
	icon_frame = 1
	power = 0
		resources = { category = ship_components cost = { minerals = 10 } } # 0
	hidden = yes
	component_set = "ENIGMATIC_DISRUPTION_FIELD"
	
	hostile_aura = {
		name = "aura_shield_dampener"
		radius = 120
		apply_on = ships
		
		stack_info = {			#A ship can only be affected by one aura of a certain id. If multiple auras have the same ID the one with the highest priority will be applied.
			id = hostile_inhibitor_aura
			priority = 1
		}
		
		modifier = {
			ship_shield_regen_add_perc = -0.10
			ship_fire_rate_mult = -0.20
		}
		
		graphics = {
			area_effect = {
				entity = "circle_area_entity"
				dynamic_scale = yes
			}
			ship_effect = {
				entity = "ship_aura_negative_entity"
				dynamic_scale = no
			}
		}
	}
}
