version="2.8.1"
tags={
	"Star Trek"
	"Total Conversion"
}
name="ST: New Horizons local"
picture="thumb.jpg"
supported_version="2.8.1"
path="C:/Users/Grinsel/Documents/Paradox Interactive/Stellaris/mod/3211"
remote_file_id="688086068"